8 0.0456960436391 0.0328390083519 0.000616073608398
16 0.0126049067002 0.0166962178103 0.000611066818237
32 0.00406990591185 0.00839009923707 0.00126528739929
64 0.00168992931661 0.00425735435235 0.00189805030823
128 0.000799023733983 0.00214632388492 0.00330662727356
256 0.000395140208923 0.00107800893946 0.00771117210388
