0.000976562 0 0
0.00292969 0 0
0.00488281 0 0
0.00683594 0 0
0.00878906 0 0
0.0107422 0 0
0.0126953 0 0
0.0146484 0 0
0.0166016 0 0
0.0185547 0 0
0.0205078 0 0
0.0224609 0 0
0.0244141 0 0
0.0263672 0 0
0.0283203 0 0
0.0302734 0 0
0.0322266 0 0
0.0341797 0 0
0.0361328 0 0
0.0380859 0 0
0.0400391 0 0
0.0419922 0 0
0.0439453 0 0
0.0458984 0 0
0.0478516 0 0
0.0498047 0 0
0.0517578 0 0
0.0537109 0 0
0.0556641 0 0
0.0576172 0 0
0.0595703 0 0
0.0615234 0 0
0.0634766 0 0
0.0654297 0 0
0.0673828 0 0
0.0693359 0 0
0.0712891 0 0
0.0732422 0 0
0.0751953 0 0
0.0771484 0 0
0.0791016 0 0
0.0810547 0 0
0.0830078 0 0
0.0849609 0 0
0.0869141 0 0
0.0888672 0 0
0.0908203 0 0
0.0927734 0 0
0.0947266 0 0
0.0966797 0 0
0.0986328 0 0
0.100586 0 0
0.102539 0 0
0.104492 0 0
0.106445 0 0
0.108398 0 0
0.110352 0 0
0.112305 0 0
0.114258 0 0
0.116211 0 0
0.118164 0 0
0.120117 0 0
0.12207 0 0
0.124023 0 0
0.125977 0 0
0.12793 0 0
0.129883 0 0
0.131836 0 0
0.133789 0 0
0.135742 0 0
0.137695 0 0
0.139648 0 0
0.141602 0 0
0.143555 0 0
0.145508 0 0
0.147461 0 0
0.149414 0 0
0.151367 0 0
0.15332 0 0
0.155273 0 0
0.157227 0 0
0.15918 0 0
0.161133 0 0
0.163086 0 0
0.165039 0 0
0.166992 0 0
0.168945 0 0
0.170898 0 0
0.172852 0 0
0.174805 0 0
0.176758 0 0
0.178711 0 0
0.180664 0 0
0.182617 0 0
0.18457 0 0
0.186523 0 0
0.188477 0 0
0.19043 0 0
0.192383 0 0
0.194336 0 0
0.196289 0 0
0.198242 0 -6.39184e-16
0.200195 1.33227e-15 -4.24027e-15
0.202148 6.21725e-15 -1.56389e-14
0.204102 2.17604e-14 -5.49973e-14
0.206055 7.4607e-14 -1.87831e-13
0.208008 2.5091e-13 -6.27991e-13
0.209961 8.16236e-13 -2.04094e-12
0.211914 2.58593e-12 -6.46472e-12
0.213867 7.97673e-12 -1.99416e-11
0.21582 2.39444e-11 -5.98608e-11
0.217773 6.99139e-11 -1.74784e-10
0.219727 1.98471e-10 -4.96178e-10
0.22168 5.47502e-10 -1.36876e-09
0.223633 1.46685e-09 -3.66712e-09
0.225586 3.81461e-09 -9.53653e-09
0.227539 9.62338e-09 -2.40584e-08
0.229492 2.35373e-08 -5.88432e-08
0.231445 5.57792e-08 -1.39448e-07
0.233398 1.28e-07 -3.19999e-07
0.235352 2.8425e-07 -7.10625e-07
0.237305 6.10503e-07 -1.52626e-06
0.239258 1.26743e-06 -3.16858e-06
0.241211 2.54206e-06 -6.35515e-06
0.243164 4.92352e-06 -1.23088e-05
0.245117 9.20552e-06 -2.30139e-05
0.24707 1.66118e-05 -4.15296e-05
0.249023 2.89318e-05 -7.23301e-05
0.250977 4.86441e-05 -0.000121612
0.25293 7.89976e-05 -0.000197499
0.254883 0.000124027 -0.000310079
0.256836 0.000188495 -0.000471265
0.258789 0.000277785 -0.000694521
0.260742 0.000397787 -0.00099459
0.262695 0.000554845 -0.00138735
0.264648 0.000755763 -0.00188984
0.266602 0.00100787 -0.00252045
0.268555 0.00131908 -0.00329902
0.270508 0.00169784 -0.00424679
0.272461 0.00215307 -0.00538619
0.274414 0.00269405 -0.00674063
0.276367 0.00333043 -0.00833447
0.27832 0.00407222 -0.0101931
0.280273 0.00492985 -0.012343
0.282227 0.00591413 -0.0148117
0.28418 0.00703611 -0.0176276
0.286133 0.00830706 -0.0208197
0.288086 0.00973848 -0.0244177
0.290039 0.0113421 -0.0284521
0.291992 0.0131298 -0.0329543
0.293945 0.0151135 -0.0379557
0.295898 0.0173053 -0.0434885
0.297852 0.0197171 -0.049585
0.299805 0.0223608 -0.0562779
0.301758 0.0252484 -0.0635999
0.303711 0.0283913 -0.0715836
0.305664 0.0318009 -0.0802615
0.307617 0.0354882 -0.0896656
0.30957 0.0394637 -0.0998275
0.311523 0.0437374 -0.110778
0.313477 0.0483185 -0.122546
0.31543 0.0532156 -0.13516
0.317383 0.0584363 -0.148647
0.319336 0.0639873 -0.163032
0.321289 0.0698742 -0.178337
0.323242 0.0761011 -0.194582
0.325195 0.082671 -0.211784
0.327148 0.0895851 -0.229956
0.329102 0.0968432 -0.249108
0.331055 0.104443 -0.269245
0.333008 0.112381 -0.290367
0.334961 0.120651 -0.312472
0.336914 0.129244 -0.335548
0.338867 0.138152 -0.35958
0.34082 0.14736 -0.384547
0.342773 0.156855 -0.41042
0.344727 0.166619 -0.437163
0.34668 0.176633 -0.464734
0.348633 0.186876 -0.493085
0.350586 0.197323 -0.522159
0.352539 0.20795 -0.551895
0.354492 0.21873 -0.582223
0.356445 0.229633 -0.613068
0.358398 0.240629 -0.644352
0.360352 0.251691 -0.675991
0.362305 0.262788 -0.707909
0.364258 0.273891 -0.739998
0.366211 0.284948 -0.772115
0.368164 0.295925 -0.804155
0.370117 0.306801 -0.836033
0.37207 0.317553 -0.867646
0.374023 0.328152 -0.898881
0.375977 0.338572 -0.929631
0.37793 0.348793 -0.959785
0.379883 0.358792 -0.98923
0.381836 0.36855 -1.01786
0.383789 0.37805 -1.04556
0.385742 0.387277 -1.07224
0.387695 0.396222 -1.0978
0.389648 0.404875 -1.12216
0.391602 0.413237 -1.14522
0.393555 0.421291 -1.16694
0.395508 0.429057 -1.18719
0.397461 0.436501 -1.20597
0.399414 0.443673 -1.22313
0.401367 0.450521 -1.23872
0.40332 0.457095 -1.25259
0.405273 0.463385 -1.26474
0.407227 0.469374 -1.27519
0.40918 0.475127 -1.28377
0.411133 0.480595 -1.29059
0.413086 0.485813 -1.29559
0.415039 0.490818 -1.2987
0.416992 0.49559 -1.30012
0.418945 0.500304 -1.29977
0.420898 0.504633 -1.29728
0.422852 0.508671 -1.29277
0.424805 0.512591 -1.28653
0.426758 0.516294 -1.27837
0.428711 0.519823 -1.2684
0.430664 0.523208 -1.25664
0.432617 0.526442 -1.24313
0.43457 0.529536 -1.2279
0.436523 0.532492 -1.21095
0.438477 0.535314 -1.19229
0.44043 0.538006 -1.17195
0.442383 0.540573 -1.14998
0.444336 0.54302 -1.12642
0.446289 0.545357 -1.10132
0.448242 0.54759 -1.07472
0.450195 0.549722 -1.04665
0.452148 0.551754 -1.01718
0.454102 0.55369 -0.986352
0.456055 0.555533 -0.954211
0.458008 0.557288 -0.920802
0.459961 0.558956 -0.886178
0.461914 0.560538 -0.850397
0.463867 0.562033 -0.813514
0.46582 0.563445 -0.77558
0.467773 0.564777 -0.736642
0.469727 0.56603 -0.696755
0.47168 0.567202 -0.65598
0.473633 0.568294 -0.614376
0.475586 0.569306 -0.571999
0.477539 0.570239 -0.5289
0.479492 0.571096 -0.485133
0.481445 0.571875 -0.440756
0.483398 0.572577 -0.395828
0.485352 0.573201 -0.350411
0.487305 0.573746 -0.304562
0.489258 0.574213 -0.258339
0.491211 0.574602 -0.211796
0.493164 0.574915 -0.164994
0.495117 0.575151 -0.117983
0.49707 0.575308 -0.0708567
0.499023 0.575396 -0.0235906
0.500977 0.575396 0.0235906
0.50293 0.575308 0.0708567
0.504883 0.575151 0.117983
0.506836 0.574915 0.164994
0.508789 0.574602 0.211796
0.510742 0.574213 0.258339
0.512695 0.573746 0.304562
0.514648 0.573201 0.350411
0.516602 0.572577 0.395828
0.518555 0.571875 0.440756
0.520508 0.571096 0.485133
0.522461 0.570239 0.5289
0.524414 0.569306 0.571999
0.526367 0.568294 0.614376
0.52832 0.567202 0.65598
0.530273 0.56603 0.696755
0.532227 0.564777 0.736642
0.53418 0.563445 0.77558
0.536133 0.562033 0.813514
0.538086 0.560538 0.850397
0.540039 0.558956 0.886178
0.541992 0.557288 0.920802
0.543945 0.555533 0.954211
0.545898 0.55369 0.986352
0.547852 0.551754 1.01718
0.549805 0.549722 1.04665
0.551758 0.54759 1.07472
0.553711 0.545357 1.10132
0.555664 0.54302 1.12642
0.557617 0.540573 1.14998
0.55957 0.538006 1.17195
0.561523 0.535314 1.19229
0.563477 0.532492 1.21095
0.56543 0.529536 1.2279
0.567383 0.526442 1.24313
0.569336 0.523208 1.25664
0.571289 0.519823 1.2684
0.573242 0.516294 1.27837
0.575195 0.512591 1.28653
0.577148 0.508671 1.29277
0.579102 0.504633 1.29728
0.581055 0.500304 1.29977
0.583008 0.49559 1.30012
0.584961 0.490818 1.2987
0.586914 0.485813 1.29559
0.588867 0.480595 1.29059
0.59082 0.475127 1.28377
0.592773 0.469374 1.27519
0.594727 0.463385 1.26474
0.59668 0.457095 1.25259
0.598633 0.450521 1.23872
0.600586 0.443673 1.22313
0.602539 0.436501 1.20597
0.604492 0.429057 1.18719
0.606445 0.421291 1.16694
0.608398 0.413237 1.14522
0.610352 0.404875 1.12216
0.612305 0.396222 1.0978
0.614258 0.387277 1.07224
0.616211 0.37805 1.04556
0.618164 0.36855 1.01786
0.620117 0.358792 0.98923
0.62207 0.348793 0.959785
0.624023 0.338572 0.929631
0.625977 0.328152 0.898881
0.62793 0.317553 0.867646
0.629883 0.306801 0.836033
0.631836 0.295925 0.804155
0.633789 0.284948 0.772115
0.635742 0.273891 0.739998
0.637695 0.262788 0.707909
0.639648 0.251691 0.675991
0.641602 0.240629 0.644352
0.643555 0.229633 0.613068
0.645508 0.21873 0.582223
0.647461 0.20795 0.551895
0.649414 0.197323 0.522159
0.651367 0.186876 0.493085
0.65332 0.176633 0.464734
0.655273 0.166619 0.437163
0.657227 0.156855 0.41042
0.65918 0.14736 0.384547
0.661133 0.138152 0.35958
0.663086 0.129244 0.335548
0.665039 0.120651 0.312472
0.666992 0.112381 0.290367
0.668945 0.104443 0.269245
0.670898 0.0968432 0.249108
0.672852 0.0895851 0.229956
0.674805 0.082671 0.211784
0.676758 0.0761011 0.194582
0.678711 0.0698742 0.178337
0.680664 0.0639873 0.163032
0.682617 0.0584363 0.148647
0.68457 0.0532156 0.13516
0.686523 0.0483185 0.122546
0.688477 0.0437374 0.110778
0.69043 0.0394637 0.0998275
0.692383 0.0354882 0.0896656
0.694336 0.0318009 0.0802615
0.696289 0.0283913 0.0715836
0.698242 0.0252484 0.0635999
0.700195 0.0223608 0.0562779
0.702148 0.0197171 0.049585
0.704102 0.0173053 0.0434885
0.706055 0.0151135 0.0379557
0.708008 0.0131298 0.0329543
0.709961 0.0113421 0.0284521
0.711914 0.00973848 0.0244177
0.713867 0.00830706 0.0208197
0.71582 0.00703611 0.0176276
0.717773 0.00591413 0.0148117
0.719727 0.00492985 0.012343
0.72168 0.00407222 0.0101931
0.723633 0.00333043 0.00833447
0.725586 0.00269405 0.00674063
0.727539 0.00215307 0.00538619
0.729492 0.00169784 0.00424679
0.731445 0.00131908 0.00329902
0.733398 0.00100787 0.00252045
0.735352 0.000755763 0.00188984
0.737305 0.000554845 0.00138735
0.739258 0.000397787 0.00099459
0.741211 0.000277785 0.000694521
0.743164 0.000188495 0.000471265
0.745117 0.000124027 0.000310079
0.74707 7.89976e-05 0.000197499
0.749023 4.86441e-05 0.000121612
0.750977 2.89318e-05 7.23301e-05
0.75293 1.66118e-05 4.15296e-05
0.754883 9.20552e-06 2.30139e-05
0.756836 4.92352e-06 1.23088e-05
0.758789 2.54206e-06 6.35515e-06
0.760742 1.26743e-06 3.16858e-06
0.762695 6.10503e-07 1.52626e-06
0.764648 2.8425e-07 7.10625e-07
0.766602 1.28e-07 3.19999e-07
0.768555 5.57792e-08 1.39448e-07
0.770508 2.35373e-08 5.88432e-08
0.772461 9.62338e-09 2.40584e-08
0.774414 3.81461e-09 9.53653e-09
0.776367 1.46685e-09 3.66712e-09
0.77832 5.47502e-10 1.36876e-09
0.780273 1.98471e-10 4.96178e-10
0.782227 6.99139e-11 1.74784e-10
0.78418 2.39444e-11 5.98608e-11
0.786133 7.97673e-12 1.99416e-11
0.788086 2.58593e-12 6.46472e-12
0.790039 8.16236e-13 2.04094e-12
0.791992 2.5091e-13 6.27991e-13
0.793945 7.4607e-14 1.87831e-13
0.795898 2.17604e-14 5.49973e-14
0.797852 6.21725e-15 1.56389e-14
0.799805 1.33227e-15 4.24027e-15
0.801758 0 6.39184e-16
0.803711 0 0
0.805664 0 0
0.807617 0 0
0.80957 0 0
0.811523 0 0
0.813477 0 0
0.81543 0 0
0.817383 0 0
0.819336 0 0
0.821289 0 0
0.823242 0 0
0.825195 0 0
0.827148 0 0
0.829102 0 0
0.831055 0 0
0.833008 0 0
0.834961 0 0
0.836914 0 0
0.838867 0 0
0.84082 0 0
0.842773 0 0
0.844727 0 0
0.84668 0 0
0.848633 0 0
0.850586 0 0
0.852539 0 0
0.854492 0 0
0.856445 0 0
0.858398 0 0
0.860352 0 0
0.862305 0 0
0.864258 0 0
0.866211 0 0
0.868164 0 0
0.870117 0 0
0.87207 0 0
0.874023 0 0
0.875977 0 0
0.87793 0 0
0.879883 0 0
0.881836 0 0
0.883789 0 0
0.885742 0 0
0.887695 0 0
0.889648 0 0
0.891602 0 0
0.893555 0 0
0.895508 0 0
0.897461 0 0
0.899414 0 0
0.901367 0 0
0.90332 0 0
0.905273 0 0
0.907227 0 0
0.90918 0 0
0.911133 0 0
0.913086 0 0
0.915039 0 0
0.916992 0 0
0.918945 0 0
0.920898 0 0
0.922852 0 0
0.924805 0 0
0.926758 0 0
0.928711 0 0
0.930664 0 0
0.932617 0 0
0.93457 0 0
0.936523 0 0
0.938477 0 0
0.94043 0 0
0.942383 0 0
0.944336 0 0
0.946289 0 0
0.948242 0 0
0.950195 0 0
0.952148 0 0
0.954102 0 0
0.956055 0 0
0.958008 0 0
0.959961 0 0
0.961914 0 0
0.963867 0 0
0.96582 0 0
0.967773 0 0
0.969727 0 0
0.97168 0 0
0.973633 0 0
0.975586 0 0
0.977539 0 0
0.979492 0 0
0.981445 0 0
0.983398 0 0
0.985352 0 0
0.987305 0 0
0.989258 0 0
0.991211 0 0
0.993164 0 0
0.995117 0 0
0.99707 0 0
0.999023 0 0
