0.000976562 0 0
0.00292969 0 0
0.00488281 0 0
0.00683594 0 0
0.00878906 0 0
0.0107422 0 0
0.0126953 0 0
0.0146484 0 0
0.0166016 0 0
0.0185547 0 0
0.0205078 0 0
0.0224609 0 0
0.0244141 0 0
0.0263672 0 0
0.0283203 0 0
0.0302734 0 0
0.0322266 0 0
0.0341797 0 0
0.0361328 0 0
0.0380859 0 0
0.0400391 0 0
0.0419922 0 0
0.0439453 0 0
0.0458984 0 0
0.0478516 0 0
0.0498047 0 0
0.0517578 0 0
0.0537109 0 0
0.0556641 0 0
0.0576172 0 0
0.0595703 0 0
0.0615234 0 0
0.0634766 0 0
0.0654297 0 0
0.0673828 0 0
0.0693359 0 0
0.0712891 0 0
0.0732422 0 0
0.0751953 0 0
0.0771484 0 0
0.0791016 0 0
0.0810547 0 0
0.0830078 0 0
0.0849609 0 0
0.0869141 0 0
0.0888672 0 0
0.0908203 0 0
0.0927734 0 0
0.0947266 0 0
0.0966797 0 0
0.0986328 0 0
0.100586 0 0
0.102539 0 0
0.104492 0 0
0.106445 0 0
0.108398 0 0
0.110352 0 0
0.112305 0 0
0.114258 0 0
0.116211 0 0
0.118164 0 0
0.120117 0 0
0.12207 0 0
0.124023 0 0
0.125977 0 0
0.12793 0 0
0.129883 0 0
0.131836 0 0
0.133789 0 0
0.135742 0 0
0.137695 0 0
0.139648 0 0
0.141602 0 0
0.143555 0 0
0.145508 0 0
0.147461 0 0
0.149414 0 0
0.151367 0 0
0.15332 0 0
0.155273 0 0
0.157227 0 0
0.15918 0 0
0.161133 0 0
0.163086 0 0
0.165039 0 0
0.166992 0 -6.67445e-16
0.168945 1.33227e-15 -2.9925e-15
0.170898 3.55271e-15 -9.83222e-15
0.172852 1.24345e-14 -3.06087e-14
0.174805 3.68594e-14 -9.15675e-14
0.176758 1.11022e-13 -2.77154e-13
0.178711 3.24629e-13 -8.12285e-13
0.180664 9.34364e-13 -2.33661e-12
0.182617 2.63478e-12 -6.58716e-12
0.18457 7.27018e-12 -1.81763e-11
0.186523 1.96345e-11 -4.90865e-11
0.188477 5.18861e-11 -1.29716e-10
0.19043 1.34126e-10 -3.35316e-10
0.192383 3.3902e-10 -8.4755e-10
0.194336 8.37577e-10 -2.09394e-09
0.196289 2.0218e-09 -5.0545e-09
0.198242 4.7664e-09 -1.1916e-08
0.200195 1.09698e-08 -2.74246e-08
0.202148 2.46367e-08 -6.15917e-08
0.204102 5.39697e-08 -1.34924e-07
0.206055 1.15269e-07 -2.88172e-07
0.208008 2.39928e-07 -5.9982e-07
0.209961 4.86482e-07 -1.2162e-06
0.211914 9.60479e-07 -2.4012e-06
0.213867 1.84574e-06 -4.61436e-06
0.21582 3.45108e-06 -8.6277e-06
0.217773 6.27622e-06 -1.56906e-05
0.219727 1.10991e-05 -2.77478e-05
0.22168 1.90829e-05 -4.77075e-05
0.223633 3.1896e-05 -7.97408e-05
0.225586 5.18312e-05 -0.00012958
0.227539 8.19044e-05 -0.000204766
0.229492 0.000125913 -0.000314795
0.231445 0.000188437 -0.000471121
0.233398 0.000274783 -0.000687016
0.235352 0.000390885 -0.00097733
0.237305 0.000543202 -0.00135823
0.239258 0.00073865 -0.00184704
0.241211 0.00098459 -0.00246221
0.243164 0.00128888 -0.00322346
0.245117 0.00165993 -0.00415193
0.24707 0.00210677 -0.00527028
0.249023 0.00263896 -0.00660267
0.250977 0.00326657 -0.0081745
0.25293 0.00400007 -0.0100123
0.254883 0.00485032 -0.0121436
0.256836 0.00582857 -0.0145971
0.258789 0.00694657 -0.0174029
0.260742 0.00821651 -0.0205922
0.262695 0.00965098 -0.0241977
0.264648 0.0112629 -0.0282527
0.266602 0.0130653 -0.0327919
0.268555 0.0150719 -0.0378507
0.270508 0.0172962 -0.0434656
0.272461 0.0197524 -0.0496744
0.274414 0.0224546 -0.0565155
0.276367 0.0254169 -0.0640277
0.27832 0.0286537 -0.0722508
0.280273 0.032179 -0.081225
0.282227 0.0360071 -0.0909908
0.28418 0.0401518 -0.101589
0.286133 0.0446263 -0.113059
0.288086 0.0494437 -0.125442
0.290039 0.0546163 -0.138775
0.291992 0.0601554 -0.153098
0.293945 0.0660714 -0.168445
0.295898 0.0723735 -0.184851
0.297852 0.0790692 -0.202347
0.299805 0.0861647 -0.220958
0.301758 0.0936637 -0.24071
0.303711 0.101568 -0.261618
0.305664 0.109877 -0.283697
0.307617 0.118588 -0.30695
0.30957 0.127693 -0.331375
0.311523 0.137183 -0.356962
0.313477 0.147044 -0.383691
0.31543 0.157261 -0.411531
0.317383 0.167812 -0.440442
0.319336 0.178673 -0.47037
0.321289 0.189815 -0.501253
0.323242 0.201208 -0.533014
0.325195 0.212817 -0.56557
0.327148 0.224604 -0.598824
0.329102 0.236531 -0.632677
0.331055 0.248561 -0.667029
0.333008 0.260661 -0.701788
0.334961 0.27279 -0.736831
0.336914 0.284855 -0.77189
0.338867 0.29679 -0.806792
0.34082 0.308568 -0.841432
0.342773 0.320157 -0.875709
0.344727 0.33152 -0.909501
0.34668 0.342617 -0.942678
0.348633 0.353411 -0.975112
0.350586 0.363865 -1.00668
0.352539 0.37395 -1.03728
0.354492 0.383637 -1.06681
0.356445 0.392904 -1.09518
0.358398 0.401731 -1.12232
0.360352 0.410102 -1.14815
0.362305 0.418003 -1.17263
0.364258 0.425427 -1.19569
0.366211 0.43236 -1.21732
0.368164 0.438805 -1.23746
0.370117 0.444747 -1.25612
0.37207 0.450205 -1.27324
0.374023 0.455151 -1.28887
0.375977 0.459627 -1.30294
0.37793 0.463593 -1.31555
0.379883 0.467099 -1.32661
0.381836 0.470115 -1.3362
0.383789 0.47266 -1.34431
0.385742 0.474759 -1.35092
0.387695 0.476377 -1.35614
0.389648 0.477572 -1.35986
0.391602 0.478311 -1.36217
0.393555 0.478629 -1.36313
0.395508 0.478685 -1.36306
0.397461 0.478478 -1.36214
0.399414 0.47784 -1.35973
0.401367 0.476723 -1.3556
0.40332 0.475255 -1.35014
0.405273 0.473583 -1.34381
0.407227 0.471674 -1.33645
0.40918 0.469438 -1.32771
0.411133 0.466926 -1.31772
0.413086 0.464243 -1.30677
0.415039 0.461372 -1.29476
0.416992 0.458277 -1.28153
0.418945 0.455037 -1.26729
0.420898 0.451686 -1.25208
0.422852 0.448198 -1.23579
0.424805 0.444611 -1.21848
0.426758 0.440952 -1.20019
0.428711 0.437231 -1.18092
0.430664 0.43346 -1.16068
0.432617 0.429661 -1.1395
0.43457 0.425854 -1.1174
0.436523 0.422052 -1.09441
0.438477 0.418267 -1.07053
0.44043 0.414512 -1.04577
0.442383 0.410801 -1.02017
0.444336 0.407144 -0.993734
0.446289 0.403552 -0.96649
0.448242 0.400034 -0.93846
0.450195 0.3966 -0.909667
0.452148 0.393257 -0.880132
0.454102 0.390014 -0.84988
0.456055 0.386874 -0.818937
0.458008 0.383846 -0.78733
0.459961 0.380934 -0.755082
0.461914 0.378143 -0.722219
0.463867 0.375477 -0.688771
0.46582 0.372939 -0.654767
0.467773 0.370531 -0.620233
0.469727 0.368258 -0.585197
0.47168 0.36612 -0.549686
0.473633 0.364119 -0.513729
0.475586 0.362256 -0.477355
0.477539 0.360533 -0.440596
0.479492 0.35895 -0.40348
0.481445 0.35751 -0.366038
0.483398 0.356213 -0.328303
0.485352 0.35506 -0.290306
0.487305 0.354049 -0.252078
0.489258 0.353182 -0.213648
0.491211 0.352458 -0.175044
0.493164 0.351879 -0.136298
0.495117 0.351446 -0.0974459
0.49707 0.351158 -0.0585077
0.499023 0.35101 -0.0195574
0.500977 0.35101 0.0195574
0.50293 0.351158 0.0585077
0.504883 0.351446 0.0974459
0.506836 0.351879 0.136298
0.508789 0.352458 0.175044
0.510742 0.353182 0.213648
0.512695 0.354049 0.252078
0.514648 0.35506 0.290306
0.516602 0.356213 0.328303
0.518555 0.35751 0.366038
0.520508 0.35895 0.40348
0.522461 0.360533 0.440596
0.524414 0.362256 0.477355
0.526367 0.364119 0.513729
0.52832 0.36612 0.549686
0.530273 0.368258 0.585197
0.532227 0.370531 0.620233
0.53418 0.372939 0.654767
0.536133 0.375477 0.688771
0.538086 0.378143 0.722219
0.540039 0.380934 0.755082
0.541992 0.383846 0.78733
0.543945 0.386874 0.818937
0.545898 0.390014 0.84988
0.547852 0.393257 0.880132
0.549805 0.3966 0.909667
0.551758 0.400034 0.93846
0.553711 0.403552 0.96649
0.555664 0.407144 0.993734
0.557617 0.410801 1.02017
0.55957 0.414512 1.04577
0.561523 0.418267 1.07053
0.563477 0.422052 1.09441
0.56543 0.425854 1.1174
0.567383 0.429661 1.1395
0.569336 0.43346 1.16068
0.571289 0.437231 1.18092
0.573242 0.440952 1.20019
0.575195 0.444611 1.21848
0.577148 0.448198 1.23579
0.579102 0.451686 1.25208
0.581055 0.455037 1.26729
0.583008 0.458277 1.28153
0.584961 0.461372 1.29476
0.586914 0.464243 1.30677
0.588867 0.466926 1.31772
0.59082 0.469438 1.32771
0.592773 0.471674 1.33645
0.594727 0.473583 1.34381
0.59668 0.475255 1.35014
0.598633 0.476723 1.3556
0.600586 0.47784 1.35973
0.602539 0.478478 1.36214
0.604492 0.478685 1.36306
0.606445 0.478629 1.36313
0.608398 0.478311 1.36217
0.610352 0.477572 1.35986
0.612305 0.476377 1.35614
0.614258 0.474759 1.35092
0.616211 0.47266 1.34431
0.618164 0.470115 1.3362
0.620117 0.467099 1.32661
0.62207 0.463593 1.31555
0.624023 0.459627 1.30294
0.625977 0.455151 1.28887
0.62793 0.450205 1.27324
0.629883 0.444747 1.25612
0.631836 0.438805 1.23746
0.633789 0.43236 1.21732
0.635742 0.425427 1.19569
0.637695 0.418003 1.17263
0.639648 0.410102 1.14815
0.641602 0.401731 1.12232
0.643555 0.392904 1.09518
0.645508 0.383637 1.06681
0.647461 0.37395 1.03728
0.649414 0.363865 1.00668
0.651367 0.353411 0.975112
0.65332 0.342617 0.942678
0.655273 0.33152 0.909501
0.657227 0.320157 0.875709
0.65918 0.308568 0.841432
0.661133 0.29679 0.806792
0.663086 0.284855 0.77189
0.665039 0.27279 0.736831
0.666992 0.260661 0.701788
0.668945 0.248561 0.667029
0.670898 0.236531 0.632677
0.672852 0.224604 0.598824
0.674805 0.212817 0.56557
0.676758 0.201208 0.533014
0.678711 0.189815 0.501253
0.680664 0.178673 0.47037
0.682617 0.167812 0.440442
0.68457 0.157261 0.411531
0.686523 0.147044 0.383691
0.688477 0.137183 0.356962
0.69043 0.127693 0.331375
0.692383 0.118588 0.30695
0.694336 0.109877 0.283697
0.696289 0.101568 0.261618
0.698242 0.0936637 0.24071
0.700195 0.0861647 0.220958
0.702148 0.0790692 0.202347
0.704102 0.0723735 0.184851
0.706055 0.0660714 0.168445
0.708008 0.0601554 0.153098
0.709961 0.0546163 0.138775
0.711914 0.0494437 0.125442
0.713867 0.0446263 0.113059
0.71582 0.0401518 0.101589
0.717773 0.0360071 0.0909908
0.719727 0.032179 0.081225
0.72168 0.0286537 0.0722508
0.723633 0.0254169 0.0640277
0.725586 0.0224546 0.0565155
0.727539 0.0197524 0.0496744
0.729492 0.0172962 0.0434656
0.731445 0.0150719 0.0378507
0.733398 0.0130653 0.0327919
0.735352 0.0112629 0.0282527
0.737305 0.00965098 0.0241977
0.739258 0.00821651 0.0205922
0.741211 0.00694657 0.0174029
0.743164 0.00582857 0.0145971
0.745117 0.00485032 0.0121436
0.74707 0.00400007 0.0100123
0.749023 0.00326657 0.0081745
0.750977 0.00263896 0.00660267
0.75293 0.00210677 0.00527028
0.754883 0.00165993 0.00415193
0.756836 0.00128888 0.00322346
0.758789 0.00098459 0.00246221
0.760742 0.00073865 0.00184704
0.762695 0.000543202 0.00135823
0.764648 0.000390885 0.00097733
0.766602 0.000274783 0.000687016
0.768555 0.000188437 0.000471121
0.770508 0.000125913 0.000314795
0.772461 8.19044e-05 0.000204766
0.774414 5.18312e-05 0.00012958
0.776367 3.1896e-05 7.97408e-05
0.77832 1.90829e-05 4.77075e-05
0.780273 1.10991e-05 2.77478e-05
0.782227 6.27622e-06 1.56906e-05
0.78418 3.45108e-06 8.6277e-06
0.786133 1.84574e-06 4.61436e-06
0.788086 9.60479e-07 2.4012e-06
0.790039 4.86482e-07 1.2162e-06
0.791992 2.39928e-07 5.9982e-07
0.793945 1.15269e-07 2.88172e-07
0.795898 5.39697e-08 1.34924e-07
0.797852 2.46367e-08 6.15917e-08
0.799805 1.09698e-08 2.74246e-08
0.801758 4.7664e-09 1.1916e-08
0.803711 2.0218e-09 5.0545e-09
0.805664 8.37577e-10 2.09394e-09
0.807617 3.3902e-10 8.4755e-10
0.80957 1.34126e-10 3.35316e-10
0.811523 5.18861e-11 1.29716e-10
0.813477 1.96345e-11 4.90865e-11
0.81543 7.27018e-12 1.81763e-11
0.817383 2.63478e-12 6.58716e-12
0.819336 9.34364e-13 2.33661e-12
0.821289 3.24629e-13 8.12285e-13
0.823242 1.11022e-13 2.77154e-13
0.825195 3.68594e-14 9.15675e-14
0.827148 1.24345e-14 3.06087e-14
0.829102 3.55271e-15 9.83222e-15
0.831055 1.33227e-15 2.9925e-15
0.833008 0 6.67445e-16
0.834961 0 0
0.836914 0 0
0.838867 0 0
0.84082 0 0
0.842773 0 0
0.844727 0 0
0.84668 0 0
0.848633 0 0
0.850586 0 0
0.852539 0 0
0.854492 0 0
0.856445 0 0
0.858398 0 0
0.860352 0 0
0.862305 0 0
0.864258 0 0
0.866211 0 0
0.868164 0 0
0.870117 0 0
0.87207 0 0
0.874023 0 0
0.875977 0 0
0.87793 0 0
0.879883 0 0
0.881836 0 0
0.883789 0 0
0.885742 0 0
0.887695 0 0
0.889648 0 0
0.891602 0 0
0.893555 0 0
0.895508 0 0
0.897461 0 0
0.899414 0 0
0.901367 0 0
0.90332 0 0
0.905273 0 0
0.907227 0 0
0.90918 0 0
0.911133 0 0
0.913086 0 0
0.915039 0 0
0.916992 0 0
0.918945 0 0
0.920898 0 0
0.922852 0 0
0.924805 0 0
0.926758 0 0
0.928711 0 0
0.930664 0 0
0.932617 0 0
0.93457 0 0
0.936523 0 0
0.938477 0 0
0.94043 0 0
0.942383 0 0
0.944336 0 0
0.946289 0 0
0.948242 0 0
0.950195 0 0
0.952148 0 0
0.954102 0 0
0.956055 0 0
0.958008 0 0
0.959961 0 0
0.961914 0 0
0.963867 0 0
0.96582 0 0
0.967773 0 0
0.969727 0 0
0.97168 0 0
0.973633 0 0
0.975586 0 0
0.977539 0 0
0.979492 0 0
0.981445 0 0
0.983398 0 0
0.985352 0 0
0.987305 0 0
0.989258 0 0
0.991211 0 0
0.993164 0 0
0.995117 0 0
0.99707 0 0
0.999023 0 0
