0.000976562 0 0
0.00292969 0 0
0.00488281 0 0
0.00683594 0 0
0.00878906 0 0
0.0107422 0 0
0.0126953 0 0
0.0146484 0 0
0.0166016 0 0
0.0185547 0 0
0.0205078 0 0
0.0224609 0 0
0.0244141 0 0
0.0263672 0 0
0.0283203 0 0
0.0302734 0 0
0.0322266 0 0
0.0341797 0 0
0.0361328 0 0
0.0380859 0 0
0.0400391 4.44089e-16 -1.21384e-15
0.0419922 1.77636e-15 -4.03577e-15
0.0439453 3.55271e-15 -8.6118e-15
0.0458984 8.88178e-15 -2.17098e-14
0.0478516 1.95399e-14 -4.88963e-14
0.0498047 4.52971e-14 -1.13402e-13
0.0517578 1.05249e-13 -2.6336e-13
0.0537109 2.42473e-13 -6.06912e-13
0.0556641 5.53779e-13 -1.38327e-12
0.0576172 1.24833e-12 -3.11971e-12
0.0595703 2.78577e-12 -6.96364e-12
0.0615234 6.13865e-12 -1.53457e-11
0.0634766 1.33662e-11 -3.34152e-11
0.0654297 2.87481e-11 -7.18714e-11
0.0673828 6.10698e-11 -1.52676e-10
0.0693359 1.28106e-10 -3.20263e-10
0.0712891 2.65313e-10 -6.63282e-10
0.0732422 5.42417e-10 -1.35604e-09
0.0751953 1.09452e-09 -2.7363e-09
0.0771484 2.17948e-09 -5.4487e-09
0.0791016 4.282e-09 -1.0705e-08
0.0810547 8.29901e-09 -2.07475e-08
0.0830078 1.5864e-08 -3.966e-08
0.0849609 2.99039e-08 -7.47598e-08
0.0869141 5.55764e-08 -1.38941e-07
0.0888672 1.01816e-07 -2.54541e-07
0.0908203 1.83835e-07 -4.59587e-07
0.0927734 3.27068e-07 -8.17671e-07
0.0947266 5.73282e-07 -1.4332e-06
0.0966797 9.89772e-07 -2.47443e-06
0.0986328 1.68291e-06 -4.20727e-06
0.100586 2.81752e-06 -7.04381e-06
0.102539 4.64389e-06 -1.16097e-05
0.104492 7.53419e-06 -1.88355e-05
0.106445 1.20301e-05 -3.00754e-05
0.108398 1.89028e-05 -4.72574e-05
0.110352 2.92257e-05 -7.3065e-05
0.112305 4.44585e-05 -0.000111148
0.114258 6.65393e-05 -0.000166352
0.116211 9.79804e-05 -0.000244958
0.118164 0.000141959 -0.000354912
0.120117 0.000202393 -0.000506014
0.12207 0.000283999 -0.00071006
0.124023 0.000392316 -0.000980907
0.125977 0.000533698 -0.00133446
0.12793 0.000715283 -0.0017886
0.129883 0.000944933 -0.00236301
0.131836 0.00123118 -0.00307911
0.133789 0.0015832 -0.00395991
0.135742 0.00201078 -0.00503002
0.137695 0.00252438 -0.00631578
0.139648 0.00313522 -0.00784548
0.141602 0.00385538 -0.0096497
0.143555 0.00469798 -0.0117616
0.145508 0.00567722 -0.0142174
0.147461 0.00680853 -0.0170563
0.149414 0.00810862 -0.0203212
0.151367 0.00959549 -0.0240582
0.15332 0.0112886 -0.0283175
0.155273 0.0132088 -0.0331534
0.157227 0.0153787 -0.038625
0.15918 0.0178231 -0.0447968
0.161133 0.0205686 -0.05174
0.163086 0.0236448 -0.0595324
0.165039 0.0270835 -0.0682601
0.166992 0.0309197 -0.0780177
0.168945 0.0351915 -0.0889091
0.170898 0.0399405 -0.101049
0.172852 0.0452117 -0.114563
0.174805 0.0510545 -0.129591
0.176758 0.057522 -0.146285
0.178711 0.0646718 -0.164813
0.180664 0.072565 -0.185355
0.182617 0.0812659 -0.208106
0.18457 0.0908405 -0.233271
0.186523 0.101355 -0.261063
0.188477 0.112872 -0.291692
0.19043 0.125449 -0.32536
0.192383 0.139128 -0.362243
0.194336 0.153933 -0.40247
0.196289 0.169862 -0.446105
0.198242 0.186877 -0.493124
0.200195 0.204906 -0.543401
0.202148 0.223842 -0.596712
0.204102 0.243559 -0.652768
0.206055 0.263913 -0.711223
0.208008 0.284236 -0.770087
0.209961 0.303751 -0.827261
0.211914 0.322271 -0.882006
0.213867 0.339722 -0.934024
0.21582 0.356039 -0.983052
0.217773 0.371171 -1.02885
0.219727 0.385089 -1.07127
0.22168 0.397795 -1.11023
0.223633 0.409317 -1.14575
0.225586 0.419703 -1.17792
0.227539 0.429017 -1.2069
0.229492 0.437331 -1.23287
0.231445 0.444716 -1.25603
0.233398 0.451238 -1.27654
0.235352 0.456949 -1.29454
0.237305 0.461882 -1.31012
0.239258 0.466055 -1.32334
0.241211 0.469485 -1.33422
0.243164 0.472197 -1.34284
0.245117 0.474227 -1.34929
0.24707 0.475638 -1.35377
0.249023 0.476516 -1.35657
0.250977 0.476971 -1.35802
0.25293 0.477128 -1.35852
0.254883 0.477129 -1.35852
0.256836 0.477016 -1.35816
0.258789 0.476702 -1.35716
0.260742 0.476089 -1.35521
0.262695 0.475099 -1.35206
0.264648 0.473679 -1.34754
0.266602 0.471808 -1.3416
0.268555 0.469505 -1.33428
0.270508 0.466819 -1.32576
0.272461 0.463827 -1.31628
0.274414 0.460612 -1.30611
0.276367 0.45725 -1.29549
0.27832 0.453791 -1.28458
0.280273 0.450252 -1.27343
0.282227 0.44661 -1.26197
0.28418 0.442822 -1.25008
0.286133 0.438841 -1.2376
0.288086 0.434639 -1.22445
0.290039 0.430221 -1.21066
0.291992 0.425628 -1.19634
0.293945 0.420919 -1.1817
0.295898 0.416147 -1.16689
0.297852 0.411338 -1.15199
0.299805 0.406475 -1.13697
0.301758 0.401517 -1.12168
0.303711 0.396422 -1.10601
0.305664 0.391179 -1.08991
0.307617 0.385812 -1.07348
0.30957 0.380374 -1.05687
0.311523 0.374921 -1.04026
0.313477 0.369458 -1.02366
0.31543 0.363959 -1.00699
0.317383 0.35838 -0.990121
0.319336 0.352692 -0.972969
0.321289 0.34691 -0.955581
0.323242 0.341104 -0.93816
0.325195 0.335308 -0.920823
0.327148 0.329502 -0.903509
0.329102 0.323661 -0.886131
0.331055 0.317757 -0.868617
0.333008 0.311793 -0.850976
0.334961 0.305821 -0.833351
0.336914 0.299855 -0.815804
0.338867 0.293879 -0.798284
0.34082 0.287881 -0.780744
0.342773 0.281855 -0.763172
0.344727 0.275821 -0.745626
0.34668 0.269792 -0.728149
0.348633 0.263766 -0.710732
0.350586 0.257741 -0.693373
0.352539 0.251721 -0.676079
0.354492 0.24571 -0.65886
0.356445 0.239709 -0.641725
0.358398 0.233722 -0.624678
0.360352 0.22775 -0.607728
0.362305 0.221798 -0.590882
0.364258 0.215866 -0.574147
0.366211 0.209959 -0.557531
0.368164 0.204079 -0.541042
0.370117 0.198229 -0.524685
0.37207 0.192411 -0.508469
0.374023 0.186629 -0.4924
0.375977 0.180886 -0.476485
0.37793 0.175183 -0.460731
0.379883 0.169524 -0.445144
0.381836 0.163911 -0.429733
0.383789 0.158348 -0.414502
0.385742 0.152838 -0.399458
0.387695 0.147382 -0.384609
0.389648 0.141985 -0.369961
0.391602 0.136649 -0.355521
0.393555 0.131377 -0.341295
0.395508 0.126172 -0.327289
0.397461 0.121037 -0.313511
0.399414 0.115975 -0.299966
0.401367 0.110989 -0.286662
0.40332 0.106082 -0.273604
0.405273 0.101257 -0.2608
0.407227 0.0965178 -0.248255
0.40918 0.0918671 -0.235977
0.411133 0.0873076 -0.223971
0.413086 0.0828429 -0.212244
0.415039 0.0784762 -0.200802
0.416992 0.0742099 -0.189652
0.418945 0.0700474 -0.178799
0.420898 0.0659919 -0.16825
0.422852 0.0620466 -0.158008
0.424805 0.0582133 -0.148083
0.426758 0.0544964 -0.138476
0.428711 0.0508967 -0.129197
0.430664 0.0474199 -0.120242
0.432617 0.0440624 -0.111631
0.43457 0.0408358 -0.103345
0.436523 0.0377294 -0.0954183
0.438477 0.0347629 -0.0878105
0.44043 0.0319138 -0.0805839
0.442383 0.0292134 -0.0736658
0.444336 0.0266278 -0.0671442
0.446289 0.0241975 -0.0609203
0.448242 0.0218791 -0.0551021
0.450195 0.0197186 -0.0495739
0.452148 0.0176677 -0.0444522
0.454102 0.0157754 -0.039609
0.456055 0.0139884 -0.0351693
0.458008 0.012359 -0.0309927
0.459961 0.0108284 -0.0272129
0.461914 0.00945235 -0.0236758
0.463867 0.00816695 -0.0205237
0.46582 0.00703083 -0.0175905
0.467773 0.005976 -0.0150238
0.469727 0.00506224 -0.0126506
0.47168 0.00421976 -0.0106185
0.473633 0.00350704 -0.00875336
0.475586 0.00285502 -0.00719712
0.477539 0.00231834 -0.00578139
0.479492 0.00183349 -0.0046318
0.481445 0.00144613 -0.00360049
0.483398 0.00110094 -0.00279175
0.485352 0.000835271 -0.0020787
0.487305 0.000601413 -0.00154764
0.489258 0.000430367 -0.00108914
0.491211 0.000283442 -0.00076909
0.493164 0.000184902 -0.000497206
0.495117 0.000104599 -0.000320543
0.49707 6.13633e-05 -0.000165365
0.499023 3.33661e-05 -6.19676e-05
0.500977 3.33661e-05 6.19676e-05
0.50293 6.13633e-05 0.000165365
0.504883 0.000104599 0.000320543
0.506836 0.000184902 0.000497206
0.508789 0.000283442 0.00076909
0.510742 0.000430367 0.00108914
0.512695 0.000601413 0.00154764
0.514648 0.000835271 0.0020787
0.516602 0.00110094 0.00279175
0.518555 0.00144613 0.00360049
0.520508 0.00183349 0.0046318
0.522461 0.00231834 0.00578139
0.524414 0.00285502 0.00719712
0.526367 0.00350704 0.00875336
0.52832 0.00421976 0.0106185
0.530273 0.00506224 0.0126506
0.532227 0.005976 0.0150238
0.53418 0.00703083 0.0175905
0.536133 0.00816695 0.0205237
0.538086 0.00945235 0.0236758
0.540039 0.0108284 0.0272129
0.541992 0.012359 0.0309927
0.543945 0.0139884 0.0351693
0.545898 0.0157754 0.039609
0.547852 0.0176677 0.0444522
0.549805 0.0197186 0.0495739
0.551758 0.0218791 0.0551021
0.553711 0.0241975 0.0609203
0.555664 0.0266278 0.0671442
0.557617 0.0292134 0.0736658
0.55957 0.0319138 0.0805839
0.561523 0.0347629 0.0878105
0.563477 0.0377294 0.0954183
0.56543 0.0408358 0.103345
0.567383 0.0440624 0.111631
0.569336 0.0474199 0.120242
0.571289 0.0508967 0.129197
0.573242 0.0544964 0.138476
0.575195 0.0582133 0.148083
0.577148 0.0620466 0.158008
0.579102 0.0659919 0.16825
0.581055 0.0700474 0.178799
0.583008 0.0742099 0.189652
0.584961 0.0784762 0.200802
0.586914 0.0828429 0.212244
0.588867 0.0873076 0.223971
0.59082 0.0918671 0.235977
0.592773 0.0965178 0.248255
0.594727 0.101257 0.2608
0.59668 0.106082 0.273604
0.598633 0.110989 0.286662
0.600586 0.115975 0.299966
0.602539 0.121037 0.313511
0.604492 0.126172 0.327289
0.606445 0.131377 0.341295
0.608398 0.136649 0.355521
0.610352 0.141985 0.369961
0.612305 0.147382 0.384609
0.614258 0.152838 0.399458
0.616211 0.158348 0.414502
0.618164 0.163911 0.429733
0.620117 0.169524 0.445144
0.62207 0.175183 0.460731
0.624023 0.180886 0.476485
0.625977 0.186629 0.4924
0.62793 0.192411 0.508469
0.629883 0.198229 0.524685
0.631836 0.204079 0.541042
0.633789 0.209959 0.557531
0.635742 0.215866 0.574147
0.637695 0.221798 0.590882
0.639648 0.22775 0.607728
0.641602 0.233722 0.624678
0.643555 0.239709 0.641725
0.645508 0.24571 0.65886
0.647461 0.251721 0.676079
0.649414 0.257741 0.693373
0.651367 0.263766 0.710732
0.65332 0.269792 0.728149
0.655273 0.275821 0.745626
0.657227 0.281855 0.763172
0.65918 0.287881 0.780744
0.661133 0.293879 0.798284
0.663086 0.299855 0.815804
0.665039 0.305821 0.833351
0.666992 0.311793 0.850976
0.668945 0.317757 0.868617
0.670898 0.323661 0.886131
0.672852 0.329502 0.903509
0.674805 0.335308 0.920823
0.676758 0.341104 0.93816
0.678711 0.34691 0.955581
0.680664 0.352692 0.972969
0.682617 0.35838 0.990121
0.68457 0.363959 1.00699
0.686523 0.369458 1.02366
0.688477 0.374921 1.04026
0.69043 0.380374 1.05687
0.692383 0.385812 1.07348
0.694336 0.391179 1.08991
0.696289 0.396422 1.10601
0.698242 0.401517 1.12168
0.700195 0.406475 1.13697
0.702148 0.411338 1.15199
0.704102 0.416147 1.16689
0.706055 0.420919 1.1817
0.708008 0.425628 1.19634
0.709961 0.430221 1.21066
0.711914 0.434639 1.22445
0.713867 0.438841 1.2376
0.71582 0.442822 1.25008
0.717773 0.44661 1.26197
0.719727 0.450252 1.27343
0.72168 0.453791 1.28458
0.723633 0.45725 1.29549
0.725586 0.460612 1.30611
0.727539 0.463827 1.31628
0.729492 0.466819 1.32576
0.731445 0.469505 1.33428
0.733398 0.471808 1.3416
0.735352 0.473679 1.34754
0.737305 0.475099 1.35206
0.739258 0.476089 1.35521
0.741211 0.476702 1.35716
0.743164 0.477016 1.35816
0.745117 0.477129 1.35852
0.74707 0.477128 1.35852
0.749023 0.476971 1.35802
0.750977 0.476516 1.35657
0.75293 0.475638 1.35377
0.754883 0.474227 1.34929
0.756836 0.472197 1.34284
0.758789 0.469485 1.33422
0.760742 0.466055 1.32334
0.762695 0.461882 1.31012
0.764648 0.456949 1.29454
0.766602 0.451238 1.27654
0.768555 0.444716 1.25603
0.770508 0.437331 1.23287
0.772461 0.429017 1.2069
0.774414 0.419703 1.17792
0.776367 0.409317 1.14575
0.77832 0.397795 1.11023
0.780273 0.385089 1.07127
0.782227 0.371171 1.02885
0.78418 0.356039 0.983052
0.786133 0.339722 0.934024
0.788086 0.322271 0.882006
0.790039 0.303751 0.827261
0.791992 0.284236 0.770087
0.793945 0.263913 0.711223
0.795898 0.243559 0.652768
0.797852 0.223842 0.596712
0.799805 0.204906 0.543401
0.801758 0.186877 0.493124
0.803711 0.169862 0.446105
0.805664 0.153933 0.40247
0.807617 0.139128 0.362243
0.80957 0.125449 0.32536
0.811523 0.112872 0.291692
0.813477 0.101355 0.261063
0.81543 0.0908405 0.233271
0.817383 0.0812659 0.208106
0.819336 0.072565 0.185355
0.821289 0.0646718 0.164813
0.823242 0.057522 0.146285
0.825195 0.0510545 0.129591
0.827148 0.0452117 0.114563
0.829102 0.0399405 0.101049
0.831055 0.0351915 0.0889091
0.833008 0.0309197 0.0780177
0.834961 0.0270835 0.0682601
0.836914 0.0236448 0.0595324
0.838867 0.0205686 0.05174
0.84082 0.0178231 0.0447968
0.842773 0.0153787 0.038625
0.844727 0.0132088 0.0331534
0.84668 0.0112886 0.0283175
0.848633 0.00959549 0.0240582
0.850586 0.00810862 0.0203212
0.852539 0.00680853 0.0170563
0.854492 0.00567722 0.0142174
0.856445 0.00469798 0.0117616
0.858398 0.00385538 0.0096497
0.860352 0.00313522 0.00784548
0.862305 0.00252438 0.00631578
0.864258 0.00201078 0.00503002
0.866211 0.0015832 0.00395991
0.868164 0.00123118 0.00307911
0.870117 0.000944933 0.00236301
0.87207 0.000715283 0.0017886
0.874023 0.000533698 0.00133446
0.875977 0.000392316 0.000980907
0.87793 0.000283999 0.00071006
0.879883 0.000202393 0.000506014
0.881836 0.000141959 0.000354912
0.883789 9.79804e-05 0.000244958
0.885742 6.65393e-05 0.000166352
0.887695 4.44585e-05 0.000111148
0.889648 2.92257e-05 7.3065e-05
0.891602 1.89028e-05 4.72574e-05
0.893555 1.20301e-05 3.00754e-05
0.895508 7.53419e-06 1.88355e-05
0.897461 4.64389e-06 1.16097e-05
0.899414 2.81752e-06 7.04381e-06
0.901367 1.68291e-06 4.20727e-06
0.90332 9.89772e-07 2.47443e-06
0.905273 5.73282e-07 1.4332e-06
0.907227 3.27068e-07 8.17671e-07
0.90918 1.83835e-07 4.59587e-07
0.911133 1.01816e-07 2.54541e-07
0.913086 5.55764e-08 1.38941e-07
0.915039 2.99039e-08 7.47598e-08
0.916992 1.5864e-08 3.966e-08
0.918945 8.29901e-09 2.07475e-08
0.920898 4.282e-09 1.0705e-08
0.922852 2.17948e-09 5.4487e-09
0.924805 1.09452e-09 2.7363e-09
0.926758 5.42417e-10 1.35604e-09
0.928711 2.65313e-10 6.63282e-10
0.930664 1.28106e-10 3.20263e-10
0.932617 6.10698e-11 1.52676e-10
0.93457 2.87481e-11 7.18714e-11
0.936523 1.33662e-11 3.34152e-11
0.938477 6.13865e-12 1.53457e-11
0.94043 2.78577e-12 6.96364e-12
0.942383 1.24833e-12 3.11971e-12
0.944336 5.53779e-13 1.38327e-12
0.946289 2.42473e-13 6.06912e-13
0.948242 1.05249e-13 2.6336e-13
0.950195 4.52971e-14 1.13402e-13
0.952148 1.95399e-14 4.88963e-14
0.954102 8.88178e-15 2.17098e-14
0.956055 3.55271e-15 8.6118e-15
0.958008 1.77636e-15 4.03577e-15
0.959961 4.44089e-16 1.21384e-15
0.961914 0 0
0.963867 0 0
0.96582 0 0
0.967773 0 0
0.969727 0 0
0.97168 0 0
0.973633 0 0
0.975586 0 0
0.977539 0 0
0.979492 0 0
0.981445 0 0
0.983398 0 0
0.985352 0 0
0.987305 0 0
0.989258 0 0
0.991211 0 0
0.993164 0 0
0.995117 0 0
0.99707 0 0
0.999023 0 0
