0.000976562 0 0
0.00292969 0 0
0.00488281 0 0
0.00683594 0 0
0.00878906 0 0
0.0107422 0 0
0.0126953 0 0
0.0146484 0 0
0.0166016 0 0
0.0185547 0 0
0.0205078 0 0
0.0224609 0 0
0.0244141 0 0
0.0263672 0 0
0.0283203 0 -8.31493e-16
0.0302734 1.33227e-15 -3.12133e-15
0.0322266 3.10862e-15 -7.53952e-15
0.0341797 6.66134e-15 -1.60222e-14
0.0361328 1.55431e-14 -3.82027e-14
0.0380859 3.4639e-14 -8.69288e-14
0.0400391 7.9492e-14 -1.9984e-13
0.0419922 1.81632e-13 -4.55461e-13
0.0439453 4.11671e-13 -1.02979e-12
0.0458984 9.21485e-13 -2.30247e-12
0.0478516 2.03926e-12 -5.09785e-12
0.0498047 4.4631e-12 -1.11578e-11
0.0517578 9.65183e-12 -2.41297e-11
0.0537109 2.06297e-11 -5.15759e-11
0.0556641 4.35696e-11 -1.08925e-10
0.0576172 9.09099e-11 -2.27274e-10
0.0595703 1.87375e-10 -4.68436e-10
0.0615234 3.81433e-10 -9.53581e-10
0.0634766 7.66764e-10 -1.91691e-09
0.0654297 1.52185e-09 -3.80464e-09
0.0673828 2.98183e-09 -7.45457e-09
0.0693359 5.76656e-09 -1.44164e-08
0.0712891 1.10053e-08 -2.75133e-08
0.0732422 2.07235e-08 -5.18088e-08
0.0751953 3.84968e-08 -9.6242e-08
0.0771484 7.05355e-08 -1.76339e-07
0.0791016 1.27449e-07 -3.18622e-07
0.0810547 2.27054e-07 -5.67635e-07
0.0830078 3.9876e-07 -9.969e-07
0.0849609 6.90246e-07 -1.72562e-06
0.0869141 1.17742e-06 -2.94355e-06
0.0888672 1.97886e-06 -4.94716e-06
0.0908203 3.27633e-06 -8.19084e-06
0.0927734 5.34292e-06 -1.33573e-05
0.0947266 8.58072e-06 -2.14519e-05
0.0966797 1.35696e-05 -3.3924e-05
0.0986328 2.11279e-05 -5.282e-05
0.100586 3.23858e-05 -8.09653e-05
0.102539 4.8869e-05 -0.000122174
0.104492 7.25908e-05 -0.000181481
0.106445 0.000106146 -0.000265373
0.108398 0.000152799 -0.000382015
0.110352 0.000216564 -0.000541445
0.112305 0.000302254 -0.000755704
0.114258 0.000415513 -0.00103891
0.116211 0.000562809 -0.00140726
0.118164 0.000751405 -0.00187894
0.120117 0.000989308 -0.00247402
0.12207 0.00128522 -0.00321431
0.124023 0.0016485 -0.00412332
0.125977 0.00208917 -0.00522623
0.12793 0.00261794 -0.00655005
0.129883 0.00324634 -0.00812382
0.131836 0.00398678 -0.00997899
0.133789 0.00485278 -0.0121498
0.135742 0.00585902 -0.0146735
0.137695 0.00702152 -0.017591
0.139648 0.00835768 -0.0209469
0.141602 0.00988638 -0.0247897
0.143555 0.0116281 -0.0291722
0.145508 0.013605 -0.034152
0.147461 0.0158413 -0.0397922
0.149414 0.0183633 -0.046162
0.151367 0.0212 -0.0533381
0.15332 0.0243833 -0.0614053
0.155273 0.0279483 -0.070458
0.157227 0.0319338 -0.0806008
0.15918 0.0363823 -0.0919501
0.161133 0.0413408 -0.104635
0.163086 0.0468608 -0.1188
0.165039 0.0529991 -0.134604
0.166992 0.0598179 -0.152227
0.168945 0.0673852 -0.171865
0.170898 0.0757741 -0.193734
0.172852 0.0850623 -0.218069
0.174805 0.0953308 -0.245121
0.176758 0.106661 -0.27515
0.178711 0.11913 -0.308416
0.180664 0.132806 -0.345166
0.182617 0.147742 -0.385612
0.18457 0.163961 -0.429901
0.186523 0.181452 -0.478092
0.188477 0.200159 -0.530125
0.19043 0.219985 -0.58582
0.192383 0.240799 -0.644898
0.194336 0.262443 -0.706994
0.196289 0.284118 -0.769758
0.198242 0.304821 -0.830417
0.200195 0.324306 -0.888046
0.202148 0.3425 -0.942345
0.204102 0.359358 -0.993075
0.206055 0.374847 -1.04004
0.208008 0.38896 -1.08313
0.209961 0.401727 -1.12234
0.211914 0.413204 -1.15777
0.213867 0.423465 -1.18961
0.21582 0.432597 -1.21808
0.217773 0.440692 -1.24341
0.219727 0.447831 -1.26583
0.22168 0.454083 -1.2855
0.223633 0.459493 -1.30257
0.225586 0.464092 -1.31713
0.227539 0.467907 -1.32922
0.229492 0.470963 -1.33892
0.231445 0.473301 -1.34635
0.233398 0.474981 -1.35169
0.235352 0.476082 -1.35519
0.237305 0.476709 -1.35719
0.239258 0.476984 -1.35807
0.241211 0.477039 -1.35824
0.243164 0.476989 -1.35808
0.245117 0.476788 -1.35743
0.24707 0.476338 -1.356
0.249023 0.475555 -1.35351
0.250977 0.47437 -1.34974
0.25293 0.472749 -1.34459
0.254883 0.470687 -1.33804
0.256836 0.468215 -1.33019
0.258789 0.46539 -1.32123
0.260742 0.462293 -1.31143
0.262695 0.459004 -1.30103
0.264648 0.455592 -1.29026
0.266602 0.452097 -1.27924
0.268555 0.448526 -1.268
0.270508 0.444856 -1.25646
0.272461 0.441042 -1.2445
0.274414 0.437041 -1.23197
0.276367 0.432828 -1.2188
0.27832 0.42841 -1.20501
0.280273 0.423825 -1.19074
0.282227 0.419129 -1.17614
0.28418 0.414372 -1.16139
0.286133 0.409581 -1.14656
0.288086 0.404748 -1.13164
0.290039 0.399836 -1.11651
0.291992 0.394802 -1.10103
0.293945 0.389627 -1.08516
0.295898 0.384325 -1.06894
0.297852 0.378942 -1.05251
0.299805 0.373534 -1.03604
0.301758 0.368124 -1.01961
0.303711 0.362694 -1.00316
0.305664 0.357208 -0.986585
0.307617 0.351629 -0.969772
0.30957 0.345952 -0.952707
0.311523 0.340216 -0.935507
0.313477 0.334486 -0.91837
0.31543 0.32876 -0.901297
0.317383 0.323016 -0.884218
0.319336 0.31723 -0.867058
0.321289 0.311386 -0.849776
0.323242 0.305501 -0.832418
0.325195 0.29962 -0.815116
0.327148 0.293741 -0.797879
0.329102 0.287851 -0.780657
0.331055 0.281938 -0.763418
0.333008 0.276009 -0.746175
0.334961 0.270079 -0.728983
0.336914 0.264155 -0.711859
0.338867 0.258236 -0.694798
0.34082 0.25232 -0.6778
0.342773 0.246413 -0.660872
0.344727 0.240515 -0.644023
0.34668 0.234629 -0.627259
0.348633 0.228758 -0.610587
0.350586 0.222905 -0.594013
0.352539 0.217072 -0.577546
0.354492 0.211261 -0.56119
0.356445 0.205475 -0.544954
0.358398 0.199718 -0.528843
0.360352 0.19399 -0.512867
0.362305 0.188296 -0.497028
0.364258 0.182637 -0.481336
0.366211 0.177017 -0.465795
0.368164 0.171438 -0.450412
0.370117 0.165902 -0.435195
0.37207 0.160412 -0.420148
0.374023 0.154971 -0.405278
0.375977 0.149582 -0.390593
0.37793 0.144247 -0.376096
0.379883 0.138969 -0.361796
0.381836 0.133752 -0.347699
0.383789 0.128597 -0.333809
0.385742 0.123507 -0.320135
0.387695 0.118486 -0.306681
0.389648 0.113536 -0.293455
0.391602 0.10866 -0.280462
0.393555 0.103862 -0.267709
0.395508 0.0991436 -0.255202
0.397461 0.0945083 -0.242948
0.399414 0.0899593 -0.230951
0.401367 0.0854996 -0.219219
0.40332 0.0811317 -0.207759
0.405273 0.076859 -0.196575
0.407227 0.0726847 -0.185673
0.40918 0.0686112 -0.175061
0.411133 0.0646418 -0.164744
0.413086 0.0607793 -0.154727
0.415039 0.0570271 -0.145015
0.416992 0.0533863 -0.135617
0.418945 0.0498625 -0.126531
0.420898 0.0464542 -0.117771
0.422852 0.0431695 -0.109328
0.424805 0.0400015 -0.101229
0.426758 0.0369661 -0.0934423
0.428711 0.0340466 -0.086018
0.430664 0.0312684 -0.0788997
0.432617 0.0286032 -0.0721629
0.43457 0.0260879 -0.0657201
0.436523 0.0236828 -0.0596721
0.438477 0.0214319 -0.0539103
0.44043 0.0192887 -0.048549
0.442383 0.0173017 -0.0434643
0.444336 0.01542 -0.0387781
0.446289 0.013694 -0.034357
0.448242 0.0120676 -0.0303312
0.450195 0.0105954 -0.0265526
0.452148 0.009216 -0.0231597
0.454102 0.00798698 -0.0199922
0.456055 0.0068419 -0.0171968
0.458008 0.00584046 -0.0146031
0.459961 0.0049136 -0.0123597
0.461914 0.00412082 -0.0102923
0.463867 0.00339267 -0.00854623
0.46582 0.00278572 -0.00695016
0.467773 0.00223343 -0.00563883
0.469727 0.00178628 -0.00445338
0.47168 0.00138494 -0.0035088
0.473633 0.00107064 -0.0026686
0.475586 0.00079333 -0.00202469
0.477539 0.000586522 -0.00146083
0.479492 0.000407133 -0.00105309
0.481445 0.000281917 -0.000704006
0.483398 0.000176054 -0.000471158
0.485352 0.000109209 -0.000277252
0.487305 5.4531e-05 -0.000162942
0.489258 2.58649e-05 -6.93375e-05
0.491211 3.16462e-06 -2.50978e-05
0.493164 -5.5836e-06 7.84487e-06
0.495117 -1.2209e-05 1.49278e-05
0.49707 -1.50115e-05 1.3711e-05
0.499023 -1.56661e-05 5.33555e-06
0.500977 -1.56661e-05 -5.33555e-06
0.50293 -1.50115e-05 -1.3711e-05
0.504883 -1.2209e-05 -1.49278e-05
0.506836 -5.5836e-06 -7.84487e-06
0.508789 3.16462e-06 2.50978e-05
0.510742 2.58649e-05 6.93375e-05
0.512695 5.4531e-05 0.000162942
0.514648 0.000109209 0.000277252
0.516602 0.000176054 0.000471158
0.518555 0.000281917 0.000704006
0.520508 0.000407133 0.00105309
0.522461 0.000586522 0.00146083
0.524414 0.00079333 0.00202469
0.526367 0.00107064 0.0026686
0.52832 0.00138494 0.0035088
0.530273 0.00178628 0.00445338
0.532227 0.00223343 0.00563883
0.53418 0.00278572 0.00695016
0.536133 0.00339267 0.00854623
0.538086 0.00412082 0.0102923
0.540039 0.0049136 0.0123597
0.541992 0.00584046 0.0146031
0.543945 0.0068419 0.0171968
0.545898 0.00798698 0.0199922
0.547852 0.009216 0.0231597
0.549805 0.0105954 0.0265526
0.551758 0.0120676 0.0303312
0.553711 0.013694 0.034357
0.555664 0.01542 0.0387781
0.557617 0.0173017 0.0434643
0.55957 0.0192887 0.048549
0.561523 0.0214319 0.0539103
0.563477 0.0236828 0.0596721
0.56543 0.0260879 0.0657201
0.567383 0.0286032 0.0721629
0.569336 0.0312684 0.0788997
0.571289 0.0340466 0.086018
0.573242 0.0369661 0.0934423
0.575195 0.0400015 0.101229
0.577148 0.0431695 0.109328
0.579102 0.0464542 0.117771
0.581055 0.0498625 0.126531
0.583008 0.0533863 0.135617
0.584961 0.0570271 0.145015
0.586914 0.0607793 0.154727
0.588867 0.0646418 0.164744
0.59082 0.0686112 0.175061
0.592773 0.0726847 0.185673
0.594727 0.076859 0.196575
0.59668 0.0811317 0.207759
0.598633 0.0854996 0.219219
0.600586 0.0899593 0.230951
0.602539 0.0945083 0.242948
0.604492 0.0991436 0.255202
0.606445 0.103862 0.267709
0.608398 0.10866 0.280462
0.610352 0.113536 0.293455
0.612305 0.118486 0.306681
0.614258 0.123507 0.320135
0.616211 0.128597 0.333809
0.618164 0.133752 0.347699
0.620117 0.138969 0.361796
0.62207 0.144247 0.376096
0.624023 0.149582 0.390593
0.625977 0.154971 0.405278
0.62793 0.160412 0.420148
0.629883 0.165902 0.435195
0.631836 0.171438 0.450412
0.633789 0.177017 0.465795
0.635742 0.182637 0.481336
0.637695 0.188296 0.497028
0.639648 0.19399 0.512867
0.641602 0.199718 0.528843
0.643555 0.205475 0.544954
0.645508 0.211261 0.56119
0.647461 0.217072 0.577546
0.649414 0.222905 0.594013
0.651367 0.228758 0.610587
0.65332 0.234629 0.627259
0.655273 0.240515 0.644023
0.657227 0.246413 0.660872
0.65918 0.25232 0.6778
0.661133 0.258236 0.694798
0.663086 0.264155 0.711859
0.665039 0.270079 0.728983
0.666992 0.276009 0.746175
0.668945 0.281938 0.763418
0.670898 0.287851 0.780657
0.672852 0.293741 0.797879
0.674805 0.29962 0.815116
0.676758 0.305501 0.832418
0.678711 0.311386 0.849776
0.680664 0.31723 0.867058
0.682617 0.323016 0.884218
0.68457 0.32876 0.901297
0.686523 0.334486 0.91837
0.688477 0.340216 0.935507
0.69043 0.345952 0.952707
0.692383 0.351629 0.969772
0.694336 0.357208 0.986585
0.696289 0.362694 1.00316
0.698242 0.368124 1.01961
0.700195 0.373534 1.03604
0.702148 0.378942 1.05251
0.704102 0.384325 1.06894
0.706055 0.389627 1.08516
0.708008 0.394802 1.10103
0.709961 0.399836 1.11651
0.711914 0.404748 1.13164
0.713867 0.409581 1.14656
0.71582 0.414372 1.16139
0.717773 0.419129 1.17614
0.719727 0.423825 1.19074
0.72168 0.42841 1.20501
0.723633 0.432828 1.2188
0.725586 0.437041 1.23197
0.727539 0.441042 1.2445
0.729492 0.444856 1.25646
0.731445 0.448526 1.268
0.733398 0.452097 1.27924
0.735352 0.455592 1.29026
0.737305 0.459004 1.30103
0.739258 0.462293 1.31143
0.741211 0.46539 1.32123
0.743164 0.468215 1.33019
0.745117 0.470687 1.33804
0.74707 0.472749 1.34459
0.749023 0.47437 1.34974
0.750977 0.475555 1.35351
0.75293 0.476338 1.356
0.754883 0.476788 1.35743
0.756836 0.476989 1.35808
0.758789 0.477039 1.35824
0.760742 0.476984 1.35807
0.762695 0.476709 1.35719
0.764648 0.476082 1.35519
0.766602 0.474981 1.35169
0.768555 0.473301 1.34635
0.770508 0.470963 1.33892
0.772461 0.467907 1.32922
0.774414 0.464092 1.31713
0.776367 0.459493 1.30257
0.77832 0.454083 1.2855
0.780273 0.447831 1.26583
0.782227 0.440692 1.24341
0.78418 0.432597 1.21808
0.786133 0.423465 1.18961
0.788086 0.413204 1.15777
0.790039 0.401727 1.12234
0.791992 0.38896 1.08313
0.793945 0.374847 1.04004
0.795898 0.359358 0.993075
0.797852 0.3425 0.942345
0.799805 0.324306 0.888046
0.801758 0.304821 0.830417
0.803711 0.284118 0.769758
0.805664 0.262443 0.706994
0.807617 0.240799 0.644898
0.80957 0.219985 0.58582
0.811523 0.200159 0.530125
0.813477 0.181452 0.478092
0.81543 0.163961 0.429901
0.817383 0.147742 0.385612
0.819336 0.132806 0.345166
0.821289 0.11913 0.308416
0.823242 0.106661 0.27515
0.825195 0.0953308 0.245121
0.827148 0.0850623 0.218069
0.829102 0.0757741 0.193734
0.831055 0.0673852 0.171865
0.833008 0.0598179 0.152227
0.834961 0.0529991 0.134604
0.836914 0.0468608 0.1188
0.838867 0.0413408 0.104635
0.84082 0.0363823 0.0919501
0.842773 0.0319338 0.0806008
0.844727 0.0279483 0.070458
0.84668 0.0243833 0.0614053
0.848633 0.0212 0.0533381
0.850586 0.0183633 0.046162
0.852539 0.0158413 0.0397922
0.854492 0.013605 0.034152
0.856445 0.0116281 0.0291722
0.858398 0.00988638 0.0247897
0.860352 0.00835768 0.0209469
0.862305 0.00702152 0.017591
0.864258 0.00585902 0.0146735
0.866211 0.00485278 0.0121498
0.868164 0.00398678 0.00997899
0.870117 0.00324634 0.00812382
0.87207 0.00261794 0.00655005
0.874023 0.00208917 0.00522623
0.875977 0.0016485 0.00412332
0.87793 0.00128522 0.00321431
0.879883 0.000989308 0.00247402
0.881836 0.000751405 0.00187894
0.883789 0.000562809 0.00140726
0.885742 0.000415513 0.00103891
0.887695 0.000302254 0.000755704
0.889648 0.000216564 0.000541445
0.891602 0.000152799 0.000382015
0.893555 0.000106146 0.000265373
0.895508 7.25908e-05 0.000181481
0.897461 4.8869e-05 0.000122174
0.899414 3.23858e-05 8.09653e-05
0.901367 2.11279e-05 5.282e-05
0.90332 1.35696e-05 3.3924e-05
0.905273 8.58072e-06 2.14519e-05
0.907227 5.34292e-06 1.33573e-05
0.90918 3.27633e-06 8.19084e-06
0.911133 1.97886e-06 4.94716e-06
0.913086 1.17742e-06 2.94355e-06
0.915039 6.90246e-07 1.72562e-06
0.916992 3.9876e-07 9.969e-07
0.918945 2.27054e-07 5.67635e-07
0.920898 1.27449e-07 3.18622e-07
0.922852 7.05355e-08 1.76339e-07
0.924805 3.84968e-08 9.6242e-08
0.926758 2.07235e-08 5.18088e-08
0.928711 1.10053e-08 2.75133e-08
0.930664 5.76656e-09 1.44164e-08
0.932617 2.98183e-09 7.45457e-09
0.93457 1.52185e-09 3.80464e-09
0.936523 7.66764e-10 1.91691e-09
0.938477 3.81433e-10 9.53581e-10
0.94043 1.87375e-10 4.68436e-10
0.942383 9.09099e-11 2.27274e-10
0.944336 4.35696e-11 1.08925e-10
0.946289 2.06297e-11 5.15759e-11
0.948242 9.65183e-12 2.41297e-11
0.950195 4.4631e-12 1.11578e-11
0.952148 2.03926e-12 5.09785e-12
0.954102 9.21485e-13 2.30247e-12
0.956055 4.11671e-13 1.02979e-12
0.958008 1.81632e-13 4.55461e-13
0.959961 7.9492e-14 1.9984e-13
0.961914 3.4639e-14 8.69288e-14
0.963867 1.55431e-14 3.82027e-14
0.96582 6.66134e-15 1.60222e-14
0.967773 3.10862e-15 7.53952e-15
0.969727 1.33227e-15 3.12133e-15
0.97168 0 8.31493e-16
0.973633 0 0
0.975586 0 0
0.977539 0 0
0.979492 0 0
0.981445 0 0
0.983398 0 0
0.985352 0 0
0.987305 0 0
0.989258 0 0
0.991211 0 0
0.993164 0 0
0.995117 0 0
0.99707 0 0
0.999023 0 0
