0.000976562 0 0
0.00292969 0 0
0.00488281 0 0
0.00683594 0 0
0.00878906 0 0
0.0107422 0 0
0.0126953 0 0
0.0146484 0 0
0.0166016 0 0
0.0185547 0 0
0.0205078 0 0
0.0224609 0 0
0.0244141 0 0
0.0263672 0 0
0.0283203 0 0
0.0302734 0 0
0.0322266 0 0
0.0341797 0 0
0.0361328 0 0
0.0380859 0 0
0.0400391 0 0
0.0419922 0 0
0.0439453 0 0
0.0458984 0 0
0.0478516 0 0
0.0498047 0 0
0.0517578 0 0
0.0537109 0 0
0.0556641 0 0
0.0576172 0 0
0.0595703 0 0
0.0615234 0 0
0.0634766 0 0
0.0654297 0 0
0.0673828 0 0
0.0693359 0 0
0.0712891 0 0
0.0732422 0 0
0.0751953 0 0
0.0771484 0 0
0.0791016 0 0
0.0810547 0 0
0.0830078 0 0
0.0849609 0 0
0.0869141 0 0
0.0888672 0 0
0.0908203 0 0
0.0927734 0 0
0.0947266 0 0
0.0966797 0 0
0.0986328 0 0
0.100586 0 0
0.102539 0 0
0.104492 0 0
0.106445 0 0
0.108398 0 0
0.110352 0 0
0.112305 0 0
0.114258 0 -1.08061e-15
0.116211 1.77636e-15 -4.33475e-15
0.118164 4.44089e-15 -1.02996e-14
0.120117 1.11022e-14 -2.73979e-14
0.12207 2.9754e-14 -7.37811e-14
0.124023 7.77156e-14 -1.93324e-13
0.125977 2.00728e-13 -5.00721e-13
0.12793 5.11147e-13 -1.27751e-12
0.129883 1.28431e-12 -3.21192e-12
0.131836 3.17879e-12 -7.94802e-12
0.133789 7.7427e-12 -1.93572e-11
0.135742 1.85603e-11 -4.64005e-11
0.137695 4.37761e-11 -1.0944e-10
0.139648 1.01562e-10 -2.53906e-10
0.141602 2.31716e-10 -5.79292e-10
0.143555 5.19762e-10 -1.29941e-09
0.145508 1.14596e-09 -2.86491e-09
0.147461 2.48279e-09 -6.20699e-09
0.149414 5.28445e-09 -1.32111e-08
0.151367 1.10466e-08 -2.76165e-08
0.15332 2.2673e-08 -5.66825e-08
0.155273 4.56791e-08 -1.14198e-07
0.157227 9.0309e-08 -2.25773e-07
0.15918 1.75156e-07 -4.3789e-07
0.161133 3.33177e-07 -8.32944e-07
0.163086 6.21383e-07 -1.55346e-06
0.165039 1.13594e-06 -2.83985e-06
0.166992 2.03493e-06 -5.08732e-06
0.168945 3.57131e-06 -8.9283e-06
0.170898 6.13893e-06 -1.53474e-05
0.172852 1.03336e-05 -2.58342e-05
0.174805 1.70308e-05 -4.25773e-05
0.176758 2.74782e-05 -6.8696e-05
0.178711 4.33991e-05 -0.000108499
0.180664 6.70991e-05 -0.000167751
0.182617 0.000101563 -0.000253916
0.18457 0.000150531 -0.000376345
0.186523 0.000218535 -0.000546374
0.188477 0.000310894 -0.00077731
0.19043 0.00043367 -0.00108432
0.192383 0.000593582 -0.00148422
0.194336 0.000797925 -0.0019953
0.196289 0.0010545 -0.0026371
0.198242 0.00137159 -0.0034304
0.200195 0.00175798 -0.00439729
0.202148 0.00222304 -0.00556135
0.204102 0.00277681 -0.00694786
0.206055 0.00343001 -0.00858392
0.208008 0.0041941 -0.0104986
0.209961 0.00508122 -0.0127226
0.211914 0.00610412 -0.0152884
0.213867 0.00727615 -0.0182303
0.21582 0.0086113 -0.0215842
0.217773 0.0101242 -0.0253878
0.219727 0.0118304 -0.0296814
0.22168 0.013746 -0.0345074
0.223633 0.0158883 -0.0399107
0.225586 0.0182748 -0.0459384
0.227539 0.0209243 -0.05264
0.229492 0.0238558 -0.0600672
0.231445 0.0270893 -0.0682746
0.233398 0.0306455 -0.0773192
0.235352 0.034546 -0.087261
0.237305 0.0388126 -0.0981621
0.239258 0.0434679 -0.110087
0.241211 0.0485343 -0.123102
0.243164 0.0540349 -0.137275
0.245117 0.0599923 -0.152676
0.24707 0.0664287 -0.169375
0.249023 0.0733656 -0.187441
0.250977 0.0808228 -0.206941
0.25293 0.0888183 -0.22794
0.254883 0.0973676 -0.250498
0.256836 0.106482 -0.274667
0.258789 0.11617 -0.300489
0.260742 0.126434 -0.327995
0.262695 0.137268 -0.357198
0.264648 0.148661 -0.388094
0.266602 0.160594 -0.420654
0.268555 0.173036 -0.454825
0.270508 0.185949 -0.490526
0.272461 0.199285 -0.527648
0.274414 0.212986 -0.566056
0.276367 0.22699 -0.605593
0.27832 0.241235 -0.646097
0.280273 0.255663 -0.687415
0.282227 0.270208 -0.729367
0.28418 0.284664 -0.771334
0.286133 0.298859 -0.812866
0.288086 0.312743 -0.853761
0.290039 0.326265 -0.893854
0.291992 0.339372 -0.93296
0.293945 0.352004 -0.970878
0.295898 0.364109 -1.00743
0.297852 0.375643 -1.04244
0.299805 0.386573 -1.07579
0.301758 0.396875 -1.10738
0.303711 0.406533 -1.13713
0.305664 0.415538 -1.16499
0.307617 0.423889 -1.19092
0.30957 0.431586 -1.2149
0.311523 0.438637 -1.23695
0.313477 0.445053 -1.25706
0.31543 0.450848 -1.27529
0.317383 0.456045 -1.29167
0.319336 0.460665 -1.30626
0.321289 0.464728 -1.31912
0.323242 0.468241 -1.33026
0.325195 0.471204 -1.33965
0.327148 0.473597 -1.34728
0.329102 0.475427 -1.35307
0.331055 0.476689 -1.35712
0.333008 0.477458 -1.35953
0.334961 0.477802 -1.36067
0.336914 0.477883 -1.36089
0.338867 0.477818 -1.36069
0.34082 0.477554 -1.35987
0.342773 0.47697 -1.358
0.344727 0.475958 -1.35477
0.34668 0.474457 -1.35
0.348633 0.472471 -1.34369
0.350586 0.470062 -1.33603
0.352539 0.467332 -1.32737
0.354492 0.464387 -1.31804
0.356445 0.46129 -1.30824
0.358398 0.458033 -1.29795
0.360352 0.454555 -1.28697
0.362305 0.450788 -1.2751
0.364258 0.446711 -1.26228
0.366211 0.442383 -1.24869
0.368164 0.437895 -1.23463
0.370117 0.433309 -1.22029
0.37207 0.428599 -1.20559
0.374023 0.423693 -1.19031
0.375977 0.418552 -1.17434
0.37793 0.413224 -1.15782
0.379883 0.407796 -1.14104
0.381836 0.402308 -1.1241
0.383789 0.396705 -1.10687
0.385742 0.390928 -1.08914
0.387695 0.384995 -1.07098
0.389648 0.378989 -1.05264
0.391602 0.372949 -1.03425
0.393555 0.366822 -1.01565
0.395508 0.360553 -0.996678
0.397461 0.354183 -0.977452
0.399414 0.347791 -0.958217
0.401367 0.34137 -0.938955
0.40332 0.334857 -0.919473
0.405273 0.32825 -0.899772
0.407227 0.321633 -0.880094
0.40918 0.315 -0.860448
0.411133 0.308307 -0.84068
0.413086 0.301559 -0.820806
0.415039 0.294812 -0.801003
0.416992 0.288052 -0.781236
0.418945 0.28126 -0.761434
0.420898 0.274455 -0.741654
0.422852 0.267651 -0.721951
0.424805 0.260846 -0.702309
0.426758 0.254043 -0.682738
0.428711 0.24725 -0.663253
0.430664 0.240471 -0.643867
0.432617 0.233713 -0.624587
0.43457 0.226985 -0.605417
0.436523 0.220293 -0.586364
0.438477 0.213646 -0.567429
0.44043 0.207052 -0.548612
0.442383 0.200522 -0.529912
0.444336 0.194066 -0.511327
0.446289 0.187694 -0.492853
0.448242 0.181419 -0.474484
0.450195 0.17525 -0.456212
0.452148 0.169201 -0.438029
0.454102 0.163281 -0.419927
0.456055 0.157503 -0.4019
0.458008 0.151878 -0.383936
0.459961 0.146418 -0.366029
0.461914 0.141134 -0.348167
0.463867 0.136039 -0.330342
0.46582 0.131145 -0.312543
0.467773 0.12646 -0.294762
0.469727 0.121996 -0.276991
0.47168 0.117762 -0.259224
0.473633 0.113767 -0.241454
0.475586 0.110021 -0.223678
0.477539 0.106531 -0.20589
0.479492 0.103305 -0.188087
0.481445 0.10035 -0.170267
0.483398 0.0976729 -0.152426
0.485352 0.0952789 -0.134566
0.487305 0.0931731 -0.116686
0.489258 0.09136 -0.098785
0.491211 0.0898433 -0.0808699
0.493164 0.088628 -0.0629316
0.495117 0.0877111 -0.0450074
0.49707 0.0871099 -0.0270136
0.499023 0.0867886 -0.00911352
0.500977 0.0867886 0.00911352
0.50293 0.0871099 0.0270136
0.504883 0.0877111 0.0450074
0.506836 0.088628 0.0629316
0.508789 0.0898433 0.0808699
0.510742 0.09136 0.098785
0.512695 0.0931731 0.116686
0.514648 0.0952789 0.134566
0.516602 0.0976729 0.152426
0.518555 0.10035 0.170267
0.520508 0.103305 0.188087
0.522461 0.106531 0.20589
0.524414 0.110021 0.223678
0.526367 0.113767 0.241454
0.52832 0.117762 0.259224
0.530273 0.121996 0.276991
0.532227 0.12646 0.294762
0.53418 0.131145 0.312543
0.536133 0.136039 0.330342
0.538086 0.141134 0.348167
0.540039 0.146418 0.366029
0.541992 0.151878 0.383936
0.543945 0.157503 0.4019
0.545898 0.163281 0.419927
0.547852 0.169201 0.438029
0.549805 0.17525 0.456212
0.551758 0.181419 0.474484
0.553711 0.187694 0.492853
0.555664 0.194066 0.511327
0.557617 0.200522 0.529912
0.55957 0.207052 0.548612
0.561523 0.213646 0.567429
0.563477 0.220293 0.586364
0.56543 0.226985 0.605417
0.567383 0.233713 0.624587
0.569336 0.240471 0.643867
0.571289 0.24725 0.663253
0.573242 0.254043 0.682738
0.575195 0.260846 0.702309
0.577148 0.267651 0.721951
0.579102 0.274455 0.741654
0.581055 0.28126 0.761434
0.583008 0.288052 0.781236
0.584961 0.294812 0.801003
0.586914 0.301559 0.820806
0.588867 0.308307 0.84068
0.59082 0.315 0.860448
0.592773 0.321633 0.880094
0.594727 0.32825 0.899772
0.59668 0.334857 0.919473
0.598633 0.34137 0.938955
0.600586 0.347791 0.958217
0.602539 0.354183 0.977452
0.604492 0.360553 0.996678
0.606445 0.366822 1.01565
0.608398 0.372949 1.03425
0.610352 0.378989 1.05264
0.612305 0.384995 1.07098
0.614258 0.390928 1.08914
0.616211 0.396705 1.10687
0.618164 0.402308 1.1241
0.620117 0.407796 1.14104
0.62207 0.413224 1.15782
0.624023 0.418552 1.17434
0.625977 0.423693 1.19031
0.62793 0.428599 1.20559
0.629883 0.433309 1.22029
0.631836 0.437895 1.23463
0.633789 0.442383 1.24869
0.635742 0.446711 1.26228
0.637695 0.450788 1.2751
0.639648 0.454555 1.28697
0.641602 0.458033 1.29795
0.643555 0.46129 1.30824
0.645508 0.464387 1.31804
0.647461 0.467332 1.32737
0.649414 0.470062 1.33603
0.651367 0.472471 1.34369
0.65332 0.474457 1.35
0.655273 0.475958 1.35477
0.657227 0.47697 1.358
0.65918 0.477554 1.35987
0.661133 0.477818 1.36069
0.663086 0.477883 1.36089
0.665039 0.477802 1.36067
0.666992 0.477458 1.35953
0.668945 0.476689 1.35712
0.670898 0.475427 1.35307
0.672852 0.473597 1.34728
0.674805 0.471204 1.33965
0.676758 0.468241 1.33026
0.678711 0.464728 1.31912
0.680664 0.460665 1.30626
0.682617 0.456045 1.29167
0.68457 0.450848 1.27529
0.686523 0.445053 1.25706
0.688477 0.438637 1.23695
0.69043 0.431586 1.2149
0.692383 0.423889 1.19092
0.694336 0.415538 1.16499
0.696289 0.406533 1.13713
0.698242 0.396875 1.10738
0.700195 0.386573 1.07579
0.702148 0.375643 1.04244
0.704102 0.364109 1.00743
0.706055 0.352004 0.970878
0.708008 0.339372 0.93296
0.709961 0.326265 0.893854
0.711914 0.312743 0.853761
0.713867 0.298859 0.812866
0.71582 0.284664 0.771334
0.717773 0.270208 0.729367
0.719727 0.255663 0.687415
0.72168 0.241235 0.646097
0.723633 0.22699 0.605593
0.725586 0.212986 0.566056
0.727539 0.199285 0.527648
0.729492 0.185949 0.490526
0.731445 0.173036 0.454825
0.733398 0.160594 0.420654
0.735352 0.148661 0.388094
0.737305 0.137268 0.357198
0.739258 0.126434 0.327995
0.741211 0.11617 0.300489
0.743164 0.106482 0.274667
0.745117 0.0973676 0.250498
0.74707 0.0888183 0.22794
0.749023 0.0808228 0.206941
0.750977 0.0733656 0.187441
0.75293 0.0664287 0.169375
0.754883 0.0599923 0.152676
0.756836 0.0540349 0.137275
0.758789 0.0485343 0.123102
0.760742 0.0434679 0.110087
0.762695 0.0388126 0.0981621
0.764648 0.034546 0.087261
0.766602 0.0306455 0.0773192
0.768555 0.0270893 0.0682746
0.770508 0.0238558 0.0600672
0.772461 0.0209243 0.05264
0.774414 0.0182748 0.0459384
0.776367 0.0158883 0.0399107
0.77832 0.013746 0.0345074
0.780273 0.0118304 0.0296814
0.782227 0.0101242 0.0253878
0.78418 0.0086113 0.0215842
0.786133 0.00727615 0.0182303
0.788086 0.00610412 0.0152884
0.790039 0.00508122 0.0127226
0.791992 0.0041941 0.0104986
0.793945 0.00343001 0.00858392
0.795898 0.00277681 0.00694786
0.797852 0.00222304 0.00556135
0.799805 0.00175798 0.00439729
0.801758 0.00137159 0.0034304
0.803711 0.0010545 0.0026371
0.805664 0.000797925 0.0019953
0.807617 0.000593582 0.00148422
0.80957 0.00043367 0.00108432
0.811523 0.000310894 0.00077731
0.813477 0.000218535 0.000546374
0.81543 0.000150531 0.000376345
0.817383 0.000101563 0.000253916
0.819336 6.70991e-05 0.000167751
0.821289 4.33991e-05 0.000108499
0.823242 2.74782e-05 6.8696e-05
0.825195 1.70308e-05 4.25773e-05
0.827148 1.03336e-05 2.58342e-05
0.829102 6.13893e-06 1.53474e-05
0.831055 3.57131e-06 8.9283e-06
0.833008 2.03493e-06 5.08732e-06
0.834961 1.13594e-06 2.83985e-06
0.836914 6.21383e-07 1.55346e-06
0.838867 3.33177e-07 8.32944e-07
0.84082 1.75156e-07 4.3789e-07
0.842773 9.0309e-08 2.25773e-07
0.844727 4.56791e-08 1.14198e-07
0.84668 2.2673e-08 5.66825e-08
0.848633 1.10466e-08 2.76165e-08
0.850586 5.28445e-09 1.32111e-08
0.852539 2.48279e-09 6.20699e-09
0.854492 1.14596e-09 2.86491e-09
0.856445 5.19762e-10 1.29941e-09
0.858398 2.31716e-10 5.79292e-10
0.860352 1.01562e-10 2.53906e-10
0.862305 4.37761e-11 1.0944e-10
0.864258 1.85603e-11 4.64005e-11
0.866211 7.7427e-12 1.93572e-11
0.868164 3.17879e-12 7.94802e-12
0.870117 1.28431e-12 3.21192e-12
0.87207 5.11147e-13 1.27751e-12
0.874023 2.00728e-13 5.00721e-13
0.875977 7.77156e-14 1.93324e-13
0.87793 2.9754e-14 7.37811e-14
0.879883 1.11022e-14 2.73979e-14
0.881836 4.44089e-15 1.02996e-14
0.883789 1.77636e-15 4.33475e-15
0.885742 0 1.08061e-15
0.887695 0 0
0.889648 0 0
0.891602 0 0
0.893555 0 0
0.895508 0 0
0.897461 0 0
0.899414 0 0
0.901367 0 0
0.90332 0 0
0.905273 0 0
0.907227 0 0
0.90918 0 0
0.911133 0 0
0.913086 0 0
0.915039 0 0
0.916992 0 0
0.918945 0 0
0.920898 0 0
0.922852 0 0
0.924805 0 0
0.926758 0 0
0.928711 0 0
0.930664 0 0
0.932617 0 0
0.93457 0 0
0.936523 0 0
0.938477 0 0
0.94043 0 0
0.942383 0 0
0.944336 0 0
0.946289 0 0
0.948242 0 0
0.950195 0 0
0.952148 0 0
0.954102 0 0
0.956055 0 0
0.958008 0 0
0.959961 0 0
0.961914 0 0
0.963867 0 0
0.96582 0 0
0.967773 0 0
0.969727 0 0
0.97168 0 0
0.973633 0 0
0.975586 0 0
0.977539 0 0
0.979492 0 0
0.981445 0 0
0.983398 0 0
0.985352 0 0
0.987305 0 0
0.989258 0 0
0.991211 0 0
0.993164 0 0
0.995117 0 0
0.99707 0 0
0.999023 0 0
