0.000976562 8.45102e-13 -6.77174e-13
0.00292969 1.3487e-12 -2.73018e-12
0.00488281 2.61879e-12 -6.28864e-12
0.00683594 5.39746e-12 -1.33993e-11
0.00878906 1.11475e-11 -2.78384e-11
0.0107422 2.28475e-11 -5.71099e-11
0.0126953 4.63438e-11 -1.15858e-10
0.0146484 9.30078e-11 -2.32519e-10
0.0166016 1.84638e-10 -4.61594e-10
0.0185547 3.6253e-10 -9.06323e-10
0.0205078 7.0393e-10 -1.75982e-09
0.0224609 1.35152e-09 -3.37881e-09
0.0244141 2.56547e-09 -6.41367e-09
0.0263672 4.81391e-09 -1.20348e-08
0.0283203 8.92804e-09 -2.23201e-08
0.0302734 1.63636e-08 -4.0909e-08
0.0322266 2.9635e-08 -7.40875e-08
0.0341797 5.30235e-08 -1.32559e-07
0.0361328 9.37144e-08 -2.34286e-07
0.0380859 1.63589e-07 -4.08972e-07
0.0400391 2.81997e-07 -7.04992e-07
0.0419922 4.7997e-07 -1.19993e-06
0.0439453 8.0649e-07 -2.01623e-06
0.0458984 1.33763e-06 -3.34407e-06
0.0478516 2.18957e-06 -5.47394e-06
0.0498047 3.53682e-06 -8.84206e-06
0.0517578 5.63687e-06 -1.40922e-05
0.0537109 8.86302e-06 -2.21576e-05
0.0556641 1.37466e-05 -3.43666e-05
0.0576172 2.10298e-05 -5.25748e-05
0.0595703 3.17297e-05 -7.93251e-05
0.0615234 4.72131e-05 -0.000118035
0.0634766 6.92801e-05 -0.000173204
0.0654297 0.000100254 -0.000250642
0.0673828 0.00014307 -0.000357692
0.0693359 0.000201366 -0.000503446
0.0712891 0.000279547 -0.000698928
0.0732422 0.00038285 -0.000957238
0.0751953 0.000517369 -0.00129363
0.0771484 0.000690063 -0.00172552
0.0791016 0.000908744 -0.00227249
0.0810547 0.00118205 -0.00295619
0.0830078 0.00151941 -0.00380028
0.0849609 0.00193105 -0.00483046
0.0869141 0.00242799 -0.00607445
0.0888672 0.00302213 -0.00756225
0.0908203 0.00372637 -0.00932644
0.0927734 0.00455476 -0.0114026
0.0947266 0.00552273 -0.0138299
0.0966797 0.00664729 -0.0166516
0.0986328 0.00794728 -0.0199159
0.100586 0.00944358 -0.0236762
0.102539 0.0111594 -0.0279924
0.104492 0.0131205 -0.032931
0.106445 0.0153555 -0.0385665
0.108398 0.0178966 -0.0449827
0.110352 0.0207798 -0.0522744
0.112305 0.0240458 -0.0605495
0.114258 0.0277411 -0.0699317
0.116211 0.0319191 -0.0805638
0.118164 0.036641 -0.0926113
0.120117 0.0419773 -0.106267
0.12207 0.04801 -0.121755
0.124023 0.0548339 -0.139341
0.125977 0.0625593 -0.159333
0.12793 0.0713142 -0.182097
0.129883 0.0812463 -0.208059
0.131836 0.0925249 -0.237719
0.133789 0.10534 -0.271646
0.135742 0.119897 -0.310481
0.137695 0.136411 -0.354914
0.139648 0.155088 -0.405646
0.141602 0.176101 -0.463333
0.143555 0.199562 -0.528497
0.145508 0.225495 -0.601452
0.147461 0.253819 -0.682241
0.149414 0.283106 -0.766884
0.151367 0.310355 -0.846753
0.15332 0.334677 -0.918961
0.155273 0.356156 -0.98344
0.157227 0.375038 -1.04065
0.15918 0.391554 -1.09111
0.161133 0.405937 -1.13537
0.163086 0.418431 -1.17402
0.165039 0.429257 -1.20768
0.166992 0.438609 -1.23691
0.168945 0.446658 -1.26217
0.170898 0.453534 -1.28381
0.172852 0.459335 -1.30213
0.174805 0.464139 -1.31732
0.176758 0.468018 -1.32959
0.178711 0.471037 -1.33917
0.180664 0.473278 -1.34631
0.182617 0.474842 -1.35129
0.18457 0.475841 -1.35446
0.186523 0.476392 -1.35621
0.188477 0.476622 -1.35693
0.19043 0.47666 -1.35705
0.192383 0.476601 -1.35687
0.194336 0.476395 -1.35622
0.196289 0.475955 -1.35482
0.198242 0.475202 -1.35242
0.200195 0.474075 -1.34883
0.202148 0.472535 -1.34393
0.204102 0.470574 -1.33771
0.206055 0.468213 -1.33021
0.208008 0.465497 -1.3216
0.209961 0.462491 -1.31208
0.211914 0.459268 -1.30188
0.213867 0.455895 -1.29123
0.21582 0.452429 -1.28031
0.217773 0.448906 -1.26922
0.219727 0.445334 -1.25799
0.22168 0.441694 -1.24657
0.223633 0.437954 -1.23485
0.225586 0.434075 -1.22271
0.227539 0.430026 -1.21007
0.229492 0.425797 -1.19689
0.231445 0.421401 -1.18322
0.233398 0.416873 -1.16916
0.235352 0.412261 -1.15487
0.237305 0.407603 -1.14047
0.239258 0.402926 -1.12604
0.241211 0.398229 -1.11158
0.243164 0.39349 -1.09703
0.245117 0.388676 -1.08227
0.24707 0.383757 -1.06722
0.249023 0.378723 -1.05186
0.250977 0.373592 -1.03623
0.25293 0.368402 -1.02047
0.254883 0.363211 -1.00474
0.256836 0.358025 -0.989065
0.258789 0.352828 -0.973397
0.260742 0.347599 -0.957667
0.262695 0.342313 -0.941804
0.264648 0.336956 -0.925767
0.266602 0.331532 -0.909576
0.268555 0.326089 -0.893361
0.270508 0.320658 -0.877227
0.272461 0.315228 -0.86114
0.274414 0.309784 -0.845057
0.276367 0.304315 -0.82894
0.27832 0.298813 -0.812764
0.280273 0.29328 -0.796543
0.282227 0.287744 -0.780352
0.28418 0.282212 -0.764221
0.286133 0.276679 -0.74813
0.288086 0.271139 -0.732064
0.290039 0.265596 -0.716031
0.291992 0.260056 -0.700052
0.293945 0.254522 -0.684132
0.295898 0.248995 -0.668277
0.297852 0.243476 -0.652487
0.299805 0.237966 -0.636769
0.301758 0.232467 -0.621126
0.303711 0.226982 -0.605563
0.305664 0.221512 -0.590087
0.307617 0.216059 -0.574703
0.30957 0.210626 -0.559415
0.311523 0.205213 -0.54423
0.313477 0.199824 -0.529151
0.31543 0.19446 -0.514185
0.317383 0.189124 -0.499337
0.319336 0.183817 -0.48461
0.321289 0.178541 -0.470012
0.323242 0.173298 -0.455545
0.325195 0.168091 -0.441216
0.327148 0.162922 -0.427029
0.329102 0.157792 -0.412989
0.331055 0.152704 -0.399102
0.333008 0.14766 -0.385372
0.334961 0.142662 -0.371805
0.336914 0.137713 -0.358405
0.338867 0.132814 -0.345177
0.34082 0.127968 -0.332128
0.342773 0.123178 -0.31926
0.344727 0.118446 -0.306582
0.34668 0.113773 -0.294096
0.348633 0.109164 -0.281808
0.350586 0.104619 -0.269725
0.352539 0.100142 -0.257851
0.354492 0.0957344 -0.246192
0.356445 0.0913999 -0.234753
0.358398 0.0871408 -0.223539
0.360352 0.0829595 -0.212557
0.362305 0.0788588 -0.201812
0.364258 0.0748416 -0.191308
0.366211 0.0709101 -0.181053
0.368164 0.0670674 -0.171051
0.370117 0.0633162 -0.161308
0.37207 0.0596592 -0.15183
0.374023 0.0560984 -0.142622
0.375977 0.0526381 -0.133688
0.37793 0.0492783 -0.125037
0.379883 0.046025 -0.116666
0.381836 0.0428759 -0.108593
0.383789 0.0398404 -0.100803
0.385742 0.0369101 -0.0933282
0.387695 0.0341023 -0.0861342
0.389648 0.0313988 -0.0792743
0.391602 0.0288265 -0.0726894
0.393555 0.0263563 -0.0664576
0.395508 0.0240258 -0.0604904
0.397461 0.0217942 -0.0548929
0.399414 0.0197079 -0.0495512
0.401367 0.0177189 -0.0445857
0.40332 0.0158772 -0.0398696
0.405273 0.0141302 -0.0355306
0.407227 0.0125308 -0.0314311
0.40918 0.0110226 -0.0277041
0.411133 0.00966005 -0.0242032
0.413086 0.00838213 -0.0210684
0.415039 0.00724745 -0.0181385
0.416992 0.0061893 -0.0155627
0.418945 0.0052679 -0.013171
0.420898 0.00441472 -0.0111121
0.422852 0.00368904 -0.0092135
0.424805 0.00302217 -0.00761988
0.426758 0.00246975 -0.00616369
0.428711 0.00196742 -0.00497561
0.430664 0.00156439 -0.00390161
0.432617 0.00120262 -0.00305506
0.43457 0.000922665 -0.00230282
0.436523 0.000676319 -0.00173366
0.438477 0.000495059 -0.0012376
0.44043 0.000338878 -0.00088395
0.442383 0.000231718 -0.000583087
0.444336 0.000141354 -0.000387127
0.446289 8.63686e-05 -0.00022294
0.448242 4.10105e-05 -0.000130396
0.450195 1.762e-05 -5.66025e-05
0.452148 -4.93451e-07 -2.38582e-05
0.454102 -6.73531e-06 1.03617e-06
0.456055 -1.10533e-05 7.08032e-06
0.458008 -1.12723e-05 1.05618e-05
0.459961 -1.11009e-05 9.8098e-06
0.461914 -1.03377e-05 6.87568e-06
0.463867 -8.69531e-06 2.4409e-06
0.46582 -6.9343e-06 -4.39847e-07
0.467773 -6.30894e-06 -2.24844e-06
0.469727 -6.16124e-06 -2.53667e-06
0.47168 -6.22439e-06 -2.28684e-06
0.473633 -6.43384e-06 -1.59291e-06
0.475586 -6.65796e-06 -8.65507e-07
0.477539 -6.70493e-06 -3.70171e-07
0.479492 -6.72074e-06 -3.16414e-07
0.481445 -6.71181e-06 -3.51718e-07
0.483398 -6.71017e-06 -3.70657e-07
0.485352 -6.72738e-06 -3.38886e-07
0.487305 -6.7715e-06 -2.1986e-07
0.489258 -6.8015e-06 -8.65003e-08
0.491211 -6.78911e-06 4.21399e-08
0.493164 -6.7882e-06 6.45726e-08
0.495117 -6.80335e-06 8.76801e-09
0.49707 -6.83913e-06 -2.99389e-08
0.499023 -6.86149e-06 -2.64593e-08
0.500977 -6.86149e-06 2.64593e-08
0.50293 -6.83913e-06 2.99389e-08
0.504883 -6.80335e-06 -8.76801e-09
0.506836 -6.7882e-06 -6.45726e-08
0.508789 -6.78911e-06 -4.21399e-08
0.510742 -6.8015e-06 8.65003e-08
0.512695 -6.7715e-06 2.1986e-07
0.514648 -6.72738e-06 3.38886e-07
0.516602 -6.71017e-06 3.70657e-07
0.518555 -6.71181e-06 3.51718e-07
0.520508 -6.72074e-06 3.16414e-07
0.522461 -6.70493e-06 3.70171e-07
0.524414 -6.65796e-06 8.65507e-07
0.526367 -6.43384e-06 1.59291e-06
0.52832 -6.22439e-06 2.28684e-06
0.530273 -6.16124e-06 2.53667e-06
0.532227 -6.30894e-06 2.24844e-06
0.53418 -6.9343e-06 4.39847e-07
0.536133 -8.69531e-06 -2.4409e-06
0.538086 -1.03377e-05 -6.87568e-06
0.540039 -1.11009e-05 -9.8098e-06
0.541992 -1.12723e-05 -1.05618e-05
0.543945 -1.10533e-05 -7.08032e-06
0.545898 -6.73531e-06 -1.03617e-06
0.547852 -4.93451e-07 2.38582e-05
0.549805 1.762e-05 5.66025e-05
0.551758 4.10105e-05 0.000130396
0.553711 8.63686e-05 0.00022294
0.555664 0.000141354 0.000387127
0.557617 0.000231718 0.000583087
0.55957 0.000338878 0.00088395
0.561523 0.000495059 0.0012376
0.563477 0.000676319 0.00173366
0.56543 0.000922665 0.00230282
0.567383 0.00120262 0.00305506
0.569336 0.00156439 0.00390161
0.571289 0.00196742 0.00497561
0.573242 0.00246975 0.00616369
0.575195 0.00302217 0.00761988
0.577148 0.00368904 0.0092135
0.579102 0.00441472 0.0111121
0.581055 0.0052679 0.013171
0.583008 0.0061893 0.0155627
0.584961 0.00724745 0.0181385
0.586914 0.00838213 0.0210684
0.588867 0.00966005 0.0242032
0.59082 0.0110226 0.0277041
0.592773 0.0125308 0.0314311
0.594727 0.0141302 0.0355306
0.59668 0.0158772 0.0398696
0.598633 0.0177189 0.0445857
0.600586 0.0197079 0.0495512
0.602539 0.0217942 0.0548929
0.604492 0.0240258 0.0604904
0.606445 0.0263563 0.0664576
0.608398 0.0288265 0.0726894
0.610352 0.0313988 0.0792743
0.612305 0.0341023 0.0861342
0.614258 0.0369101 0.0933282
0.616211 0.0398404 0.100803
0.618164 0.0428759 0.108593
0.620117 0.046025 0.116666
0.62207 0.0492783 0.125037
0.624023 0.0526381 0.133688
0.625977 0.0560984 0.142622
0.62793 0.0596592 0.15183
0.629883 0.0633162 0.161308
0.631836 0.0670674 0.171051
0.633789 0.0709101 0.181053
0.635742 0.0748416 0.191308
0.637695 0.0788588 0.201812
0.639648 0.0829595 0.212557
0.641602 0.0871408 0.223539
0.643555 0.0913999 0.234753
0.645508 0.0957344 0.246192
0.647461 0.100142 0.257851
0.649414 0.104619 0.269725
0.651367 0.109164 0.281808
0.65332 0.113773 0.294096
0.655273 0.118446 0.306582
0.657227 0.123178 0.31926
0.65918 0.127968 0.332128
0.661133 0.132814 0.345177
0.663086 0.137713 0.358405
0.665039 0.142662 0.371805
0.666992 0.14766 0.385372
0.668945 0.152704 0.399102
0.670898 0.157792 0.412989
0.672852 0.162922 0.427029
0.674805 0.168091 0.441216
0.676758 0.173298 0.455545
0.678711 0.178541 0.470012
0.680664 0.183817 0.48461
0.682617 0.189124 0.499337
0.68457 0.19446 0.514185
0.686523 0.199824 0.529151
0.688477 0.205213 0.54423
0.69043 0.210626 0.559415
0.692383 0.216059 0.574703
0.694336 0.221512 0.590087
0.696289 0.226982 0.605563
0.698242 0.232467 0.621126
0.700195 0.237966 0.636769
0.702148 0.243476 0.652487
0.704102 0.248995 0.668277
0.706055 0.254522 0.684132
0.708008 0.260056 0.700052
0.709961 0.265596 0.716031
0.711914 0.271139 0.732064
0.713867 0.276679 0.74813
0.71582 0.282212 0.764221
0.717773 0.287744 0.780352
0.719727 0.29328 0.796543
0.72168 0.298813 0.812764
0.723633 0.304315 0.82894
0.725586 0.309784 0.845057
0.727539 0.315228 0.86114
0.729492 0.320658 0.877227
0.731445 0.326089 0.893361
0.733398 0.331532 0.909576
0.735352 0.336956 0.925767
0.737305 0.342313 0.941804
0.739258 0.347599 0.957667
0.741211 0.352828 0.973397
0.743164 0.358025 0.989065
0.745117 0.363211 1.00474
0.74707 0.368402 1.02047
0.749023 0.373592 1.03623
0.750977 0.378723 1.05186
0.75293 0.383757 1.06722
0.754883 0.388676 1.08227
0.756836 0.39349 1.09703
0.758789 0.398229 1.11158
0.760742 0.402926 1.12604
0.762695 0.407603 1.14047
0.764648 0.412261 1.15487
0.766602 0.416873 1.16916
0.768555 0.421401 1.18322
0.770508 0.425797 1.19689
0.772461 0.430026 1.21007
0.774414 0.434075 1.22271
0.776367 0.437954 1.23485
0.77832 0.441694 1.24657
0.780273 0.445334 1.25799
0.782227 0.448906 1.26922
0.78418 0.452429 1.28031
0.786133 0.455895 1.29123
0.788086 0.459268 1.30188
0.790039 0.462491 1.31208
0.791992 0.465497 1.3216
0.793945 0.468213 1.33021
0.795898 0.470574 1.33771
0.797852 0.472535 1.34393
0.799805 0.474075 1.34883
0.801758 0.475202 1.35242
0.803711 0.475955 1.35482
0.805664 0.476395 1.35622
0.807617 0.476601 1.35687
0.80957 0.47666 1.35705
0.811523 0.476622 1.35693
0.813477 0.476392 1.35621
0.81543 0.475841 1.35446
0.817383 0.474842 1.35129
0.819336 0.473278 1.34631
0.821289 0.471037 1.33917
0.823242 0.468018 1.32959
0.825195 0.464139 1.31732
0.827148 0.459335 1.30213
0.829102 0.453534 1.28381
0.831055 0.446658 1.26217
0.833008 0.438609 1.23691
0.834961 0.429257 1.20768
0.836914 0.418431 1.17402
0.838867 0.405937 1.13537
0.84082 0.391554 1.09111
0.842773 0.375038 1.04065
0.844727 0.356156 0.98344
0.84668 0.334677 0.918961
0.848633 0.310355 0.846753
0.850586 0.283106 0.766884
0.852539 0.253819 0.682241
0.854492 0.225495 0.601452
0.856445 0.199562 0.528497
0.858398 0.176101 0.463333
0.860352 0.155088 0.405646
0.862305 0.136411 0.354914
0.864258 0.119897 0.310481
0.866211 0.10534 0.271646
0.868164 0.0925249 0.237719
0.870117 0.0812463 0.208059
0.87207 0.0713142 0.182097
0.874023 0.0625593 0.159333
0.875977 0.0548339 0.139341
0.87793 0.04801 0.121755
0.879883 0.0419773 0.106267
0.881836 0.036641 0.0926113
0.883789 0.0319191 0.0805638
0.885742 0.0277411 0.0699317
0.887695 0.0240458 0.0605495
0.889648 0.0207798 0.0522744
0.891602 0.0178966 0.0449827
0.893555 0.0153555 0.0385665
0.895508 0.0131205 0.032931
0.897461 0.0111594 0.0279924
0.899414 0.00944358 0.0236762
0.901367 0.00794728 0.0199159
0.90332 0.00664729 0.0166516
0.905273 0.00552273 0.0138299
0.907227 0.00455476 0.0114026
0.90918 0.00372637 0.00932644
0.911133 0.00302213 0.00756225
0.913086 0.00242799 0.00607445
0.915039 0.00193105 0.00483046
0.916992 0.00151941 0.00380028
0.918945 0.00118205 0.00295619
0.920898 0.000908744 0.00227249
0.922852 0.000690063 0.00172552
0.924805 0.000517369 0.00129363
0.926758 0.00038285 0.000957238
0.928711 0.000279547 0.000698928
0.930664 0.000201366 0.000503446
0.932617 0.00014307 0.000357692
0.93457 0.000100254 0.000250642
0.936523 6.92801e-05 0.000173204
0.938477 4.72131e-05 0.000118035
0.94043 3.17297e-05 7.93251e-05
0.942383 2.10298e-05 5.25748e-05
0.944336 1.37466e-05 3.43666e-05
0.946289 8.86302e-06 2.21576e-05
0.948242 5.63687e-06 1.40922e-05
0.950195 3.53682e-06 8.84206e-06
0.952148 2.18957e-06 5.47394e-06
0.954102 1.33763e-06 3.34407e-06
0.956055 8.0649e-07 2.01623e-06
0.958008 4.7997e-07 1.19993e-06
0.959961 2.81997e-07 7.04992e-07
0.961914 1.63589e-07 4.08972e-07
0.963867 9.37144e-08 2.34286e-07
0.96582 5.30235e-08 1.32559e-07
0.967773 2.9635e-08 7.40875e-08
0.969727 1.63636e-08 4.0909e-08
0.97168 8.92804e-09 2.23201e-08
0.973633 4.81391e-09 1.20348e-08
0.975586 2.56547e-09 6.41367e-09
0.977539 1.35152e-09 3.37881e-09
0.979492 7.0393e-10 1.75982e-09
0.981445 3.6253e-10 9.06323e-10
0.983398 1.84638e-10 4.61594e-10
0.985352 9.30078e-11 2.32519e-10
0.987305 4.63438e-11 1.15858e-10
0.989258 2.28475e-11 5.71099e-11
0.991211 1.11475e-11 2.78384e-11
0.993164 5.39746e-12 1.33993e-11
0.995117 2.61879e-12 6.28864e-12
0.99707 1.3487e-12 2.73018e-12
0.999023 8.45102e-13 6.77174e-13
