0.000976562 0 0
0.00292969 0 0
0.00488281 0 0
0.00683594 0 0
0.00878906 0 0
0.0107422 0 0
0.0126953 0 0
0.0146484 0 0
0.0166016 0 0
0.0185547 0 0
0.0205078 0 0
0.0224609 0 0
0.0244141 0 0
0.0263672 0 0
0.0283203 0 0
0.0302734 0 0
0.0322266 0 0
0.0341797 0 0
0.0361328 0 0
0.0380859 0 0
0.0400391 0 0
0.0419922 0 0
0.0439453 0 0
0.0458984 0 0
0.0478516 0 0
0.0498047 0 0
0.0517578 0 0
0.0537109 0 0
0.0556641 0 -2.212e-16
0.0576172 8.88178e-16 -2.08061e-15
0.0595703 2.22045e-15 -5.37958e-15
0.0615234 5.32907e-15 -1.25619e-14
0.0634766 1.19904e-14 -2.96079e-14
0.0654297 2.79776e-14 -6.93345e-14
0.0673828 6.66134e-14 -1.65717e-13
0.0693359 1.57208e-13 -3.93175e-13
0.0712891 3.68594e-13 -9.22238e-13
0.0732422 8.53539e-13 -2.13413e-12
0.0751953 1.95177e-12 -4.8811e-12
0.0771484 4.41025e-12 -1.10265e-11
0.0791016 9.8388e-12 -2.45971e-11
0.0810547 2.16684e-11 -5.41707e-11
0.0830078 4.7097e-11 -1.17741e-10
0.0849609 1.01021e-10 -2.52551e-10
0.0869141 2.13795e-10 -5.34488e-10
0.0888672 4.46357e-10 -1.11589e-09
0.0908203 9.19148e-10 -2.29787e-09
0.0927734 1.86648e-09 -4.6662e-09
0.0947266 3.73694e-09 -9.34235e-09
0.0966797 7.37531e-09 -1.84383e-08
0.0986328 1.4346e-08 -3.5865e-08
0.100586 2.74967e-08 -6.87417e-08
0.102539 5.19209e-08 -1.29802e-07
0.104492 9.65665e-08 -2.41416e-07
0.106445 1.76866e-07 -4.42165e-07
0.108398 3.18939e-07 -7.97347e-07
0.110352 5.66142e-07 -1.41535e-06
0.112305 9.89033e-07 -2.47258e-06
0.114258 1.70011e-06 -4.25028e-06
0.116211 2.87504e-06 -7.1876e-06
0.118164 4.78222e-06 -1.19556e-05
0.120117 7.8228e-06 -1.95571e-05
0.12207 1.25828e-05 -3.14571e-05
0.124023 1.98984e-05 -4.97463e-05
0.125977 3.09344e-05 -7.73368e-05
0.12793 4.72737e-05 -0.000118186
0.129883 7.10133e-05 -0.000177537
0.131836 0.000104861 -0.000262161
0.133789 0.000152222 -0.000380573
0.135742 0.000217269 -0.000543209
0.137695 0.00030498 -0.000762522
0.139648 0.000421149 -0.00105301
0.141602 0.000572356 -0.00143114
0.143555 0.000765915 -0.00191523
0.145508 0.00100981 -0.0025253
0.147461 0.00131263 -0.00328289
0.149414 0.00168356 -0.00421105
0.151367 0.00213237 -0.00533439
0.15332 0.00266951 -0.00667918
0.155273 0.00330617 -0.0082737
0.157227 0.00405442 -0.0101485
0.15918 0.00492732 -0.0123366
0.161133 0.00593895 -0.014874
0.163086 0.00710451 -0.0177994
0.165039 0.00844025 -0.0211544
0.166992 0.00996357 -0.0249838
0.168945 0.0116931 -0.0293358
0.170898 0.0136487 -0.0342621
0.172852 0.0158519 -0.0398189
0.174805 0.0183258 -0.0460673
0.176758 0.0210954 -0.0530734
0.178711 0.0241879 -0.0609097
0.180664 0.0276323 -0.0696546
0.182617 0.0314598 -0.0793933
0.18457 0.0357043 -0.0902182
0.186523 0.0404018 -0.10223
0.188477 0.0455912 -0.115537
0.19043 0.0513139 -0.130259
0.192383 0.0576143 -0.146524
0.194336 0.0645387 -0.164467
0.196289 0.0721355 -0.184234
0.198242 0.0804544 -0.205979
0.200195 0.0895451 -0.229858
0.202148 0.0994561 -0.25603
0.204102 0.110232 -0.284651
0.206055 0.121911 -0.315863
0.208008 0.134521 -0.349788
0.209961 0.148075 -0.386511
0.211914 0.162567 -0.42607
0.213867 0.177966 -0.46844
0.21582 0.194214 -0.513521
0.217773 0.211229 -0.561136
0.219727 0.228906 -0.611045
0.22168 0.247133 -0.662978
0.223633 0.265791 -0.716629
0.225586 0.284367 -0.770476
0.227539 0.302337 -0.82309
0.229492 0.319561 -0.873949
0.231445 0.335965 -0.922782
0.233398 0.351479 -0.969314
0.235352 0.36604 -1.01329
0.237305 0.379601 -1.05451
0.239258 0.392136 -1.09284
0.241211 0.403644 -1.12823
0.243164 0.414144 -1.16068
0.245117 0.423665 -1.19023
0.24707 0.432253 -1.217
0.249023 0.439959 -1.2411
0.250977 0.446837 -1.26268
0.25293 0.452937 -1.28188
0.254883 0.4583 -1.29881
0.256836 0.462952 -1.31351
0.258789 0.466902 -1.32602
0.260742 0.470157 -1.33635
0.262695 0.47273 -1.34452
0.264648 0.47465 -1.35063
0.266602 0.475971 -1.35483
0.268555 0.476775 -1.35739
0.270508 0.477173 -1.35865
0.272461 0.477293 -1.35904
0.274414 0.477272 -1.35897
0.276367 0.47712 -1.35849
0.27832 0.476737 -1.35727
0.280273 0.476023 -1.35499
0.282227 0.474905 -1.35143
0.28418 0.473334 -1.34644
0.286133 0.471308 -1.34
0.288086 0.468856 -1.33222
0.290039 0.466047 -1.32331
0.291992 0.462968 -1.31356
0.293945 0.459704 -1.30323
0.295898 0.456319 -1.29254
0.297852 0.45284 -1.28157
0.299805 0.449253 -1.27028
0.301758 0.445513 -1.25852
0.303711 0.441569 -1.24614
0.305664 0.437388 -1.23305
0.307617 0.432975 -1.21925
0.30957 0.428378 -1.20491
0.311523 0.42366 -1.19022
0.313477 0.418878 -1.17535
0.31543 0.414046 -1.16037
0.317383 0.40914 -1.14519
0.319336 0.404109 -1.12967
0.321289 0.398917 -1.11367
0.323242 0.393569 -1.09724
0.325195 0.388113 -1.08052
0.327148 0.382611 -1.0637
0.329102 0.377095 -1.04687
0.331055 0.371548 -1.03
0.333008 0.365921 -1.01293
0.334961 0.360176 -0.995545
0.336914 0.354319 -0.977868
0.338867 0.348417 -0.960101
0.34082 0.342522 -0.942406
0.342773 0.336616 -0.924735
0.344727 0.330666 -0.906974
0.34668 0.32464 -0.889037
0.348633 0.318544 -0.870947
0.350586 0.312443 -0.852887
0.352539 0.306347 -0.834902
0.354492 0.300236 -0.816926
0.356445 0.29409 -0.7989
0.358398 0.287907 -0.780817
0.360352 0.28172 -0.76277
0.362305 0.275536 -0.744794
0.364258 0.269347 -0.72686
0.366211 0.263154 -0.708965
0.368164 0.256964 -0.691135
0.370117 0.250782 -0.673382
0.37207 0.244609 -0.65571
0.374023 0.238447 -0.638126
0.375977 0.2323 -0.620637
0.37793 0.226171 -0.603253
0.379883 0.220063 -0.585982
0.381836 0.213979 -0.568831
0.383789 0.207922 -0.551811
0.385742 0.201895 -0.534927
0.387695 0.195901 -0.518188
0.389648 0.189944 -0.501603
0.391602 0.184026 -0.485178
0.393555 0.17815 -0.468922
0.395508 0.172321 -0.452841
0.397461 0.16654 -0.436943
0.399414 0.16081 -0.421235
0.401367 0.155136 -0.405725
0.40332 0.14952 -0.390419
0.405273 0.143964 -0.375327
0.407227 0.138474 -0.360453
0.40918 0.133051 -0.345806
0.411133 0.127699 -0.331393
0.413086 0.122421 -0.317219
0.415039 0.117221 -0.303294
0.416992 0.1121 -0.289623
0.418945 0.107064 -0.276213
0.420898 0.102115 -0.263072
0.422852 0.0972563 -0.250206
0.424805 0.0924913 -0.237622
0.426758 0.0878236 -0.225326
0.428711 0.0832561 -0.213326
0.430664 0.0787918 -0.201628
0.432617 0.074434 -0.190237
0.43457 0.0701865 -0.17916
0.436523 0.0660519 -0.168403
0.438477 0.0620332 -0.157973
0.44043 0.0581328 -0.147875
0.442383 0.0543552 -0.138111
0.444336 0.0507008 -0.128693
0.446289 0.0471757 -0.119614
0.448242 0.0437757 -0.110896
0.450195 0.0405134 -0.102516
0.452148 0.0373757 -0.0945154
0.454102 0.034385 -0.0868444
0.456055 0.0315161 -0.0795715
0.458008 0.0288024 -0.0726178
0.459961 0.0262077 -0.0660755
0.461914 0.0237731 -0.0598427
0.463867 0.021455 -0.0540269
0.46582 0.0192992 -0.0485105
0.467773 0.0172565 -0.0434106
0.469727 0.0153758 -0.0385975
0.47168 0.0136024 -0.0341978
0.473633 0.0119888 -0.0300683
0.475586 0.0104754 -0.0263431
0.477539 0.00911927 -0.0228622
0.479492 0.00785656 -0.0197658
0.481445 0.00674753 -0.0168816
0.483398 0.00572583 -0.0143514
0.485352 0.00485372 -0.0119938
0.487305 0.00406392 -0.00994889
0.489258 0.00341931 -0.00802964
0.491211 0.00285627 -0.00636311
0.493164 0.00243246 -0.00477203
0.495117 0.00209201 -0.00336201
0.49707 0.00188525 -0.00197335
0.499023 0.00176443 -0.000693656
0.500977 0.00176443 0.000693656
0.50293 0.00188525 0.00197335
0.504883 0.00209201 0.00336201
0.506836 0.00243246 0.00477203
0.508789 0.00285627 0.00636311
0.510742 0.00341931 0.00802964
0.512695 0.00406392 0.00994889
0.514648 0.00485372 0.0119938
0.516602 0.00572583 0.0143514
0.518555 0.00674753 0.0168816
0.520508 0.00785656 0.0197658
0.522461 0.00911927 0.0228622
0.524414 0.0104754 0.0263431
0.526367 0.0119888 0.0300683
0.52832 0.0136024 0.0341978
0.530273 0.0153758 0.0385975
0.532227 0.0172565 0.0434106
0.53418 0.0192992 0.0485105
0.536133 0.021455 0.0540269
0.538086 0.0237731 0.0598427
0.540039 0.0262077 0.0660755
0.541992 0.0288024 0.0726178
0.543945 0.0315161 0.0795715
0.545898 0.034385 0.0868444
0.547852 0.0373757 0.0945154
0.549805 0.0405134 0.102516
0.551758 0.0437757 0.110896
0.553711 0.0471757 0.119614
0.555664 0.0507008 0.128693
0.557617 0.0543552 0.138111
0.55957 0.0581328 0.147875
0.561523 0.0620332 0.157973
0.563477 0.0660519 0.168403
0.56543 0.0701865 0.17916
0.567383 0.074434 0.190237
0.569336 0.0787918 0.201628
0.571289 0.0832561 0.213326
0.573242 0.0878236 0.225326
0.575195 0.0924913 0.237622
0.577148 0.0972563 0.250206
0.579102 0.102115 0.263072
0.581055 0.107064 0.276213
0.583008 0.1121 0.289623
0.584961 0.117221 0.303294
0.586914 0.122421 0.317219
0.588867 0.127699 0.331393
0.59082 0.133051 0.345806
0.592773 0.138474 0.360453
0.594727 0.143964 0.375327
0.59668 0.14952 0.390419
0.598633 0.155136 0.405725
0.600586 0.16081 0.421235
0.602539 0.16654 0.436943
0.604492 0.172321 0.452841
0.606445 0.17815 0.468922
0.608398 0.184026 0.485178
0.610352 0.189944 0.501603
0.612305 0.195901 0.518188
0.614258 0.201895 0.534927
0.616211 0.207922 0.551811
0.618164 0.213979 0.568831
0.620117 0.220063 0.585982
0.62207 0.226171 0.603253
0.624023 0.2323 0.620637
0.625977 0.238447 0.638126
0.62793 0.244609 0.65571
0.629883 0.250782 0.673382
0.631836 0.256964 0.691135
0.633789 0.263154 0.708965
0.635742 0.269347 0.72686
0.637695 0.275536 0.744794
0.639648 0.28172 0.76277
0.641602 0.287907 0.780817
0.643555 0.29409 0.7989
0.645508 0.300236 0.816926
0.647461 0.306347 0.834902
0.649414 0.312443 0.852887
0.651367 0.318544 0.870947
0.65332 0.32464 0.889037
0.655273 0.330666 0.906974
0.657227 0.336616 0.924735
0.65918 0.342522 0.942406
0.661133 0.348417 0.960101
0.663086 0.354319 0.977868
0.665039 0.360176 0.995545
0.666992 0.365921 1.01293
0.668945 0.371548 1.03
0.670898 0.377095 1.04687
0.672852 0.382611 1.0637
0.674805 0.388113 1.08052
0.676758 0.393569 1.09724
0.678711 0.398917 1.11367
0.680664 0.404109 1.12967
0.682617 0.40914 1.14519
0.68457 0.414046 1.16037
0.686523 0.418878 1.17535
0.688477 0.42366 1.19022
0.69043 0.428378 1.20491
0.692383 0.432975 1.21925
0.694336 0.437388 1.23305
0.696289 0.441569 1.24614
0.698242 0.445513 1.25852
0.700195 0.449253 1.27028
0.702148 0.45284 1.28157
0.704102 0.456319 1.29254
0.706055 0.459704 1.30323
0.708008 0.462968 1.31356
0.709961 0.466047 1.32331
0.711914 0.468856 1.33222
0.713867 0.471308 1.34
0.71582 0.473334 1.34644
0.717773 0.474905 1.35143
0.719727 0.476023 1.35499
0.72168 0.476737 1.35727
0.723633 0.47712 1.35849
0.725586 0.477272 1.35897
0.727539 0.477293 1.35904
0.729492 0.477173 1.35865
0.731445 0.476775 1.35739
0.733398 0.475971 1.35483
0.735352 0.47465 1.35063
0.737305 0.47273 1.34452
0.739258 0.470157 1.33635
0.741211 0.466902 1.32602
0.743164 0.462952 1.31351
0.745117 0.4583 1.29881
0.74707 0.452937 1.28188
0.749023 0.446837 1.26268
0.750977 0.439959 1.2411
0.75293 0.432253 1.217
0.754883 0.423665 1.19023
0.756836 0.414144 1.16068
0.758789 0.403644 1.12823
0.760742 0.392136 1.09284
0.762695 0.379601 1.05451
0.764648 0.36604 1.01329
0.766602 0.351479 0.969314
0.768555 0.335965 0.922782
0.770508 0.319561 0.873949
0.772461 0.302337 0.82309
0.774414 0.284367 0.770476
0.776367 0.265791 0.716629
0.77832 0.247133 0.662978
0.780273 0.228906 0.611045
0.782227 0.211229 0.561136
0.78418 0.194214 0.513521
0.786133 0.177966 0.46844
0.788086 0.162567 0.42607
0.790039 0.148075 0.386511
0.791992 0.134521 0.349788
0.793945 0.121911 0.315863
0.795898 0.110232 0.284651
0.797852 0.0994561 0.25603
0.799805 0.0895451 0.229858
0.801758 0.0804544 0.205979
0.803711 0.0721355 0.184234
0.805664 0.0645387 0.164467
0.807617 0.0576143 0.146524
0.80957 0.0513139 0.130259
0.811523 0.0455912 0.115537
0.813477 0.0404018 0.10223
0.81543 0.0357043 0.0902182
0.817383 0.0314598 0.0793933
0.819336 0.0276323 0.0696546
0.821289 0.0241879 0.0609097
0.823242 0.0210954 0.0530734
0.825195 0.0183258 0.0460673
0.827148 0.0158519 0.0398189
0.829102 0.0136487 0.0342621
0.831055 0.0116931 0.0293358
0.833008 0.00996357 0.0249838
0.834961 0.00844025 0.0211544
0.836914 0.00710451 0.0177994
0.838867 0.00593895 0.014874
0.84082 0.00492732 0.0123366
0.842773 0.00405442 0.0101485
0.844727 0.00330617 0.0082737
0.84668 0.00266951 0.00667918
0.848633 0.00213237 0.00533439
0.850586 0.00168356 0.00421105
0.852539 0.00131263 0.00328289
0.854492 0.00100981 0.0025253
0.856445 0.000765915 0.00191523
0.858398 0.000572356 0.00143114
0.860352 0.000421149 0.00105301
0.862305 0.00030498 0.000762522
0.864258 0.000217269 0.000543209
0.866211 0.000152222 0.000380573
0.868164 0.000104861 0.000262161
0.870117 7.10133e-05 0.000177537
0.87207 4.72737e-05 0.000118186
0.874023 3.09344e-05 7.73368e-05
0.875977 1.98984e-05 4.97463e-05
0.87793 1.25828e-05 3.14571e-05
0.879883 7.8228e-06 1.95571e-05
0.881836 4.78222e-06 1.19556e-05
0.883789 2.87504e-06 7.1876e-06
0.885742 1.70011e-06 4.25028e-06
0.887695 9.89033e-07 2.47258e-06
0.889648 5.66142e-07 1.41535e-06
0.891602 3.18939e-07 7.97347e-07
0.893555 1.76866e-07 4.42165e-07
0.895508 9.65665e-08 2.41416e-07
0.897461 5.19209e-08 1.29802e-07
0.899414 2.74967e-08 6.87417e-08
0.901367 1.4346e-08 3.5865e-08
0.90332 7.37531e-09 1.84383e-08
0.905273 3.73694e-09 9.34235e-09
0.907227 1.86648e-09 4.6662e-09
0.90918 9.19148e-10 2.29787e-09
0.911133 4.46357e-10 1.11589e-09
0.913086 2.13795e-10 5.34488e-10
0.915039 1.01021e-10 2.52551e-10
0.916992 4.7097e-11 1.17741e-10
0.918945 2.16684e-11 5.41707e-11
0.920898 9.8388e-12 2.45971e-11
0.922852 4.41025e-12 1.10265e-11
0.924805 1.95177e-12 4.8811e-12
0.926758 8.53539e-13 2.13413e-12
0.928711 3.68594e-13 9.22238e-13
0.930664 1.57208e-13 3.93175e-13
0.932617 6.66134e-14 1.65717e-13
0.93457 2.79776e-14 6.93345e-14
0.936523 1.19904e-14 2.96079e-14
0.938477 5.32907e-15 1.25619e-14
0.94043 2.22045e-15 5.37958e-15
0.942383 8.88178e-16 2.08061e-15
0.944336 0 2.212e-16
0.946289 0 0
0.948242 0 0
0.950195 0 0
0.952148 0 0
0.954102 0 0
0.956055 0 0
0.958008 0 0
0.959961 0 0
0.961914 0 0
0.963867 0 0
0.96582 0 0
0.967773 0 0
0.969727 0 0
0.97168 0 0
0.973633 0 0
0.975586 0 0
0.977539 0 0
0.979492 0 0
0.981445 0 0
0.983398 0 0
0.985352 0 0
0.987305 0 0
0.989258 0 0
0.991211 0 0
0.993164 0 0
0.995117 0 0
0.99707 0 0
0.999023 0 0
