0.000976562 0 0
0.00292969 0 0
0.00488281 0 0
0.00683594 0 0
0.00878906 0 0
0.0107422 0 0
0.0126953 0 0
0.0146484 0 0
0.0166016 0 0
0.0185547 0 0
0.0205078 0 0
0.0224609 0 0
0.0244141 0 0
0.0263672 0 0
0.0283203 0 0
0.0302734 0 0
0.0322266 0 0
0.0341797 0 0
0.0361328 0 0
0.0380859 0 0
0.0400391 0 0
0.0419922 0 0
0.0439453 0 0
0.0458984 0 0
0.0478516 0 0
0.0498047 0 0
0.0517578 0 0
0.0537109 0 0
0.0556641 0 0
0.0576172 0 0
0.0595703 0 0
0.0615234 0 0
0.0634766 0 0
0.0654297 0 0
0.0673828 0 0
0.0693359 0 0
0.0712891 0 0
0.0732422 0 0
0.0751953 0 0
0.0771484 0 0
0.0791016 0 0
0.0810547 0 0
0.0830078 0 0
0.0849609 0 0
0.0869141 0 0
0.0888672 0 0
0.0908203 0 0
0.0927734 0 0
0.0947266 0 0
0.0966797 0 0
0.0986328 0 0
0.100586 0 0
0.102539 0 0
0.104492 0 0
0.106445 0 0
0.108398 0 0
0.110352 0 0
0.112305 0 0
0.114258 0 0
0.116211 0 0
0.118164 0 0
0.120117 0 0
0.12207 0 0
0.124023 0 0
0.125977 0 -1.00258e-15
0.12793 1.77636e-15 -4.2659e-15
0.129883 4.88498e-15 -1.10643e-14
0.131836 1.24345e-14 -3.04453e-14
0.133789 3.33067e-14 -8.3311e-14
0.135742 8.9706e-14 -2.24155e-13
0.137695 2.37144e-13 -5.93653e-13
0.139648 6.17284e-13 -1.54354e-12
0.141602 1.58051e-12 -3.95056e-12
0.143555 3.98215e-12 -9.9561e-12
0.145508 9.87299e-12 -2.46822e-11
0.147461 2.40621e-11 -6.01555e-11
0.149414 5.76401e-11 -1.441e-10
0.151367 1.35681e-10 -3.39203e-10
0.15332 3.13765e-10 -7.84411e-10
0.155273 7.12625e-10 -1.78156e-09
0.157227 1.58916e-09 -3.9729e-09
0.15918 3.47859e-09 -8.69648e-09
0.161133 7.47207e-09 -1.86802e-08
0.163086 1.57453e-08 -3.93632e-08
0.165039 3.25387e-08 -8.13468e-08
0.166992 6.59262e-08 -1.64815e-07
0.168945 1.30915e-07 -3.27287e-07
0.170898 2.54716e-07 -6.36791e-07
0.172852 4.85434e-07 -1.21358e-06
0.174805 9.0589e-07 -2.26473e-06
0.176758 1.65488e-06 -4.1372e-06
0.178711 2.95857e-06 -7.39643e-06
0.180664 5.17499e-06 -1.29375e-05
0.182617 8.85423e-06 -2.21356e-05
0.18457 1.48157e-05 -3.70395e-05
0.186523 2.42418e-05 -6.0605e-05
0.188477 3.87834e-05 -9.69596e-05
0.19043 6.06686e-05 -0.000151674
0.192383 9.28036e-05 -0.000232016
0.194336 0.000138848 -0.000347134
0.196289 0.000203252 -0.000508162
0.198242 0.000291251 -0.000728193
0.200195 0.000408808 -0.00102215
0.202148 0.000562532 -0.00140657
0.204102 0.000759582 -0.0018994
0.206055 0.00100761 -0.0025198
0.208008 0.00131474 -0.00328815
0.209961 0.00168958 -0.00422611
0.211914 0.00214134 -0.00535682
0.213867 0.00267985 -0.00670507
0.21582 0.00331564 -0.00829743
0.217773 0.00405991 -0.0101622
0.219727 0.00492443 -0.0123294
0.22168 0.00592154 -0.0148303
0.223633 0.00706413 -0.017698
0.225586 0.00836562 -0.0209669
0.227539 0.00984012 -0.0246733
0.229492 0.0115024 -0.0288557
0.231445 0.0133679 -0.0335544
0.233398 0.0154529 -0.0388119
0.235352 0.0177739 -0.0446724
0.237305 0.0203482 -0.0511819
0.239258 0.0231937 -0.0583886
0.241211 0.0263288 -0.0663429
0.243164 0.0297726 -0.0750972
0.245117 0.0335445 -0.084706
0.24707 0.0376643 -0.0952255
0.249023 0.0421521 -0.106713
0.250977 0.0470281 -0.119228
0.25293 0.0523122 -0.132831
0.254883 0.0580244 -0.147583
0.256836 0.064184 -0.163544
0.258789 0.0708091 -0.180774
0.260742 0.0779166 -0.199332
0.262695 0.0855219 -0.219271
0.264648 0.0936377 -0.240643
0.266602 0.102274 -0.263492
0.268555 0.111437 -0.287855
0.270508 0.121128 -0.313757
0.272461 0.131345 -0.341212
0.274414 0.142079 -0.370219
0.276367 0.153312 -0.400758
0.27832 0.165023 -0.432791
0.280273 0.177181 -0.466256
0.282227 0.189747 -0.501071
0.28418 0.202676 -0.537127
0.286133 0.215914 -0.574298
0.288086 0.229407 -0.612442
0.290039 0.243098 -0.651412
0.291992 0.256937 -0.691076
0.293945 0.270866 -0.731267
0.295898 0.28471 -0.77147
0.297852 0.298332 -0.81132
0.299805 0.311688 -0.850645
0.301758 0.324734 -0.8893
0.303711 0.337418 -0.927115
0.305664 0.349688 -0.963908
0.307617 0.361492 -0.999507
0.30957 0.37279 -1.03376
0.311523 0.383545 -1.06654
0.313477 0.393733 -1.09773
0.31543 0.403333 -1.12726
0.317383 0.412334 -1.15506
0.319336 0.420727 -1.18109
0.321289 0.428511 -1.20531
0.323242 0.435687 -1.22771
0.325195 0.442259 -1.2483
0.327148 0.448235 -1.26706
0.329102 0.453628 -1.28404
0.331055 0.458454 -1.29928
0.333008 0.462734 -1.3128
0.334961 0.466478 -1.32467
0.336914 0.469702 -1.33488
0.338867 0.472388 -1.34344
0.34082 0.474541 -1.35025
0.342773 0.476129 -1.35535
0.344727 0.4772 -1.3587
0.34668 0.477776 -1.36059
0.348633 0.478001 -1.36126
0.350586 0.478004 -1.36129
0.352539 0.477855 -1.36082
0.354492 0.477438 -1.35949
0.356445 0.476621 -1.35688
0.358398 0.475323 -1.35275
0.360352 0.473524 -1.34703
0.362305 0.471282 -1.33991
0.364258 0.468698 -1.3317
0.366211 0.465887 -1.32279
0.368164 0.462912 -1.31337
0.370117 0.459757 -1.30339
0.37207 0.456346 -1.29262
0.374023 0.452611 -1.28084
0.375977 0.448563 -1.2681
0.37793 0.444291 -1.25467
0.379883 0.439885 -1.24086
0.381836 0.435358 -1.22669
0.383789 0.430639 -1.21195
0.385742 0.425667 -1.19645
0.387695 0.420479 -1.18032
0.389648 0.41517 -1.16385
0.391602 0.40978 -1.14717
0.393555 0.404251 -1.13009
0.395508 0.398524 -1.11246
0.397461 0.392644 -1.0944
0.399414 0.386699 -1.07618
0.401367 0.380686 -1.05781
0.40332 0.374535 -1.03908
0.405273 0.368239 -1.01995
0.407227 0.361881 -1.00069
0.40918 0.355488 -0.981385
0.411133 0.348998 -0.961847
0.413086 0.342393 -0.942022
0.415039 0.335751 -0.922142
0.416992 0.329089 -0.902272
0.418945 0.322355 -0.882241
0.420898 0.315545 -0.862036
0.422852 0.30873 -0.841857
0.424805 0.301903 -0.82168
0.426758 0.295036 -0.801397
0.428711 0.28816 -0.781086
0.430664 0.281299 -0.760774
0.432617 0.274441 -0.740431
0.43457 0.267607 -0.720065
0.436523 0.260809 -0.699677
0.438477 0.254056 -0.679264
0.44043 0.247363 -0.658823
0.442383 0.240741 -0.638349
0.444336 0.234204 -0.617839
0.446289 0.227764 -0.597286
0.448242 0.221433 -0.576687
0.450195 0.215223 -0.556032
0.452148 0.209147 -0.535316
0.454102 0.203218 -0.514528
0.456055 0.197448 -0.493663
0.458008 0.191849 -0.472715
0.459961 0.186431 -0.451678
0.461914 0.181206 -0.430548
0.463867 0.176183 -0.40932
0.46582 0.171371 -0.38799
0.467773 0.166779 -0.366556
0.469727 0.162417 -0.345016
0.47168 0.158291 -0.323371
0.473633 0.154411 -0.301621
0.475586 0.150781 -0.279768
0.477539 0.147409 -0.257815
0.479492 0.1443 -0.235765
0.481445 0.141458 -0.213622
0.483398 0.138888 -0.191393
0.485352 0.136594 -0.169084
0.487305 0.13458 -0.146704
0.489258 0.132848 -0.12426
0.491211 0.131401 -0.101762
0.493164 0.130241 -0.0792138
0.495117 0.12937 -0.0566488
0.49707 0.128796 -0.0340079
0.499023 0.128492 -0.0114407
0.500977 0.128492 0.0114407
0.50293 0.128796 0.0340079
0.504883 0.12937 0.0566488
0.506836 0.130241 0.0792138
0.508789 0.131401 0.101762
0.510742 0.132848 0.12426
0.512695 0.13458 0.146704
0.514648 0.136594 0.169084
0.516602 0.138888 0.191393
0.518555 0.141458 0.213622
0.520508 0.1443 0.235765
0.522461 0.147409 0.257815
0.524414 0.150781 0.279768
0.526367 0.154411 0.301621
0.52832 0.158291 0.323371
0.530273 0.162417 0.345016
0.532227 0.166779 0.366556
0.53418 0.171371 0.38799
0.536133 0.176183 0.40932
0.538086 0.181206 0.430548
0.540039 0.186431 0.451678
0.541992 0.191849 0.472715
0.543945 0.197448 0.493663
0.545898 0.203218 0.514528
0.547852 0.209147 0.535316
0.549805 0.215223 0.556032
0.551758 0.221433 0.576687
0.553711 0.227764 0.597286
0.555664 0.234204 0.617839
0.557617 0.240741 0.638349
0.55957 0.247363 0.658823
0.561523 0.254056 0.679264
0.563477 0.260809 0.699677
0.56543 0.267607 0.720065
0.567383 0.274441 0.740431
0.569336 0.281299 0.760774
0.571289 0.28816 0.781086
0.573242 0.295036 0.801397
0.575195 0.301903 0.82168
0.577148 0.30873 0.841857
0.579102 0.315545 0.862036
0.581055 0.322355 0.882241
0.583008 0.329089 0.902272
0.584961 0.335751 0.922142
0.586914 0.342393 0.942022
0.588867 0.348998 0.961847
0.59082 0.355488 0.981385
0.592773 0.361881 1.00069
0.594727 0.368239 1.01995
0.59668 0.374535 1.03908
0.598633 0.380686 1.05781
0.600586 0.386699 1.07618
0.602539 0.392644 1.0944
0.604492 0.398524 1.11246
0.606445 0.404251 1.13009
0.608398 0.40978 1.14717
0.610352 0.41517 1.16385
0.612305 0.420479 1.18032
0.614258 0.425667 1.19645
0.616211 0.430639 1.21195
0.618164 0.435358 1.22669
0.620117 0.439885 1.24086
0.62207 0.444291 1.25467
0.624023 0.448563 1.2681
0.625977 0.452611 1.28084
0.62793 0.456346 1.29262
0.629883 0.459757 1.30339
0.631836 0.462912 1.31337
0.633789 0.465887 1.32279
0.635742 0.468698 1.3317
0.637695 0.471282 1.33991
0.639648 0.473524 1.34703
0.641602 0.475323 1.35275
0.643555 0.476621 1.35688
0.645508 0.477438 1.35949
0.647461 0.477855 1.36082
0.649414 0.478004 1.36129
0.651367 0.478001 1.36126
0.65332 0.477776 1.36059
0.655273 0.4772 1.3587
0.657227 0.476129 1.35535
0.65918 0.474541 1.35025
0.661133 0.472388 1.34344
0.663086 0.469702 1.33488
0.665039 0.466478 1.32467
0.666992 0.462734 1.3128
0.668945 0.458454 1.29928
0.670898 0.453628 1.28404
0.672852 0.448235 1.26706
0.674805 0.442259 1.2483
0.676758 0.435687 1.22771
0.678711 0.428511 1.20531
0.680664 0.420727 1.18109
0.682617 0.412334 1.15506
0.68457 0.403333 1.12726
0.686523 0.393733 1.09773
0.688477 0.383545 1.06654
0.69043 0.37279 1.03376
0.692383 0.361492 0.999507
0.694336 0.349688 0.963908
0.696289 0.337418 0.927115
0.698242 0.324734 0.8893
0.700195 0.311688 0.850645
0.702148 0.298332 0.81132
0.704102 0.28471 0.77147
0.706055 0.270866 0.731267
0.708008 0.256937 0.691076
0.709961 0.243098 0.651412
0.711914 0.229407 0.612442
0.713867 0.215914 0.574298
0.71582 0.202676 0.537127
0.717773 0.189747 0.501071
0.719727 0.177181 0.466256
0.72168 0.165023 0.432791
0.723633 0.153312 0.400758
0.725586 0.142079 0.370219
0.727539 0.131345 0.341212
0.729492 0.121128 0.313757
0.731445 0.111437 0.287855
0.733398 0.102274 0.263492
0.735352 0.0936377 0.240643
0.737305 0.0855219 0.219271
0.739258 0.0779166 0.199332
0.741211 0.0708091 0.180774
0.743164 0.064184 0.163544
0.745117 0.0580244 0.147583
0.74707 0.0523122 0.132831
0.749023 0.0470281 0.119228
0.750977 0.0421521 0.106713
0.75293 0.0376643 0.0952255
0.754883 0.0335445 0.084706
0.756836 0.0297726 0.0750972
0.758789 0.0263288 0.0663429
0.760742 0.0231937 0.0583886
0.762695 0.0203482 0.0511819
0.764648 0.0177739 0.0446724
0.766602 0.0154529 0.0388119
0.768555 0.0133679 0.0335544
0.770508 0.0115024 0.0288557
0.772461 0.00984012 0.0246733
0.774414 0.00836562 0.0209669
0.776367 0.00706413 0.017698
0.77832 0.00592154 0.0148303
0.780273 0.00492443 0.0123294
0.782227 0.00405991 0.0101622
0.78418 0.00331564 0.00829743
0.786133 0.00267985 0.00670507
0.788086 0.00214134 0.00535682
0.790039 0.00168958 0.00422611
0.791992 0.00131474 0.00328815
0.793945 0.00100761 0.0025198
0.795898 0.000759582 0.0018994
0.797852 0.000562532 0.00140657
0.799805 0.000408808 0.00102215
0.801758 0.000291251 0.000728193
0.803711 0.000203252 0.000508162
0.805664 0.000138848 0.000347134
0.807617 9.28036e-05 0.000232016
0.80957 6.06686e-05 0.000151674
0.811523 3.87834e-05 9.69596e-05
0.813477 2.42418e-05 6.0605e-05
0.81543 1.48157e-05 3.70395e-05
0.817383 8.85423e-06 2.21356e-05
0.819336 5.17499e-06 1.29375e-05
0.821289 2.95857e-06 7.39643e-06
0.823242 1.65488e-06 4.1372e-06
0.825195 9.0589e-07 2.26473e-06
0.827148 4.85434e-07 1.21358e-06
0.829102 2.54716e-07 6.36791e-07
0.831055 1.30915e-07 3.27287e-07
0.833008 6.59262e-08 1.64815e-07
0.834961 3.25387e-08 8.13468e-08
0.836914 1.57453e-08 3.93632e-08
0.838867 7.47207e-09 1.86802e-08
0.84082 3.47859e-09 8.69648e-09
0.842773 1.58916e-09 3.9729e-09
0.844727 7.12625e-10 1.78156e-09
0.84668 3.13765e-10 7.84411e-10
0.848633 1.35681e-10 3.39203e-10
0.850586 5.76401e-11 1.441e-10
0.852539 2.40621e-11 6.01555e-11
0.854492 9.87299e-12 2.46822e-11
0.856445 3.98215e-12 9.9561e-12
0.858398 1.58051e-12 3.95056e-12
0.860352 6.17284e-13 1.54354e-12
0.862305 2.37144e-13 5.93653e-13
0.864258 8.9706e-14 2.24155e-13
0.866211 3.33067e-14 8.3311e-14
0.868164 1.24345e-14 3.04453e-14
0.870117 4.88498e-15 1.10643e-14
0.87207 1.77636e-15 4.2659e-15
0.874023 0 1.00258e-15
0.875977 0 0
0.87793 0 0
0.879883 0 0
0.881836 0 0
0.883789 0 0
0.885742 0 0
0.887695 0 0
0.889648 0 0
0.891602 0 0
0.893555 0 0
0.895508 0 0
0.897461 0 0
0.899414 0 0
0.901367 0 0
0.90332 0 0
0.905273 0 0
0.907227 0 0
0.90918 0 0
0.911133 0 0
0.913086 0 0
0.915039 0 0
0.916992 0 0
0.918945 0 0
0.920898 0 0
0.922852 0 0
0.924805 0 0
0.926758 0 0
0.928711 0 0
0.930664 0 0
0.932617 0 0
0.93457 0 0
0.936523 0 0
0.938477 0 0
0.94043 0 0
0.942383 0 0
0.944336 0 0
0.946289 0 0
0.948242 0 0
0.950195 0 0
0.952148 0 0
0.954102 0 0
0.956055 0 0
0.958008 0 0
0.959961 0 0
0.961914 0 0
0.963867 0 0
0.96582 0 0
0.967773 0 0
0.969727 0 0
0.97168 0 0
0.973633 0 0
0.975586 0 0
0.977539 0 0
0.979492 0 0
0.981445 0 0
0.983398 0 0
0.985352 0 0
0.987305 0 0
0.989258 0 0
0.991211 0 0
0.993164 0 0
0.995117 0 0
0.99707 0 0
0.999023 0 0
