0.000976562 0 0
0.00292969 0 0
0.00488281 0 0
0.00683594 0 0
0.00878906 0 0
0.0107422 0 0
0.0126953 0 0
0.0146484 0 0
0.0166016 0 0
0.0185547 0 0
0.0205078 0 0
0.0224609 0 0
0.0244141 0 0
0.0263672 0 0
0.0283203 0 0
0.0302734 0 0
0.0322266 0 0
0.0341797 0 0
0.0361328 0 0
0.0380859 0 0
0.0400391 0 0
0.0419922 0 0
0.0439453 0 0
0.0458984 0 0
0.0478516 0 0
0.0498047 0 0
0.0517578 0 0
0.0537109 0 0
0.0556641 0 0
0.0576172 0 0
0.0595703 0 0
0.0615234 0 0
0.0634766 0 0
0.0654297 0 0
0.0673828 0 0
0.0693359 0 0
0.0712891 0 0
0.0732422 0 0
0.0751953 0 0
0.0771484 0 0
0.0791016 0 0
0.0810547 0 0
0.0830078 0 0
0.0849609 0 0
0.0869141 0 0
0.0888672 0 0
0.0908203 0 -9.72469e-16
0.0927734 1.77636e-15 -3.38713e-15
0.0947266 3.55271e-15 -8.85616e-15
0.0966797 8.88178e-15 -2.15066e-14
0.0986328 2.08722e-14 -5.37367e-14
0.100586 5.41789e-14 -1.35178e-13
0.102539 1.34115e-13 -3.35269e-13
0.104492 3.31735e-13 -8.29481e-13
0.106445 8.0691e-13 -2.01698e-12
0.108398 1.93667e-12 -4.84107e-12
0.110352 4.58211e-12 -1.14552e-11
0.112305 1.06848e-11 -2.67121e-11
0.114258 2.45586e-11 -6.13967e-11
0.116211 5.56124e-11 -1.39031e-10
0.118164 1.24053e-10 -3.10133e-10
0.120117 2.72539e-10 -6.81348e-10
0.12207 5.89576e-10 -1.47394e-09
0.124023 1.25558e-09 -3.13896e-09
0.125977 2.63176e-09 -6.57941e-09
0.12793 5.42805e-09 -1.35701e-08
0.129883 1.10138e-08 -2.75344e-08
0.131836 2.19795e-08 -5.49488e-08
0.133789 4.31306e-08 -1.07826e-07
0.135742 8.32015e-08 -2.08004e-07
0.137695 1.57742e-07 -3.94355e-07
0.139648 2.93852e-07 -7.34629e-07
0.141602 5.3773e-07 -1.34433e-06
0.143555 9.66389e-07 -2.41597e-06
0.145508 1.70525e-06 -4.26312e-06
0.147461 2.95374e-06 -7.38437e-06
0.149414 5.0213e-06 -1.25533e-05
0.151367 8.37591e-06 -2.09398e-05
0.15332 1.37072e-05 -3.42681e-05
0.155273 2.20042e-05 -5.50108e-05
0.157227 3.46466e-05 -8.66175e-05
0.15918 5.35051e-05 -0.000133765
0.161133 8.10428e-05 -0.000202612
0.163086 0.000120408 -0.000301032
0.165039 0.000175507 -0.000438792
0.166992 0.000251043 -0.000627656
0.168945 0.000352516 -0.000881385
0.170898 0.000486186 -0.00121564
0.172852 0.000659002 -0.00164784
0.174805 0.000878528 -0.00219691
0.176758 0.00115287 -0.00288319
0.178711 0.00149066 -0.00372833
0.180664 0.00190104 -0.00475534
0.182617 0.00239378 -0.00598879
0.18457 0.00297932 -0.00745502
0.186523 0.00366887 -0.00918236
0.188477 0.00447447 -0.0112013
0.19043 0.00540897 -0.0135445
0.192383 0.00648601 -0.0162468
0.194336 0.00772003 -0.019345
0.196289 0.00912619 -0.0228783
0.198242 0.0107205 -0.026888
0.200195 0.0125201 -0.0314183
0.202148 0.0145428 -0.0365163
0.204102 0.016808 -0.0422325
0.206055 0.0193358 -0.0486207
0.208008 0.0221476 -0.055738
0.209961 0.0252661 -0.0636451
0.211914 0.0287147 -0.0724064
0.213867 0.0325184 -0.0820904
0.21582 0.0367033 -0.0927697
0.217773 0.0412967 -0.104522
0.219727 0.0463269 -0.117427
0.22168 0.0518231 -0.131571
0.223633 0.0578151 -0.147042
0.225586 0.064333 -0.163932
0.227539 0.0714071 -0.182334
0.229492 0.0790668 -0.202343
0.231445 0.0873402 -0.224053
0.233398 0.0962528 -0.247552
0.235352 0.105827 -0.272926
0.237305 0.116079 -0.300246
0.239258 0.127019 -0.329571
0.241211 0.138649 -0.360938
0.243164 0.150961 -0.394357
0.245117 0.163933 -0.429808
0.24707 0.17753 -0.467228
0.249023 0.191703 -0.506517
0.250977 0.206387 -0.547531
0.25293 0.221508 -0.590089
0.254883 0.236986 -0.633992
0.256836 0.252745 -0.679043
0.258789 0.268702 -0.725019
0.260742 0.284561 -0.771034
0.262695 0.30006 -0.816396
0.264648 0.315125 -0.860809
0.266602 0.329696 -0.90407
0.268555 0.343708 -0.945954
0.270508 0.357096 -0.986229
0.272461 0.369803 -1.02469
0.274414 0.381788 -1.06118
0.276367 0.393023 -1.09556
0.27832 0.403494 -1.12776
0.280273 0.413194 -1.15773
0.282227 0.422128 -1.18544
0.28418 0.430306 -1.21091
0.286133 0.437746 -1.23416
0.288086 0.444474 -1.25525
0.290039 0.450519 -1.27426
0.291992 0.455913 -1.29126
0.293945 0.460684 -1.30633
0.295898 0.464847 -1.3195
0.297852 0.468408 -1.33079
0.299805 0.471358 -1.34015
0.301758 0.473696 -1.34758
0.303711 0.475429 -1.3531
0.305664 0.4766 -1.35682
0.307617 0.477277 -1.35899
0.30957 0.477577 -1.35993
0.311523 0.47763 -1.36011
0.313477 0.477562 -1.35989
0.31543 0.477306 -1.35907
0.317383 0.476746 -1.35729
0.319336 0.475785 -1.35423
0.321289 0.474363 -1.3497
0.323242 0.472461 -1.34366
0.325195 0.470114 -1.3362
0.327148 0.467399 -1.32759
0.329102 0.464417 -1.31814
0.331055 0.461255 -1.30813
0.333008 0.457964 -1.29773
0.334961 0.454542 -1.28693
0.336914 0.45094 -1.27558
0.338867 0.447095 -1.26349
0.34082 0.442973 -1.25054
0.342773 0.438592 -1.23681
0.344727 0.434023 -1.22252
0.34668 0.429343 -1.20791
0.348633 0.424589 -1.1931
0.350586 0.419736 -1.17801
0.352539 0.414723 -1.16246
0.354492 0.409507 -1.14633
0.356445 0.404113 -1.12967
0.358398 0.398612 -1.11273
0.360352 0.393069 -1.0957
0.362305 0.38748 -1.07858
0.364258 0.381787 -1.06118
0.366211 0.375943 -1.04336
0.368164 0.36997 -1.02521
0.370117 0.363942 -1.00693
0.37207 0.357904 -0.988677
0.374023 0.351825 -0.97035
0.375977 0.345645 -0.951776
0.37793 0.339356 -0.932925
0.379883 0.333031 -0.914018
0.381836 0.32671 -0.895189
0.383789 0.320362 -0.876333
0.385742 0.313945 -0.857329
0.387695 0.307467 -0.838201
0.389648 0.30099 -0.81913
0.391602 0.294507 -0.800116
0.393555 0.287996 -0.781075
0.395508 0.281455 -0.762
0.397461 0.274911 -0.742978
0.399414 0.268368 -0.724025
0.401367 0.261822 -0.705121
0.40332 0.255278 -0.686285
0.405273 0.248742 -0.667534
0.407227 0.242218 -0.648877
0.40918 0.235708 -0.630321
0.411133 0.229216 -0.61188
0.413086 0.222747 -0.59356
0.415039 0.216304 -0.575377
0.416992 0.209891 -0.557337
0.418945 0.203513 -0.539451
0.420898 0.197172 -0.52173
0.422852 0.190872 -0.504183
0.424805 0.184619 -0.486818
0.426758 0.178415 -0.469648
0.428711 0.172263 -0.45268
0.430664 0.166169 -0.435922
0.432617 0.160135 -0.419382
0.43457 0.154165 -0.403072
0.436523 0.148263 -0.386999
0.438477 0.142433 -0.371172
0.44043 0.136679 -0.3556
0.442383 0.131005 -0.340291
0.444336 0.125413 -0.325254
0.446289 0.119909 -0.310495
0.448242 0.114497 -0.296022
0.450195 0.109181 -0.281837
0.452148 0.103967 -0.267946
0.454102 0.0988624 -0.254348
0.456055 0.0938733 -0.241044
0.458008 0.0890071 -0.228031
0.459961 0.0842716 -0.215308
0.461914 0.0796752 -0.202867
0.463867 0.0752271 -0.190702
0.46582 0.0709368 -0.178802
0.467773 0.066814 -0.167158
0.469727 0.0628685 -0.155759
0.47168 0.0591093 -0.144594
0.473633 0.0555474 -0.13365
0.475586 0.0521893 -0.122919
0.477539 0.04905 -0.112374
0.479492 0.0461293 -0.102023
0.481445 0.0434511 -0.091813
0.483398 0.0410035 -0.0817793
0.485352 0.0388204 -0.0718416
0.487305 0.036878 -0.0620614
0.489258 0.0352182 -0.052335
0.491211 0.0338071 -0.0427452
0.493164 0.0326918 -0.0331713
0.495117 0.0318327 -0.0237107
0.49707 0.0312793 -0.0142097
0.499023 0.030977 -0.00483563
0.500977 0.030977 0.00483563
0.50293 0.0312793 0.0142097
0.504883 0.0318327 0.0237107
0.506836 0.0326918 0.0331713
0.508789 0.0338071 0.0427452
0.510742 0.0352182 0.052335
0.512695 0.036878 0.0620614
0.514648 0.0388204 0.0718416
0.516602 0.0410035 0.0817793
0.518555 0.0434511 0.091813
0.520508 0.0461293 0.102023
0.522461 0.04905 0.112374
0.524414 0.0521893 0.122919
0.526367 0.0555474 0.13365
0.52832 0.0591093 0.144594
0.530273 0.0628685 0.155759
0.532227 0.066814 0.167158
0.53418 0.0709368 0.178802
0.536133 0.0752271 0.190702
0.538086 0.0796752 0.202867
0.540039 0.0842716 0.215308
0.541992 0.0890071 0.228031
0.543945 0.0938733 0.241044
0.545898 0.0988624 0.254348
0.547852 0.103967 0.267946
0.549805 0.109181 0.281837
0.551758 0.114497 0.296022
0.553711 0.119909 0.310495
0.555664 0.125413 0.325254
0.557617 0.131005 0.340291
0.55957 0.136679 0.3556
0.561523 0.142433 0.371172
0.563477 0.148263 0.386999
0.56543 0.154165 0.403072
0.567383 0.160135 0.419382
0.569336 0.166169 0.435922
0.571289 0.172263 0.45268
0.573242 0.178415 0.469648
0.575195 0.184619 0.486818
0.577148 0.190872 0.504183
0.579102 0.197172 0.52173
0.581055 0.203513 0.539451
0.583008 0.209891 0.557337
0.584961 0.216304 0.575377
0.586914 0.222747 0.59356
0.588867 0.229216 0.61188
0.59082 0.235708 0.630321
0.592773 0.242218 0.648877
0.594727 0.248742 0.667534
0.59668 0.255278 0.686285
0.598633 0.261822 0.705121
0.600586 0.268368 0.724025
0.602539 0.274911 0.742978
0.604492 0.281455 0.762
0.606445 0.287996 0.781075
0.608398 0.294507 0.800116
0.610352 0.30099 0.81913
0.612305 0.307467 0.838201
0.614258 0.313945 0.857329
0.616211 0.320362 0.876333
0.618164 0.32671 0.895189
0.620117 0.333031 0.914018
0.62207 0.339356 0.932925
0.624023 0.345645 0.951776
0.625977 0.351825 0.97035
0.62793 0.357904 0.988677
0.629883 0.363942 1.00693
0.631836 0.36997 1.02521
0.633789 0.375943 1.04336
0.635742 0.381787 1.06118
0.637695 0.38748 1.07858
0.639648 0.393069 1.0957
0.641602 0.398612 1.11273
0.643555 0.404113 1.12967
0.645508 0.409507 1.14633
0.647461 0.414723 1.16246
0.649414 0.419736 1.17801
0.651367 0.424589 1.1931
0.65332 0.429343 1.20791
0.655273 0.434023 1.22252
0.657227 0.438592 1.23681
0.65918 0.442973 1.25054
0.661133 0.447095 1.26349
0.663086 0.45094 1.27558
0.665039 0.454542 1.28693
0.666992 0.457964 1.29773
0.668945 0.461255 1.30813
0.670898 0.464417 1.31814
0.672852 0.467399 1.32759
0.674805 0.470114 1.3362
0.676758 0.472461 1.34366
0.678711 0.474363 1.3497
0.680664 0.475785 1.35423
0.682617 0.476746 1.35729
0.68457 0.477306 1.35907
0.686523 0.477562 1.35989
0.688477 0.47763 1.36011
0.69043 0.477577 1.35993
0.692383 0.477277 1.35899
0.694336 0.4766 1.35682
0.696289 0.475429 1.3531
0.698242 0.473696 1.34758
0.700195 0.471358 1.34015
0.702148 0.468408 1.33079
0.704102 0.464847 1.3195
0.706055 0.460684 1.30633
0.708008 0.455913 1.29126
0.709961 0.450519 1.27426
0.711914 0.444474 1.25525
0.713867 0.437746 1.23416
0.71582 0.430306 1.21091
0.717773 0.422128 1.18544
0.719727 0.413194 1.15773
0.72168 0.403494 1.12776
0.723633 0.393023 1.09556
0.725586 0.381788 1.06118
0.727539 0.369803 1.02469
0.729492 0.357096 0.986229
0.731445 0.343708 0.945954
0.733398 0.329696 0.90407
0.735352 0.315125 0.860809
0.737305 0.30006 0.816396
0.739258 0.284561 0.771034
0.741211 0.268702 0.725019
0.743164 0.252745 0.679043
0.745117 0.236986 0.633992
0.74707 0.221508 0.590089
0.749023 0.206387 0.547531
0.750977 0.191703 0.506517
0.75293 0.17753 0.467228
0.754883 0.163933 0.429808
0.756836 0.150961 0.394357
0.758789 0.138649 0.360938
0.760742 0.127019 0.329571
0.762695 0.116079 0.300246
0.764648 0.105827 0.272926
0.766602 0.0962528 0.247552
0.768555 0.0873402 0.224053
0.770508 0.0790668 0.202343
0.772461 0.0714071 0.182334
0.774414 0.064333 0.163932
0.776367 0.0578151 0.147042
0.77832 0.0518231 0.131571
0.780273 0.0463269 0.117427
0.782227 0.0412967 0.104522
0.78418 0.0367033 0.0927697
0.786133 0.0325184 0.0820904
0.788086 0.0287147 0.0724064
0.790039 0.0252661 0.0636451
0.791992 0.0221476 0.055738
0.793945 0.0193358 0.0486207
0.795898 0.016808 0.0422325
0.797852 0.0145428 0.0365163
0.799805 0.0125201 0.0314183
0.801758 0.0107205 0.026888
0.803711 0.00912619 0.0228783
0.805664 0.00772003 0.019345
0.807617 0.00648601 0.0162468
0.80957 0.00540897 0.0135445
0.811523 0.00447447 0.0112013
0.813477 0.00366887 0.00918236
0.81543 0.00297932 0.00745502
0.817383 0.00239378 0.00598879
0.819336 0.00190104 0.00475534
0.821289 0.00149066 0.00372833
0.823242 0.00115287 0.00288319
0.825195 0.000878528 0.00219691
0.827148 0.000659002 0.00164784
0.829102 0.000486186 0.00121564
0.831055 0.000352516 0.000881385
0.833008 0.000251043 0.000627656
0.834961 0.000175507 0.000438792
0.836914 0.000120408 0.000301032
0.838867 8.10428e-05 0.000202612
0.84082 5.35051e-05 0.000133765
0.842773 3.46466e-05 8.66175e-05
0.844727 2.20042e-05 5.50108e-05
0.84668 1.37072e-05 3.42681e-05
0.848633 8.37591e-06 2.09398e-05
0.850586 5.0213e-06 1.25533e-05
0.852539 2.95374e-06 7.38437e-06
0.854492 1.70525e-06 4.26312e-06
0.856445 9.66389e-07 2.41597e-06
0.858398 5.3773e-07 1.34433e-06
0.860352 2.93852e-07 7.34629e-07
0.862305 1.57742e-07 3.94355e-07
0.864258 8.32015e-08 2.08004e-07
0.866211 4.31306e-08 1.07826e-07
0.868164 2.19795e-08 5.49488e-08
0.870117 1.10138e-08 2.75344e-08
0.87207 5.42805e-09 1.35701e-08
0.874023 2.63176e-09 6.57941e-09
0.875977 1.25558e-09 3.13896e-09
0.87793 5.89576e-10 1.47394e-09
0.879883 2.72539e-10 6.81348e-10
0.881836 1.24053e-10 3.10133e-10
0.883789 5.56124e-11 1.39031e-10
0.885742 2.45586e-11 6.13967e-11
0.887695 1.06848e-11 2.67121e-11
0.889648 4.58211e-12 1.14552e-11
0.891602 1.93667e-12 4.84107e-12
0.893555 8.0691e-13 2.01698e-12
0.895508 3.31735e-13 8.29481e-13
0.897461 1.34115e-13 3.35269e-13
0.899414 5.41789e-14 1.35178e-13
0.901367 2.08722e-14 5.37367e-14
0.90332 8.88178e-15 2.15066e-14
0.905273 3.55271e-15 8.85616e-15
0.907227 1.77636e-15 3.38713e-15
0.90918 0 9.72469e-16
0.911133 0 0
0.913086 0 0
0.915039 0 0
0.916992 0 0
0.918945 0 0
0.920898 0 0
0.922852 0 0
0.924805 0 0
0.926758 0 0
0.928711 0 0
0.930664 0 0
0.932617 0 0
0.93457 0 0
0.936523 0 0
0.938477 0 0
0.94043 0 0
0.942383 0 0
0.944336 0 0
0.946289 0 0
0.948242 0 0
0.950195 0 0
0.952148 0 0
0.954102 0 0
0.956055 0 0
0.958008 0 0
0.959961 0 0
0.961914 0 0
0.963867 0 0
0.96582 0 0
0.967773 0 0
0.969727 0 0
0.97168 0 0
0.973633 0 0
0.975586 0 0
0.977539 0 0
0.979492 0 0
0.981445 0 0
0.983398 0 0
0.985352 0 0
0.987305 0 0
0.989258 0 0
0.991211 0 0
0.993164 0 0
0.995117 0 0
0.99707 0 0
0.999023 0 0
