0.000976562 -4.64304e-09 4.98122e-10
0.00292969 -4.41688e-09 5.84075e-10
0.00488281 -4.26165e-09 7.41746e-10
0.00683594 -4.04699e-09 1.46212e-09
0.00878906 -3.87745e-09 1.71366e-09
0.0107422 -3.71991e-09 2.52263e-09
0.0126953 -3.53345e-09 2.27915e-09
0.0146484 -3.37017e-09 2.69718e-09
0.0166016 -3.18872e-09 3.10817e-09
0.0185547 -3.08243e-09 2.74525e-09
0.0205078 -3.02828e-09 3.54096e-09
0.0224609 -2.91946e-09 3.46479e-09
0.0244141 -2.84686e-09 3.18547e-09
0.0263672 -2.80329e-09 3.97968e-09
0.0283203 -2.80043e-09 4.09688e-09
0.0302734 -2.87379e-09 4.01718e-09
0.0322266 -2.85407e-09 3.27743e-09
0.0341797 -2.79951e-09 3.21302e-09
0.0361328 -2.79582e-09 3.3823e-09
0.0380859 -2.75776e-09 3.65498e-09
0.0400391 -2.66551e-09 3.09366e-09
0.0419922 -2.59116e-09 3.18399e-09
0.0439453 -2.54728e-09 3.40619e-09
0.0458984 -2.50055e-09 3.88397e-09
0.0478516 -2.47199e-09 2.94492e-09
0.0498047 -2.41186e-09 2.70598e-09
0.0517578 -2.3043e-09 3.90639e-09
0.0537109 -2.13357e-09 3.55118e-09
0.0556641 -1.90144e-09 3.54064e-09
0.0576172 -1.67819e-09 3.14503e-09
0.0595703 -1.33545e-09 2.51706e-09
0.0615234 -8.44433e-10 8.88225e-10
0.0634766 -2.02306e-10 9.26318e-10
0.0654297 6.903e-10 -1.76872e-09
0.0673828 1.84504e-09 -4.38878e-09
0.0693359 3.40021e-09 -9.04352e-09
0.0712891 5.66982e-09 -1.35573e-08
0.0732422 8.93764e-09 -2.11976e-08
0.0751953 1.33611e-08 -3.31163e-08
0.0771484 1.9425e-08 -4.84387e-08
0.0791016 2.784e-08 -7.0106e-08
0.0810547 3.93592e-08 -1.00431e-07
0.0830078 5.51202e-08 -1.40538e-07
0.0849609 7.66919e-08 -1.96682e-07
0.0869141 1.06068e-07 -2.73132e-07
0.0888672 1.45855e-07 -3.76399e-07
0.0908203 1.99554e-07 -5.16283e-07
0.0927734 2.71831e-07 -7.04711e-07
0.0947266 3.68768e-07 -9.57336e-07
0.0966797 4.98168e-07 -1.29417e-06
0.0986328 6.70198e-07 -1.74267e-06
0.100586 8.97989e-07 -2.33519e-06
0.102539 1.19831e-06 -3.11763e-06
0.104492 1.59271e-06 -4.14366e-06
0.106445 2.1085e-06 -5.48517e-06
0.108398 2.78015e-06 -7.23155e-06
0.110352 3.65125e-06 -9.49513e-06
0.112305 4.77643e-06 -1.24165e-05
0.114258 6.22358e-06 -1.61724e-05
0.116211 8.07697e-06 -2.09796e-05
0.118164 1.04408e-05 -2.71069e-05
0.120117 1.3443e-05 -3.48852e-05
0.12207 1.72401e-05 -4.47166e-05
0.124023 2.20225e-05 -5.70918e-05
0.125977 2.80208e-05 -7.26039e-05
0.12793 3.55127e-05 -9.19676e-05
0.129883 4.48313e-05 -0.000116038
0.131836 5.63743e-05 -0.000145836
0.133789 7.06136e-05 -0.000182573
0.135742 8.81071e-05 -0.000227679
0.137695 0.000109511 -0.000282837
0.139648 0.000135593 -0.000350011
0.141602 0.000167248 -0.000431492
0.143555 0.000205513 -0.000529933
0.145508 0.000251586 -0.000648394
0.147461 0.000306841 -0.000790389
0.149414 0.000372853 -0.000959935
0.151367 0.000451411 -0.0011616
0.15332 0.000544545 -0.00140057
0.155273 0.000654548 -0.00168268
0.157227 0.000783993 -0.0020145
0.15918 0.000935763 -0.00240337
0.161133 0.00111307 -0.00285749
0.163086 0.00131948 -0.00338594
0.165039 0.00155894 -0.00399877
0.166992 0.0018358 -0.00470709
0.168945 0.00215483 -0.00552305
0.170898 0.00252126 -0.00645998
0.172852 0.00294078 -0.00753245
0.174805 0.00341959 -0.00875626
0.176758 0.0039644 -0.0101486
0.178711 0.00458246 -0.011728
0.180664 0.00528158 -0.0135146
0.182617 0.00607015 -0.0155298
0.18457 0.00695716 -0.0177969
0.186523 0.00795221 -0.0203406
0.188477 0.00906553 -0.0231874
0.19043 0.010308 -0.0263656
0.192383 0.0116911 -0.0299052
0.194336 0.0132271 -0.0338381
0.196289 0.0149286 -0.038198
0.198242 0.0168094 -0.0430206
0.200195 0.0188833 -0.0483433
0.202148 0.0211652 -0.0542056
0.204102 0.0236702 -0.0606488
0.206055 0.0264143 -0.0677157
0.208008 0.0294137 -0.0754511
0.209961 0.0326849 -0.0839011
0.211914 0.0362449 -0.0931132
0.213867 0.0401106 -0.103136
0.21582 0.0442991 -0.114018
0.217773 0.0488271 -0.125809
0.219727 0.0537108 -0.138557
0.22168 0.0589658 -0.152311
0.223633 0.0646066 -0.167118
0.225586 0.0706463 -0.183019
0.227539 0.0770963 -0.200056
0.229492 0.0839658 -0.218265
0.231445 0.0912615 -0.237673
0.233398 0.0989871 -0.258305
0.235352 0.107143 -0.280174
0.237305 0.115725 -0.303284
0.239258 0.124727 -0.327629
0.241211 0.134135 -0.35319
0.243164 0.143932 -0.379936
0.245117 0.154097 -0.407822
0.24707 0.164604 -0.436788
0.249023 0.17542 -0.466759
0.250977 0.18651 -0.497648
0.25293 0.197833 -0.529352
0.254883 0.209345 -0.561757
0.256836 0.220999 -0.594737
0.258789 0.232747 -0.628156
0.260742 0.244537 -0.661872
0.262695 0.256316 -0.695736
0.264648 0.268035 -0.729596
0.266602 0.279641 -0.763302
0.268555 0.291086 -0.796702
0.270508 0.302322 -0.829651
0.272461 0.313306 -0.862009
0.274414 0.323997 -0.893645
0.276367 0.334359 -0.924434
0.27832 0.344357 -0.954267
0.280273 0.353963 -0.98304
0.282227 0.363153 -1.01067
0.28418 0.371907 -1.03707
0.286133 0.380207 -1.06218
0.288086 0.388041 -1.08596
0.290039 0.3954 -1.10835
0.291992 0.402278 -1.12932
0.293945 0.408673 -1.14886
0.295898 0.414583 -1.16696
0.297852 0.420013 -1.1836
0.299805 0.424965 -1.1988
0.301758 0.429446 -1.21257
0.303711 0.433464 -1.22491
0.305664 0.437027 -1.23586
0.307617 0.440147 -1.24543
0.30957 0.442833 -1.25366
0.311523 0.445097 -1.26058
0.313477 0.446951 -1.26623
0.31543 0.448408 -1.27063
0.317383 0.449481 -1.27383
0.319336 0.450181 -1.27586
0.321289 0.450521 -1.27677
0.323242 0.450515 -1.2766
0.325195 0.450175 -1.27538
0.327148 0.449514 -1.27315
0.329102 0.448543 -1.26996
0.331055 0.447275 -1.26584
0.333008 0.445722 -1.26083
0.334961 0.443895 -1.25497
0.336914 0.441805 -1.2483
0.338867 0.439463 -1.24085
0.34082 0.43688 -1.23266
0.342773 0.434066 -1.22376
0.344727 0.431032 -1.21419
0.34668 0.427786 -1.20398
0.348633 0.424339 -1.19317
0.350586 0.4207 -1.18177
0.352539 0.416877 -1.16983
0.354492 0.412879 -1.15738
0.356445 0.408714 -1.14443
0.358398 0.404391 -1.13103
0.360352 0.399917 -1.11719
0.362305 0.3953 -1.10295
0.364258 0.390548 -1.08832
0.366211 0.385666 -1.07334
0.368164 0.380664 -1.05802
0.370117 0.375546 -1.04239
0.37207 0.37032 -1.02648
0.374023 0.364993 -1.01029
0.375977 0.359569 -0.993864
0.37793 0.354057 -0.97721
0.379883 0.34846 -0.96035
0.381836 0.342786 -0.943304
0.383789 0.337039 -0.92609
0.385742 0.331226 -0.908727
0.387695 0.325351 -0.891232
0.389648 0.31942 -0.873622
0.391602 0.313439 -0.855913
0.393555 0.307411 -0.838123
0.395508 0.301343 -0.820265
0.397461 0.295239 -0.802357
0.399414 0.289103 -0.784412
0.401367 0.282941 -0.766444
0.40332 0.276758 -0.748469
0.405273 0.270558 -0.730499
0.407227 0.264345 -0.712547
0.40918 0.258124 -0.694627
0.411133 0.251901 -0.67675
0.413086 0.245678 -0.658929
0.415039 0.239462 -0.641175
0.416992 0.233257 -0.623498
0.418945 0.227066 -0.605911
0.420898 0.220896 -0.588423
0.422852 0.214751 -0.571042
0.424805 0.208635 -0.55378
0.426758 0.202554 -0.536643
0.428711 0.196513 -0.51964
0.430664 0.190517 -0.502779
0.432617 0.184572 -0.486065
0.43457 0.178682 -0.469505
0.436523 0.172855 -0.453105
0.438477 0.167095 -0.436868
0.44043 0.161409 -0.420798
0.442383 0.155803 -0.404899
0.444336 0.150284 -0.389173
0.446289 0.144858 -0.37362
0.448242 0.139532 -0.358243
0.450195 0.134314 -0.343039
0.452148 0.129211 -0.328009
0.454102 0.124229 -0.313151
0.456055 0.119378 -0.298461
0.458008 0.114663 -0.283938
0.459961 0.110094 -0.269576
0.461914 0.105678 -0.255372
0.463867 0.101422 -0.241319
0.46582 0.0973352 -0.227414
0.467773 0.0934243 -0.213648
0.469727 0.0896973 -0.200016
0.47168 0.0861616 -0.186511
0.473633 0.0828245 -0.173124
0.475586 0.079693 -0.159849
0.477539 0.0767739 -0.146678
0.479492 0.0740736 -0.133603
0.481445 0.0715983 -0.120615
0.483398 0.0693534 -0.107706
0.485352 0.0673442 -0.0948681
0.487305 0.0655755 -0.0820928
0.489258 0.0640515 -0.0693716
0.491211 0.0627757 -0.0566962
0.493164 0.0617513 -0.0440583
0.495117 0.0609808 -0.0314495
0.49707 0.0604661 -0.0188614
0.499023 0.0602084 -0.00628574
0.500977 0.0602084 0.00628574
0.50293 0.0604661 0.0188614
0.504883 0.0609808 0.0314495
0.506836 0.0617513 0.0440583
0.508789 0.0627757 0.0566962
0.510742 0.0640515 0.0693716
0.512695 0.0655755 0.0820928
0.514648 0.0673442 0.0948681
0.516602 0.0693534 0.107706
0.518555 0.0715983 0.120615
0.520508 0.0740736 0.133603
0.522461 0.0767739 0.146678
0.524414 0.079693 0.159849
0.526367 0.0828245 0.173124
0.52832 0.0861616 0.186511
0.530273 0.0896973 0.200016
0.532227 0.0934243 0.213648
0.53418 0.0973352 0.227414
0.536133 0.101422 0.241319
0.538086 0.105678 0.255372
0.540039 0.110094 0.269576
0.541992 0.114663 0.283938
0.543945 0.119378 0.298461
0.545898 0.124229 0.313151
0.547852 0.129211 0.328009
0.549805 0.134314 0.343039
0.551758 0.139532 0.358243
0.553711 0.144858 0.37362
0.555664 0.150284 0.389173
0.557617 0.155803 0.404899
0.55957 0.161409 0.420798
0.561523 0.167095 0.436868
0.563477 0.172855 0.453105
0.56543 0.178682 0.469505
0.567383 0.184572 0.486065
0.569336 0.190517 0.502779
0.571289 0.196513 0.51964
0.573242 0.202554 0.536643
0.575195 0.208635 0.55378
0.577148 0.214751 0.571042
0.579102 0.220896 0.588423
0.581055 0.227066 0.605911
0.583008 0.233257 0.623498
0.584961 0.239462 0.641175
0.586914 0.245678 0.658929
0.588867 0.251901 0.67675
0.59082 0.258124 0.694627
0.592773 0.264345 0.712547
0.594727 0.270558 0.730499
0.59668 0.276758 0.748469
0.598633 0.282941 0.766444
0.600586 0.289103 0.784412
0.602539 0.295239 0.802357
0.604492 0.301343 0.820265
0.606445 0.307411 0.838123
0.608398 0.313439 0.855913
0.610352 0.31942 0.873622
0.612305 0.325351 0.891232
0.614258 0.331226 0.908727
0.616211 0.337039 0.92609
0.618164 0.342786 0.943304
0.620117 0.34846 0.96035
0.62207 0.354057 0.97721
0.624023 0.359569 0.993864
0.625977 0.364993 1.01029
0.62793 0.37032 1.02648
0.629883 0.375546 1.04239
0.631836 0.380664 1.05802
0.633789 0.385666 1.07334
0.635742 0.390548 1.08832
0.637695 0.3953 1.10295
0.639648 0.399917 1.11719
0.641602 0.404391 1.13103
0.643555 0.408714 1.14443
0.645508 0.412879 1.15738
0.647461 0.416877 1.16983
0.649414 0.4207 1.18177
0.651367 0.424339 1.19317
0.65332 0.427786 1.20398
0.655273 0.431032 1.21419
0.657227 0.434066 1.22376
0.65918 0.43688 1.23266
0.661133 0.439463 1.24085
0.663086 0.441805 1.2483
0.665039 0.443895 1.25497
0.666992 0.445722 1.26083
0.668945 0.447275 1.26584
0.670898 0.448543 1.26996
0.672852 0.449514 1.27315
0.674805 0.450175 1.27538
0.676758 0.450515 1.2766
0.678711 0.450521 1.27677
0.680664 0.450181 1.27586
0.682617 0.449481 1.27383
0.68457 0.448408 1.27063
0.686523 0.446951 1.26623
0.688477 0.445097 1.26058
0.69043 0.442833 1.25366
0.692383 0.440147 1.24543
0.694336 0.437027 1.23586
0.696289 0.433464 1.22491
0.698242 0.429446 1.21257
0.700195 0.424965 1.1988
0.702148 0.420013 1.1836
0.704102 0.414583 1.16696
0.706055 0.408673 1.14886
0.708008 0.402278 1.12932
0.709961 0.3954 1.10835
0.711914 0.388041 1.08596
0.713867 0.380207 1.06218
0.71582 0.371907 1.03707
0.717773 0.363153 1.01067
0.719727 0.353963 0.98304
0.72168 0.344357 0.954267
0.723633 0.334359 0.924434
0.725586 0.323997 0.893645
0.727539 0.313306 0.862009
0.729492 0.302322 0.829651
0.731445 0.291086 0.796702
0.733398 0.279641 0.763302
0.735352 0.268035 0.729596
0.737305 0.256316 0.695736
0.739258 0.244537 0.661872
0.741211 0.232747 0.628156
0.743164 0.220999 0.594737
0.745117 0.209345 0.561757
0.74707 0.197833 0.529352
0.749023 0.18651 0.497648
0.750977 0.17542 0.466759
0.75293 0.164604 0.436788
0.754883 0.154097 0.407822
0.756836 0.143932 0.379936
0.758789 0.134135 0.35319
0.760742 0.124727 0.327629
0.762695 0.115725 0.303284
0.764648 0.107143 0.280174
0.766602 0.0989871 0.258305
0.768555 0.0912615 0.237673
0.770508 0.0839658 0.218265
0.772461 0.0770963 0.200056
0.774414 0.0706463 0.183019
0.776367 0.0646066 0.167118
0.77832 0.0589658 0.152311
0.780273 0.0537108 0.138557
0.782227 0.0488271 0.125809
0.78418 0.0442991 0.114018
0.786133 0.0401106 0.103136
0.788086 0.0362449 0.0931132
0.790039 0.0326849 0.0839011
0.791992 0.0294137 0.0754511
0.793945 0.0264143 0.0677157
0.795898 0.0236702 0.0606488
0.797852 0.0211652 0.0542056
0.799805 0.0188833 0.0483433
0.801758 0.0168094 0.0430206
0.803711 0.0149286 0.038198
0.805664 0.0132271 0.0338381
0.807617 0.0116911 0.0299052
0.80957 0.010308 0.0263656
0.811523 0.00906553 0.0231874
0.813477 0.00795221 0.0203406
0.81543 0.00695716 0.0177969
0.817383 0.00607015 0.0155298
0.819336 0.00528158 0.0135146
0.821289 0.00458246 0.011728
0.823242 0.0039644 0.0101486
0.825195 0.00341959 0.00875626
0.827148 0.00294078 0.00753244
0.829102 0.00252126 0.00645998
0.831055 0.00215483 0.00552304
0.833008 0.0018358 0.00470708
0.834961 0.00155894 0.00399877
0.836914 0.00131948 0.00338593
0.838867 0.00111307 0.00285749
0.84082 0.000935763 0.00240337
0.842773 0.000783993 0.0020145
0.844727 0.000654548 0.00168268
0.84668 0.000544545 0.00140057
0.848633 0.000451411 0.0011616
0.850586 0.000372853 0.000959932
0.852539 0.000306841 0.000790387
0.854492 0.000251586 0.000648391
0.856445 0.000205513 0.00052993
0.858398 0.000167248 0.000431489
0.860352 0.000135593 0.000350008
0.862305 0.000109511 0.000282833
0.864258 8.81071e-05 0.000227677
0.866211 7.06136e-05 0.00018257
0.868164 5.63743e-05 0.000145833
0.870117 4.48314e-05 0.000116035
0.87207 3.55127e-05 9.19646e-05
0.874023 2.80208e-05 7.26009e-05
0.875977 2.20226e-05 5.70885e-05
0.87793 1.72401e-05 4.47131e-05
0.879883 1.34429e-05 3.48818e-05
0.881836 1.04407e-05 2.71039e-05
0.883789 8.07681e-06 2.09764e-05
0.885742 6.22342e-06 1.61694e-05
0.887695 4.77632e-06 1.24137e-05
0.889648 3.65119e-06 9.49207e-06
0.891602 2.78004e-06 7.22849e-06
0.893555 2.10838e-06 5.48284e-06
0.895508 1.59261e-06 4.14071e-06
0.897461 1.19816e-06 3.11481e-06
0.899414 8.97778e-07 2.33286e-06
0.901367 6.70024e-07 1.74007e-06
0.90332 4.98051e-07 1.29193e-06
0.905273 3.68659e-07 9.54464e-07
0.907227 2.71732e-07 7.02159e-07
0.90918 1.99462e-07 5.13951e-07
0.911133 1.45774e-07 3.739e-07
0.913086 1.0606e-07 2.69846e-07
0.915039 7.6784e-08 1.93409e-07
0.916992 5.52198e-08 1.37907e-07
0.918945 3.9391e-08 9.68005e-08
0.920898 2.78345e-08 6.66287e-08
0.922852 1.94104e-08 4.53341e-08
0.924805 1.33339e-08 3.06183e-08
0.926758 9.02546e-09 1.87822e-08
0.928711 5.9821e-09 1.16622e-08
0.930664 3.78813e-09 4.46951e-09
0.932617 2.1975e-09 9.62211e-10
0.93457 1.04252e-09 -2.33843e-09
0.936523 2.03222e-10 -4.39575e-09
0.938477 -4.15041e-10 -5.32822e-09
0.94043 -8.817e-10 -6.3973e-09
0.942383 -1.19968e-09 -7.48854e-09
0.944336 -1.49033e-09 -8.09569e-09
0.946289 -1.77957e-09 -7.21492e-09
0.948242 -2.05959e-09 -8.00466e-09
0.950195 -2.27461e-09 -7.42204e-09
0.952148 -2.49278e-09 -7.59314e-09
0.954102 -2.77754e-09 -7.40077e-09
0.956055 -2.96729e-09 -6.76394e-09
0.958008 -3.08599e-09 -5.5244e-09
0.959961 -3.20497e-09 -5.90504e-09
0.961914 -3.33568e-09 -5.78917e-09
0.963867 -3.41028e-09 -6.03555e-09
0.96582 -3.4025e-09 -5.50035e-09
0.967773 -3.39517e-09 -5.55253e-09
0.969727 -3.41038e-09 -6.15694e-09
0.97168 -3.4036e-09 -6.19891e-09
0.973633 -3.3748e-09 -5.82651e-09
0.975586 -3.35959e-09 -5.46154e-09
0.977539 -3.31912e-09 -5.76149e-09
0.979492 -3.22434e-09 -6.12546e-09
0.981445 -3.15877e-09 -6.20972e-09
0.983398 -3.22833e-09 -6.08722e-09
0.985352 -3.38265e-09 -6.81009e-09
0.987305 -3.57557e-09 -6.15056e-09
0.989258 -3.7814e-09 -4.97793e-09
0.991211 -3.98255e-09 -5.84908e-09
0.993164 -4.20515e-09 -4.62e-09
0.995117 -4.42063e-09 -4.61385e-09
0.99707 -4.61023e-09 -3.54092e-09
0.999023 -4.76292e-09 -2.73119e-09
