0.000976562 -3.40734e-09 8.22921e-10
0.00292969 -3.30086e-09 1.4401e-09
0.00488281 -3.21226e-09 1.52103e-09
0.00683594 -3.15213e-09 1.82983e-09
0.00878906 -3.13187e-09 1.44196e-09
0.0107422 -3.20071e-09 1.2095e-09
0.0126953 -3.23855e-09 2.19792e-09
0.0146484 -3.24124e-09 1.09818e-09
0.0166016 -3.22488e-09 1.15655e-09
0.0185547 -3.13865e-09 1.23342e-09
0.0205078 -3.05844e-09 1.73302e-09
0.0224609 -3.00727e-09 1.35735e-09
0.0244141 -2.92057e-09 1.29111e-09
0.0263672 -2.8123e-09 1.31279e-09
0.0283203 -2.70005e-09 1.0507e-09
0.0302734 -2.62002e-09 1.61834e-09
0.0322266 -2.53955e-09 2.18816e-09
0.0341797 -2.40902e-09 1.69051e-09
0.0361328 -2.32099e-09 2.03914e-09
0.0380859 -2.23019e-09 1.90415e-09
0.0400391 -2.08937e-09 2.37984e-09
0.0419922 -1.96221e-09 2.64635e-09
0.0439453 -1.86555e-09 2.52523e-09
0.0458984 -1.82717e-09 2.85329e-09
0.0478516 -1.79409e-09 2.70383e-09
0.0498047 -1.68844e-09 3.18783e-09
0.0517578 -1.5669e-09 3.76366e-09
0.0537109 -1.47753e-09 4.03917e-09
0.0556641 -1.40932e-09 3.89481e-09
0.0576172 -1.32736e-09 3.92156e-09
0.0595703 -1.22919e-09 4.48016e-09
0.0615234 -1.11568e-09 4.95462e-09
0.0634766 -9.72177e-10 4.88094e-09
0.0654297 -7.91145e-10 5.3736e-09
0.0673828 -6.24436e-10 5.17066e-09
0.0693359 -5.10577e-10 5.96251e-09
0.0712891 -4.23451e-10 5.86378e-09
0.0732422 -3.01477e-10 6.18689e-09
0.0751953 -1.84623e-10 6.46533e-09
0.0771484 -1.05239e-10 6.11303e-09
0.0791016 -1.16924e-11 6.36352e-09
0.0810547 7.92078e-11 7.19481e-09
0.0830078 1.51253e-10 7.41589e-09
0.0849609 2.42808e-10 7.21818e-09
0.0869141 3.73595e-10 7.15772e-09
0.0888672 5.12415e-10 6.59e-09
0.0908203 7.35323e-10 6.36776e-09
0.0927734 1.04719e-09 5.71232e-09
0.0947266 1.42595e-09 4.57224e-09
0.0966797 1.96904e-09 3.70782e-09
0.0986328 2.70491e-09 1.74755e-09
0.100586 3.74806e-09 -1.40354e-09
0.102539 5.26922e-09 -5.30447e-09
0.104492 7.47755e-09 -1.07546e-08
0.106445 1.06108e-08 -1.92468e-08
0.108398 1.50934e-08 -3.06138e-08
0.110352 2.14638e-08 -4.74595e-08
0.112305 3.04047e-08 -7.20992e-08
0.114258 4.30743e-08 -1.04764e-07
0.116211 6.08426e-08 -1.51615e-07
0.118164 8.56478e-08 -2.16291e-07
0.120117 1.20121e-07 -3.07419e-07
0.12207 1.67794e-07 -4.32467e-07
0.124023 2.33471e-07 -6.04045e-07
0.125977 3.23463e-07 -8.40172e-07
0.12793 4.46163e-07 -1.16113e-06
0.129883 6.12672e-07 -1.59725e-06
0.131836 8.37619e-07 -2.18459e-06
0.133789 1.14005e-06 -2.97443e-06
0.135742 1.54462e-06 -4.0305e-06
0.137695 2.08321e-06 -5.43513e-06
0.139648 2.79678e-06 -7.29524e-06
0.141602 3.73768e-06 -9.74584e-06
0.143555 4.97225e-06 -1.29583e-05
0.145508 6.58425e-06 -1.71514e-05
0.147461 8.6789e-06 -2.25954e-05
0.149414 1.13874e-05 -2.96296e-05
0.151367 1.48726e-05 -3.86745e-05
0.15332 1.93353e-05 -5.0249e-05
0.155273 2.50218e-05 -6.49874e-05
0.157227 3.22327e-05 -8.3663e-05
0.15918 4.13321e-05 -0.000107214
0.161133 5.27592e-05 -0.00013677
0.163086 6.70403e-05 -0.000173681
0.165039 8.48026e-05 -0.000219558
0.166992 0.000106789 -0.000276308
0.168945 0.000133876 -0.000346175
0.170898 0.000167088 -0.000431785
0.172852 0.000207621 -0.000536198
0.174805 0.000256859 -0.000662953
0.176758 0.000316398 -0.00081613
0.178711 0.000388066 -0.0010004
0.180664 0.000473946 -0.00122107
0.182617 0.000576402 -0.00148418
0.18457 0.000698099 -0.00179654
0.186523 0.00084203 -0.00216575
0.188477 0.00101154 -0.00260035
0.19043 0.00121033 -0.00310979
0.192383 0.00144253 -0.00370455
0.194336 0.00171265 -0.00439617
0.196289 0.00202566 -0.00519728
0.198242 0.00238698 -0.00612172
0.200195 0.0028025 -0.0071845
0.202148 0.0032786 -0.00840193
0.204102 0.00382216 -0.0097916
0.206055 0.0044406 -0.0113725
0.208008 0.00514184 -0.0131648
0.209961 0.00593434 -0.0151904
0.211914 0.00682711 -0.0174725
0.213867 0.0078297 -0.0200356
0.21582 0.00895221 -0.0229059
0.217773 0.0102053 -0.026111
0.219727 0.0116001 -0.0296802
0.22168 0.0131483 -0.0336439
0.223633 0.0148622 -0.0380345
0.225586 0.0167544 -0.0428855
0.227539 0.0188382 -0.0482319
0.229492 0.0211271 -0.0541104
0.231445 0.023635 -0.0605587
0.233398 0.0263763 -0.0676157
0.235352 0.0293654 -0.0753216
0.237305 0.0326171 -0.0837173
0.239258 0.0361461 -0.0928445
0.241211 0.0399671 -0.102745
0.243164 0.0440946 -0.113462
0.245117 0.0485426 -0.125037
0.24707 0.0533247 -0.137511
0.249023 0.0584537 -0.150925
0.250977 0.0639413 -0.165316
0.25293 0.0697981 -0.180721
0.254883 0.0760331 -0.197172
0.256836 0.0826534 -0.214698
0.258789 0.0896641 -0.233323
0.260742 0.0970677 -0.253066
0.262695 0.104864 -0.273936
0.264648 0.113051 -0.29594
0.266602 0.12162 -0.319072
0.268555 0.130563 -0.343317
0.270508 0.139866 -0.368654
0.272461 0.149512 -0.395046
0.274414 0.159479 -0.422449
0.276367 0.169743 -0.450806
0.27832 0.180274 -0.480048
0.280273 0.191041 -0.510097
0.282227 0.202009 -0.540863
0.28418 0.21314 -0.572246
0.286133 0.224393 -0.604138
0.288086 0.235726 -0.636425
0.290039 0.247097 -0.668984
0.291992 0.258461 -0.70169
0.293945 0.269775 -0.734413
0.295898 0.280994 -0.767024
0.297852 0.292078 -0.799395
0.299805 0.302984 -0.831398
0.301758 0.313674 -0.862911
0.303711 0.324113 -0.893816
0.305664 0.334265 -0.924002
0.307617 0.344102 -0.953367
0.30957 0.353594 -0.981814
0.311523 0.362719 -1.00926
0.313477 0.371454 -1.03562
0.31543 0.379781 -1.06084
0.317383 0.387687 -1.08484
0.319336 0.395159 -1.1076
0.321289 0.402188 -1.12905
0.323242 0.408768 -1.14918
0.325195 0.414895 -1.16796
0.327148 0.420566 -1.18538
0.329102 0.425783 -1.20142
0.331055 0.430548 -1.21608
0.333008 0.434863 -1.22937
0.334961 0.438735 -1.24129
0.336914 0.442169 -1.25187
0.338867 0.445173 -1.26111
0.34082 0.447755 -1.26903
0.342773 0.449925 -1.27567
0.344727 0.45169 -1.28105
0.34668 0.453063 -1.2852
0.348633 0.454052 -1.28815
0.350586 0.45467 -1.28993
0.352539 0.454926 -1.29057
0.354492 0.454831 -1.29012
0.356445 0.454398 -1.2886
0.358398 0.453636 -1.28605
0.360352 0.452557 -1.28251
0.362305 0.451173 -1.27801
0.364258 0.449493 -1.27259
0.366211 0.447529 -1.26629
0.368164 0.44529 -1.25914
0.370117 0.442789 -1.25117
0.37207 0.440035 -1.24243
0.374023 0.437037 -1.23294
0.375977 0.433807 -1.22274
0.37793 0.430353 -1.21186
0.379883 0.426685 -1.20034
0.381836 0.422813 -1.1882
0.383789 0.418745 -1.17548
0.385742 0.41449 -1.16222
0.387695 0.410058 -1.14842
0.389648 0.405456 -1.13414
0.391602 0.400694 -1.11939
0.393555 0.39578 -1.1042
0.395508 0.390721 -1.0886
0.397461 0.385527 -1.07261
0.399414 0.380204 -1.05627
0.401367 0.374762 -1.03958
0.40332 0.369208 -1.02258
0.405273 0.36355 -1.00528
0.407227 0.357796 -0.987711
0.40918 0.351954 -0.969887
0.411133 0.346034 -0.951827
0.413086 0.340042 -0.933548
0.415039 0.333987 -0.915068
0.416992 0.327879 -0.896399
0.418945 0.321725 -0.877556
0.420898 0.315535 -0.858551
0.422852 0.309318 -0.839396
0.424805 0.303083 -0.820101
0.426758 0.296839 -0.800673
0.428711 0.290597 -0.781121
0.430664 0.284366 -0.761452
0.432617 0.278157 -0.74167
0.43457 0.271979 -0.721779
0.436523 0.265843 -0.701785
0.438477 0.259759 -0.681688
0.44043 0.253738 -0.661491
0.442383 0.247791 -0.641194
0.444336 0.241927 -0.620799
0.446289 0.236157 -0.600304
0.448242 0.230493 -0.579711
0.450195 0.224943 -0.559017
0.452148 0.219519 -0.538223
0.454102 0.21423 -0.517327
0.456055 0.209085 -0.496328
0.458008 0.204095 -0.475226
0.459961 0.199268 -0.45402
0.461914 0.194613 -0.43271
0.463867 0.190139 -0.411296
0.46582 0.185854 -0.389778
0.467773 0.181765 -0.368158
0.469727 0.177879 -0.346437
0.47168 0.174204 -0.324617
0.473633 0.170745 -0.302701
0.475586 0.16751 -0.280692
0.477539 0.164502 -0.258595
0.479492 0.161728 -0.236414
0.481445 0.159191 -0.214153
0.483398 0.156897 -0.191819
0.485352 0.154848 -0.169417
0.487305 0.153048 -0.146955
0.489258 0.1515 -0.12444
0.491211 0.150207 -0.101878
0.493164 0.14917 -0.0792787
0.495117 0.14839 -0.0566492
0.49707 0.14787 -0.0339982
0.499023 0.14761 -0.0113342
0.500977 0.14761 0.0113342
0.50293 0.14787 0.0339982
0.504883 0.14839 0.0566492
0.506836 0.14917 0.0792787
0.508789 0.150207 0.101878
0.510742 0.1515 0.12444
0.512695 0.153048 0.146955
0.514648 0.154848 0.169417
0.516602 0.156897 0.191819
0.518555 0.159191 0.214153
0.520508 0.161728 0.236414
0.522461 0.164502 0.258595
0.524414 0.16751 0.280692
0.526367 0.170745 0.302701
0.52832 0.174204 0.324617
0.530273 0.177879 0.346437
0.532227 0.181765 0.368158
0.53418 0.185854 0.389778
0.536133 0.190139 0.411296
0.538086 0.194613 0.43271
0.540039 0.199268 0.45402
0.541992 0.204095 0.475226
0.543945 0.209085 0.496328
0.545898 0.21423 0.517327
0.547852 0.219519 0.538223
0.549805 0.224943 0.559017
0.551758 0.230493 0.579711
0.553711 0.236157 0.600304
0.555664 0.241927 0.620799
0.557617 0.247791 0.641194
0.55957 0.253738 0.661491
0.561523 0.259759 0.681688
0.563477 0.265843 0.701785
0.56543 0.271979 0.721779
0.567383 0.278157 0.74167
0.569336 0.284366 0.761452
0.571289 0.290597 0.781121
0.573242 0.296839 0.800673
0.575195 0.303083 0.820101
0.577148 0.309318 0.839396
0.579102 0.315535 0.858551
0.581055 0.321725 0.877556
0.583008 0.327879 0.896399
0.584961 0.333987 0.915068
0.586914 0.340042 0.933548
0.588867 0.346034 0.951827
0.59082 0.351954 0.969887
0.592773 0.357796 0.987711
0.594727 0.36355 1.00528
0.59668 0.369208 1.02258
0.598633 0.374762 1.03958
0.600586 0.380204 1.05627
0.602539 0.385527 1.07261
0.604492 0.390721 1.0886
0.606445 0.39578 1.1042
0.608398 0.400694 1.11939
0.610352 0.405456 1.13414
0.612305 0.410058 1.14842
0.614258 0.41449 1.16222
0.616211 0.418745 1.17548
0.618164 0.422813 1.1882
0.620117 0.426685 1.20034
0.62207 0.430353 1.21186
0.624023 0.433807 1.22274
0.625977 0.437037 1.23294
0.62793 0.440035 1.24243
0.629883 0.442789 1.25117
0.631836 0.44529 1.25914
0.633789 0.447529 1.26629
0.635742 0.449493 1.27259
0.637695 0.451173 1.27801
0.639648 0.452557 1.28251
0.641602 0.453636 1.28605
0.643555 0.454398 1.2886
0.645508 0.454831 1.29012
0.647461 0.454926 1.29057
0.649414 0.45467 1.28993
0.651367 0.454052 1.28815
0.65332 0.453063 1.2852
0.655273 0.45169 1.28105
0.657227 0.449925 1.27567
0.65918 0.447755 1.26903
0.661133 0.445173 1.26111
0.663086 0.442169 1.25187
0.665039 0.438735 1.24129
0.666992 0.434863 1.22937
0.668945 0.430548 1.21608
0.670898 0.425783 1.20142
0.672852 0.420566 1.18538
0.674805 0.414895 1.16796
0.676758 0.408768 1.14918
0.678711 0.402188 1.12905
0.680664 0.395159 1.1076
0.682617 0.387687 1.08484
0.68457 0.379781 1.06084
0.686523 0.371454 1.03562
0.688477 0.362719 1.00926
0.69043 0.353594 0.981814
0.692383 0.344102 0.953367
0.694336 0.334265 0.924002
0.696289 0.324113 0.893816
0.698242 0.313674 0.862911
0.700195 0.302984 0.831398
0.702148 0.292078 0.799395
0.704102 0.280994 0.767024
0.706055 0.269775 0.734413
0.708008 0.258461 0.70169
0.709961 0.247097 0.668984
0.711914 0.235726 0.636425
0.713867 0.224393 0.604138
0.71582 0.21314 0.572246
0.717773 0.202009 0.540863
0.719727 0.191041 0.510097
0.72168 0.180274 0.480048
0.723633 0.169743 0.450806
0.725586 0.159479 0.422449
0.727539 0.149512 0.395046
0.729492 0.139866 0.368654
0.731445 0.130563 0.343317
0.733398 0.12162 0.319072
0.735352 0.113051 0.29594
0.737305 0.104864 0.273936
0.739258 0.0970677 0.253066
0.741211 0.0896641 0.233323
0.743164 0.0826534 0.214698
0.745117 0.0760331 0.197172
0.74707 0.0697981 0.180721
0.749023 0.0639413 0.165316
0.750977 0.0584537 0.150925
0.75293 0.0533247 0.137511
0.754883 0.0485426 0.125037
0.756836 0.0440946 0.113462
0.758789 0.0399671 0.102745
0.760742 0.0361461 0.0928445
0.762695 0.0326171 0.0837173
0.764648 0.0293654 0.0753216
0.766602 0.0263763 0.0676157
0.768555 0.023635 0.0605587
0.770508 0.0211271 0.0541104
0.772461 0.0188382 0.0482319
0.774414 0.0167544 0.0428855
0.776367 0.0148622 0.0380345
0.77832 0.0131483 0.0336439
0.780273 0.0116001 0.0296802
0.782227 0.0102053 0.026111
0.78418 0.00895221 0.0229059
0.786133 0.0078297 0.0200356
0.788086 0.00682711 0.0174725
0.790039 0.00593434 0.0151904
0.791992 0.00514184 0.0131648
0.793945 0.0044406 0.0113725
0.795898 0.00382216 0.0097916
0.797852 0.0032786 0.00840193
0.799805 0.0028025 0.0071845
0.801758 0.00238698 0.00612172
0.803711 0.00202566 0.00519728
0.805664 0.00171265 0.00439617
0.807617 0.00144253 0.00370455
0.80957 0.00121033 0.00310979
0.811523 0.00101154 0.00260035
0.813477 0.00084203 0.00216575
0.81543 0.0006981 0.00179653
0.817383 0.000576402 0.00148418
0.819336 0.000473946 0.00122107
0.821289 0.000388066 0.00100039
0.823242 0.000316398 0.000816128
0.825195 0.000256859 0.000662952
0.827148 0.000207621 0.000536197
0.829102 0.000167088 0.000431784
0.831055 0.000133876 0.000346174
0.833008 0.000106789 0.000276308
0.834961 8.48026e-05 0.000219557
0.836914 6.70403e-05 0.00017368
0.838867 5.27592e-05 0.000136768
0.84082 4.13321e-05 0.000107213
0.842773 3.22327e-05 8.36618e-05
0.844727 2.50218e-05 6.49865e-05
0.84668 1.93352e-05 5.02482e-05
0.848633 1.48725e-05 3.86737e-05
0.850586 1.13873e-05 2.96285e-05
0.852539 8.67882e-06 2.25943e-05
0.854492 6.58418e-06 1.71499e-05
0.856445 4.9722e-06 1.29574e-05
0.858398 3.73767e-06 9.74439e-06
0.860352 2.79681e-06 7.29375e-06
0.862305 2.08328e-06 5.43389e-06
0.864258 1.54472e-06 4.0291e-06
0.866211 1.14017e-06 2.97383e-06
0.868164 8.37779e-07 2.1835e-06
0.870117 6.12782e-07 1.59564e-06
0.87207 4.46176e-07 1.16029e-06
0.874023 3.23443e-07 8.38673e-07
0.875977 2.33447e-07 6.03978e-07
0.87793 1.67774e-07 4.30801e-07
0.879883 1.20102e-07 3.06797e-07
0.881836 8.5676e-08 2.1529e-07
0.883789 6.09431e-08 1.5044e-07
0.885742 4.32409e-08 1.03403e-07
0.887695 3.05675e-08 7.03292e-08
0.889648 2.15502e-08 4.64421e-08
0.891602 1.51826e-08 2.98808e-08
0.893555 1.0679e-08 1.75424e-08
0.895508 7.542e-09 9.46382e-09
0.897461 5.36959e-09 3.84396e-09
0.899414 3.82225e-09 -5.05438e-10
0.901367 2.74715e-09 -1.98615e-09
0.90332 2.00273e-09 -4.512e-09
0.905273 1.46259e-09 -5.59451e-09
0.907227 1.09818e-09 -6.2605e-09
0.90918 8.7296e-10 -7.14503e-09
0.911133 6.63447e-10 -8.17978e-09
0.913086 4.52355e-10 -7.37256e-09
0.915039 2.95677e-10 -7.74937e-09
0.916992 1.09798e-10 -8.13478e-09
0.918945 -1.02777e-10 -8.28049e-09
0.920898 -2.74226e-10 -7.10596e-09
0.922852 -4.08606e-10 -6.97338e-09
0.924805 -5.151e-10 -7.08633e-09
0.926758 -6.07061e-10 -6.61943e-09
0.928711 -7.19961e-10 -6.80259e-09
0.930664 -8.35878e-10 -6.18224e-09
0.932617 -1.00442e-09 -6.77611e-09
0.93457 -1.17956e-09 -5.63676e-09
0.936523 -1.29894e-09 -5.55667e-09
0.938477 -1.41137e-09 -6.1695e-09
0.94043 -1.50066e-09 -5.72919e-09
0.942383 -1.59627e-09 -4.98275e-09
0.944336 -1.64697e-09 -5.01032e-09
0.946289 -1.62435e-09 -4.78295e-09
0.948242 -1.6048e-09 -5.10524e-09
0.950195 -1.60402e-09 -5.27408e-09
0.952148 -1.56608e-09 -4.90457e-09
0.954102 -1.56252e-09 -5.02878e-09
0.956055 -1.53505e-09 -4.94616e-09
0.958008 -1.46686e-09 -4.58732e-09
0.959961 -1.45835e-09 -4.54352e-09
0.961914 -1.54104e-09 -4.28841e-09
0.963867 -1.7023e-09 -3.94372e-09
0.96582 -1.90349e-09 -3.84104e-09
0.967773 -2.1194e-09 -3.25713e-09
0.969727 -2.32126e-09 -2.88241e-09
0.97168 -2.5514e-09 -2.49962e-09
0.973633 -2.78283e-09 -2.67878e-09
0.975586 -2.94612e-09 -1.81801e-09
0.977539 -3.06314e-09 -1.99662e-09
0.979492 -3.17291e-09 -1.11564e-09
0.981445 -3.24758e-09 -1.00953e-09
0.983398 -3.29524e-09 -9.57335e-10
0.985352 -3.31217e-09 -8.54042e-10
0.987305 -3.31845e-09 -1.23484e-09
0.989258 -3.33573e-09 -1.06587e-09
0.991211 -3.36399e-09 -1.14497e-09
0.993164 -3.35169e-09 -1.1311e-09
0.995117 -3.28638e-09 -5.35685e-10
0.99707 -3.26791e-09 -8.77909e-10
0.999023 -3.35792e-09 -1.0099e-09
