0.000976562 6.21117e-06 -2.58972e-06
0.00292969 6.57588e-06 -6.44614e-06
0.00488281 7.29076e-06 -1.05415e-05
0.00683594 8.3681e-06 -1.51007e-05
0.00878906 9.84803e-06 -2.03308e-05
0.0107422 1.17875e-05 -2.64502e-05
0.0126953 1.42603e-05 -3.37066e-05
0.0146484 1.73583e-05 -4.23844e-05
0.0166016 2.11946e-05 -5.28113e-05
0.0185547 2.59056e-05 -6.53691e-05
0.0205078 3.16544e-05 -8.04982e-05
0.0224609 3.86348e-05 -9.87176e-05
0.0244141 4.70754e-05 -0.000120627
0.0263672 5.72446e-05 -0.000146927
0.0283203 6.9456e-05 -0.000178428
0.0302734 8.40748e-05 -0.000216075
0.0322266 0.000101525 -0.000260955
0.0341797 0.000122295 -0.000314326
0.0361328 0.000146951 -0.000377632
0.0380859 0.00017614 -0.000452533
0.0400391 0.000210605 -0.000540929
0.0419922 0.000251194 -0.000644984
0.0439453 0.000298873 -0.000767167
0.0458984 0.00035474 -0.000910278
0.0478516 0.000420039 -0.00107749
0.0498047 0.000496173 -0.00127238
0.0517578 0.000584727 -0.001499
0.0537109 0.000687481 -0.00176188
0.0556641 0.000806434 -0.00206611
0.0576172 0.000943821 -0.0024174
0.0595703 0.00110214 -0.00282212
0.0615234 0.00128418 -0.00328735
0.0634766 0.00149302 -0.00382101
0.0654297 0.00173212 -0.00443186
0.0673828 0.00200528 -0.00512962
0.0693359 0.00231671 -0.00592506
0.0712891 0.00267107 -0.00683007
0.0732422 0.00307349 -0.00785779
0.0751953 0.00352963 -0.00902267
0.0771484 0.00404569 -0.0103407
0.0791016 0.00462852 -0.0118292
0.0810547 0.00528557 -0.0135077
0.0830078 0.00602507 -0.015397
0.0849609 0.00685595 -0.0175204
0.0869141 0.00778803 -0.0199032
0.0888672 0.00883198 -0.022573
0.0908203 0.00999943 -0.02556
0.0927734 0.011303 -0.0288973
0.0947266 0.0127565 -0.0326207
0.0966797 0.0143748 -0.0367693
0.0986328 0.016174 -0.0413855
0.100586 0.0181713 -0.0465153
0.102539 0.0203855 -0.0522081
0.104492 0.0228365 -0.0585176
0.106445 0.0255456 -0.065501
0.108398 0.0285353 -0.0732197
0.110352 0.0318295 -0.0817387
0.112305 0.035453 -0.0911269
0.114258 0.0394316 -0.101457
0.116211 0.043792 -0.112802
0.118164 0.0485609 -0.125242
0.120117 0.053765 -0.138853
0.12207 0.0594306 -0.153713
0.124023 0.0655826 -0.1699
0.125977 0.0722438 -0.187485
0.12793 0.0794342 -0.206535
0.129883 0.0871701 -0.22711
0.131836 0.0954628 -0.249255
0.133789 0.104318 -0.273004
0.135742 0.113734 -0.298373
0.137695 0.123702 -0.325356
0.139648 0.134204 -0.353926
0.141602 0.145212 -0.38403
0.143555 0.156692 -0.415588
0.145508 0.168596 -0.448493
0.147461 0.18087 -0.482609
0.149414 0.193451 -0.517776
0.151367 0.206269 -0.553809
0.15332 0.219249 -0.590503
0.155273 0.23231 -0.627639
0.157227 0.245371 -0.664984
0.15918 0.258352 -0.702304
0.161133 0.271172 -0.739362
0.163086 0.283757 -0.775931
0.165039 0.296036 -0.811791
0.166992 0.307946 -0.84674
0.168945 0.319429 -0.880594
0.170898 0.330439 -0.913193
0.172852 0.340934 -0.944397
0.174805 0.350883 -0.974091
0.176758 0.360263 -1.00219
0.178711 0.369057 -1.02861
0.180664 0.377256 -1.05332
0.182617 0.384856 -1.07629
0.18457 0.391861 -1.0975
0.186523 0.398277 -1.11697
0.188477 0.404115 -1.13471
0.19043 0.409389 -1.15076
0.192383 0.414114 -1.16515
0.194336 0.418309 -1.17794
0.196289 0.421994 -1.18916
0.198242 0.425188 -1.19889
0.200195 0.427913 -1.20717
0.202148 0.43019 -1.21407
0.204102 0.432038 -1.21966
0.206055 0.43348 -1.22398
0.208008 0.434534 -1.2271
0.209961 0.435221 -1.22908
0.211914 0.435559 -1.22998
0.213867 0.435566 -1.22986
0.21582 0.43526 -1.22876
0.217773 0.434656 -1.22674
0.219727 0.433772 -1.22385
0.22168 0.432621 -1.22014
0.223633 0.431218 -1.21564
0.225586 0.429577 -1.21042
0.227539 0.42771 -1.2045
0.229492 0.425629 -1.19792
0.231445 0.423345 -1.19073
0.233398 0.420871 -1.18296
0.235352 0.418215 -1.17463
0.237305 0.415387 -1.16579
0.239258 0.412397 -1.15646
0.241211 0.409253 -1.14668
0.243164 0.405964 -1.13646
0.245117 0.402537 -1.12584
0.24707 0.39898 -1.11483
0.249023 0.395299 -1.10347
0.250977 0.391502 -1.09178
0.25293 0.387595 -1.07977
0.254883 0.383583 -1.06747
0.256836 0.379474 -1.05489
0.258789 0.375271 -1.04206
0.260742 0.370981 -1.02898
0.262695 0.366608 -1.01569
0.264648 0.362157 -1.00219
0.266602 0.357634 -0.988502
0.268555 0.353042 -0.974637
0.270508 0.348385 -0.96061
0.272461 0.343668 -0.946435
0.274414 0.338895 -0.932125
0.276367 0.334069 -0.917692
0.27832 0.329195 -0.903149
0.280273 0.324275 -0.888506
0.282227 0.319313 -0.873775
0.28418 0.314313 -0.858967
0.286133 0.309278 -0.844093
0.288086 0.304211 -0.829161
0.290039 0.299114 -0.814182
0.291992 0.293992 -0.799165
0.293945 0.288847 -0.784119
0.295898 0.283681 -0.769053
0.297852 0.278498 -0.753975
0.299805 0.2733 -0.738895
0.301758 0.26809 -0.723819
0.303711 0.262871 -0.708756
0.305664 0.257645 -0.693714
0.307617 0.252415 -0.678699
0.30957 0.247183 -0.66372
0.311523 0.241951 -0.648782
0.313477 0.236723 -0.633895
0.31543 0.231501 -0.619063
0.317383 0.226286 -0.604294
0.319336 0.221082 -0.589594
0.321289 0.215891 -0.57497
0.323242 0.210715 -0.560428
0.325195 0.205556 -0.545974
0.327148 0.200417 -0.531615
0.329102 0.1953 -0.517356
0.331055 0.190207 -0.503204
0.333008 0.185142 -0.489164
0.334961 0.180105 -0.475242
0.336914 0.175099 -0.461444
0.338867 0.170128 -0.447776
0.34082 0.165192 -0.434242
0.342773 0.160294 -0.420849
0.344727 0.155437 -0.407603
0.34668 0.150622 -0.394507
0.348633 0.145853 -0.381569
0.350586 0.141131 -0.368792
0.352539 0.136458 -0.356183
0.354492 0.131838 -0.343747
0.356445 0.127272 -0.331488
0.358398 0.122762 -0.319412
0.360352 0.118312 -0.307524
0.362305 0.113922 -0.295829
0.364258 0.109596 -0.284331
0.366211 0.105335 -0.273035
0.368164 0.101143 -0.261947
0.370117 0.0970201 -0.25107
0.37207 0.0929696 -0.240408
0.374023 0.0889934 -0.229968
0.375977 0.0850938 -0.219751
0.37793 0.0812726 -0.209764
0.379883 0.0775319 -0.200009
0.381836 0.0738737 -0.19049
0.383789 0.0702998 -0.181211
0.385742 0.066812 -0.172175
0.387695 0.0634121 -0.163385
0.389648 0.0601016 -0.154844
0.391602 0.0568821 -0.146555
0.393555 0.0537549 -0.13852
0.395508 0.0507214 -0.130741
0.397461 0.0477828 -0.123219
0.399414 0.0449399 -0.115956
0.401367 0.0421937 -0.108953
0.40332 0.0395448 -0.10221
0.405273 0.0369939 -0.095728
0.407227 0.0345411 -0.0895059
0.40918 0.0321867 -0.0835432
0.411133 0.0299307 -0.0778387
0.413086 0.0277727 -0.0723907
0.415039 0.0257123 -0.0671971
0.416992 0.0237489 -0.0622553
0.418945 0.0218816 -0.057562
0.420898 0.0201093 -0.0531136
0.422852 0.0184306 -0.0489061
0.424805 0.0168442 -0.0449348
0.426758 0.0153481 -0.0411946
0.428711 0.0139406 -0.0376801
0.430664 0.0126195 -0.0343852
0.432617 0.0113824 -0.0313036
0.43457 0.010227 -0.0284286
0.436523 0.00915053 -0.025753
0.438477 0.00815027 -0.0232695
0.44043 0.00722331 -0.0209704
0.442383 0.00636664 -0.0188477
0.444336 0.00557714 -0.0168934
0.446289 0.00485164 -0.0150993
0.448242 0.0041869 -0.0134571
0.450195 0.00357968 -0.0119583
0.452148 0.00302669 -0.0105946
0.454102 0.00252466 -0.0093577
0.456055 0.00207036 -0.00823938
0.458008 0.00166059 -0.00723153
0.459961 0.00129222 -0.00632623
0.461914 0.000962197 -0.00551578
0.463867 0.000667562 -0.0047927
0.46582 0.000405465 -0.0041498
0.467773 0.000173174 -0.00358016
0.469727 -3.19149e-05 -0.00307719
0.47168 -0.000212265 -0.00263462
0.473633 -0.000370194 -0.00224651
0.475586 -0.000507871 -0.00190727
0.477539 -0.000627308 -0.00161164
0.479492 -0.000730361 -0.00135471
0.481445 -0.000818724 -0.00113186
0.483398 -0.000893934 -0.000938821
0.485352 -0.000957366 -0.000771593
0.487305 -0.00101024 -0.000626458
0.489258 -0.00105361 -0.00049994
0.491211 -0.00108838 -0.000388788
0.493164 -0.0011153 -0.00028994
0.495117 -0.00113498 -0.000200493
0.49707 -0.00114785 -0.000117672
0.499023 -0.00115421 -3.87881e-05
0.500977 -0.00115421 3.87886e-05
0.50293 -0.00114785 0.000117672
0.504883 -0.00113498 0.000200494
0.506836 -0.0011153 0.00028994
0.508789 -0.00108838 0.000388789
0.510742 -0.00105361 0.000499941
0.512695 -0.00101024 0.000626458
0.514648 -0.000957366 0.000771595
0.516602 -0.000893934 0.000938822
0.518555 -0.000818724 0.00113186
0.520508 -0.000730361 0.00135471
0.522461 -0.000627308 0.00161164
0.524414 -0.000507871 0.00190727
0.526367 -0.000370194 0.00224651
0.52832 -0.000212264 0.00263462
0.530273 -3.19147e-05 0.00307719
0.532227 0.000173174 0.00358016
0.53418 0.000405466 0.0041498
0.536133 0.000667563 0.0047927
0.538086 0.000962197 0.00551578
0.540039 0.00129222 0.00632623
0.541992 0.00166059 0.00723153
0.543945 0.00207036 0.00823938
0.545898 0.00252466 0.0093577
0.547852 0.00302669 0.0105946
0.549805 0.00357968 0.0119583
0.551758 0.0041869 0.0134571
0.553711 0.00485164 0.0150993
0.555664 0.00557714 0.0168934
0.557617 0.00636664 0.0188477
0.55957 0.00722331 0.0209704
0.561523 0.00815027 0.0232695
0.563477 0.00915053 0.025753
0.56543 0.010227 0.0284286
0.567383 0.0113824 0.0313036
0.569336 0.0126195 0.0343852
0.571289 0.0139406 0.0376801
0.573242 0.0153481 0.0411946
0.575195 0.0168442 0.0449348
0.577148 0.0184306 0.0489061
0.579102 0.0201093 0.0531136
0.581055 0.0218816 0.057562
0.583008 0.0237489 0.0622553
0.584961 0.0257123 0.0671971
0.586914 0.0277727 0.0723907
0.588867 0.0299307 0.0778387
0.59082 0.0321867 0.0835432
0.592773 0.0345411 0.0895059
0.594727 0.0369939 0.095728
0.59668 0.0395448 0.10221
0.598633 0.0421937 0.108953
0.600586 0.0449399 0.115956
0.602539 0.0477828 0.123219
0.604492 0.0507214 0.130741
0.606445 0.0537549 0.13852
0.608398 0.0568821 0.146555
0.610352 0.0601016 0.154844
0.612305 0.0634121 0.163385
0.614258 0.066812 0.172175
0.616211 0.0702998 0.181211
0.618164 0.0738737 0.19049
0.620117 0.0775319 0.200009
0.62207 0.0812726 0.209764
0.624023 0.0850938 0.219751
0.625977 0.0889934 0.229968
0.62793 0.0929696 0.240408
0.629883 0.0970201 0.25107
0.631836 0.101143 0.261947
0.633789 0.105335 0.273035
0.635742 0.109596 0.284331
0.637695 0.113922 0.295829
0.639648 0.118312 0.307524
0.641602 0.122762 0.319412
0.643555 0.127272 0.331488
0.645508 0.131838 0.343747
0.647461 0.136458 0.356183
0.649414 0.141131 0.368792
0.651367 0.145853 0.381569
0.65332 0.150622 0.394507
0.655273 0.155437 0.407603
0.657227 0.160294 0.420849
0.65918 0.165192 0.434242
0.661133 0.170128 0.447776
0.663086 0.175099 0.461444
0.665039 0.180105 0.475242
0.666992 0.185142 0.489164
0.668945 0.190207 0.503204
0.670898 0.1953 0.517356
0.672852 0.200417 0.531615
0.674805 0.205556 0.545974
0.676758 0.210715 0.560428
0.678711 0.215891 0.57497
0.680664 0.221082 0.589594
0.682617 0.226286 0.604294
0.68457 0.231501 0.619063
0.686523 0.236723 0.633895
0.688477 0.241951 0.648782
0.69043 0.247183 0.66372
0.692383 0.252415 0.678699
0.694336 0.257645 0.693714
0.696289 0.262871 0.708756
0.698242 0.26809 0.723819
0.700195 0.2733 0.738895
0.702148 0.278498 0.753975
0.704102 0.283681 0.769053
0.706055 0.288847 0.784119
0.708008 0.293992 0.799165
0.709961 0.299114 0.814182
0.711914 0.304211 0.829161
0.713867 0.309278 0.844093
0.71582 0.314313 0.858967
0.717773 0.319313 0.873775
0.719727 0.324275 0.888506
0.72168 0.329195 0.903149
0.723633 0.334069 0.917692
0.725586 0.338895 0.932125
0.727539 0.343668 0.946435
0.729492 0.348385 0.96061
0.731445 0.353042 0.974637
0.733398 0.357634 0.988502
0.735352 0.362157 1.00219
0.737305 0.366608 1.01569
0.739258 0.370981 1.02898
0.741211 0.375271 1.04206
0.743164 0.379474 1.05489
0.745117 0.383583 1.06747
0.74707 0.387595 1.07977
0.749023 0.391502 1.09178
0.750977 0.395299 1.10347
0.75293 0.39898 1.11483
0.754883 0.402537 1.12584
0.756836 0.405964 1.13646
0.758789 0.409253 1.14668
0.760742 0.412397 1.15646
0.762695 0.415387 1.16579
0.764648 0.418215 1.17463
0.766602 0.420871 1.18296
0.768555 0.423345 1.19073
0.770508 0.425629 1.19792
0.772461 0.42771 1.2045
0.774414 0.429577 1.21042
0.776367 0.431218 1.21564
0.77832 0.432621 1.22014
0.780273 0.433772 1.22385
0.782227 0.434656 1.22674
0.78418 0.43526 1.22876
0.786133 0.435566 1.22986
0.788086 0.435559 1.22998
0.790039 0.435221 1.22908
0.791992 0.434534 1.2271
0.793945 0.43348 1.22398
0.795898 0.432038 1.21966
0.797852 0.43019 1.21407
0.799805 0.427913 1.20717
0.801758 0.425188 1.19889
0.803711 0.421994 1.18916
0.805664 0.418309 1.17794
0.807617 0.414114 1.16515
0.80957 0.409389 1.15076
0.811523 0.404115 1.13471
0.813477 0.398277 1.11697
0.81543 0.391861 1.0975
0.817383 0.384856 1.07629
0.819336 0.377256 1.05332
0.821289 0.369057 1.02861
0.823242 0.360263 1.00219
0.825195 0.350883 0.974091
0.827148 0.340934 0.944397
0.829102 0.330439 0.913193
0.831055 0.319429 0.880594
0.833008 0.307946 0.84674
0.834961 0.296036 0.811791
0.836914 0.283757 0.775931
0.838867 0.271172 0.739362
0.84082 0.258352 0.702304
0.842773 0.245371 0.664984
0.844727 0.23231 0.627639
0.84668 0.219249 0.590503
0.848633 0.206269 0.553809
0.850586 0.193451 0.517776
0.852539 0.18087 0.482609
0.854492 0.168596 0.448493
0.856445 0.156692 0.415588
0.858398 0.145212 0.38403
0.860352 0.134204 0.353926
0.862305 0.123702 0.325356
0.864258 0.113734 0.298373
0.866211 0.104318 0.273004
0.868164 0.0954628 0.249255
0.870117 0.0871701 0.22711
0.87207 0.0794342 0.206535
0.874023 0.0722438 0.187485
0.875977 0.0655826 0.1699
0.87793 0.0594306 0.153713
0.879883 0.053765 0.138853
0.881836 0.0485609 0.125242
0.883789 0.043792 0.112802
0.885742 0.0394316 0.101457
0.887695 0.035453 0.0911269
0.889648 0.0318295 0.0817387
0.891602 0.0285353 0.0732197
0.893555 0.0255456 0.065501
0.895508 0.0228365 0.0585176
0.897461 0.0203855 0.0522081
0.899414 0.0181713 0.0465153
0.901367 0.016174 0.0413855
0.90332 0.0143748 0.0367693
0.905273 0.0127565 0.0326207
0.907227 0.011303 0.0288973
0.90918 0.00999943 0.02556
0.911133 0.00883198 0.022573
0.913086 0.00778803 0.0199032
0.915039 0.00685595 0.0175204
0.916992 0.00602507 0.015397
0.918945 0.00528557 0.0135077
0.920898 0.00462852 0.0118292
0.922852 0.00404569 0.0103407
0.924805 0.00352963 0.00902267
0.926758 0.00307349 0.00785779
0.928711 0.00267107 0.00683007
0.930664 0.00231671 0.00592506
0.932617 0.00200528 0.00512962
0.93457 0.00173212 0.00443186
0.936523 0.00149302 0.00382101
0.938477 0.00128418 0.00328735
0.94043 0.00110214 0.00282212
0.942383 0.000943821 0.0024174
0.944336 0.000806434 0.00206611
0.946289 0.000687481 0.00176188
0.948242 0.000584726 0.001499
0.950195 0.000496172 0.00127238
0.952148 0.000420038 0.00107749
0.954102 0.00035474 0.000910278
0.956055 0.000298873 0.000767169
0.958008 0.000251194 0.000644986
0.959961 0.000210605 0.000540929
0.961914 0.00017614 0.000452535
0.963867 0.000146951 0.000377633
0.96582 0.000122296 0.000314326
0.967773 0.000101525 0.000260956
0.969727 8.40753e-05 0.000216076
0.97168 6.94564e-05 0.00017843
0.973633 5.72448e-05 0.000146928
0.975586 4.70755e-05 0.000120629
0.977539 3.86347e-05 9.8719e-05
0.979492 3.16542e-05 8.05007e-05
0.981445 2.59054e-05 6.53713e-05
0.983398 2.11944e-05 5.28142e-05
0.985352 1.7358e-05 4.23862e-05
0.987305 1.42599e-05 3.37082e-05
0.989258 1.17872e-05 2.64522e-05
0.991211 9.84776e-06 2.03317e-05
0.993164 8.36786e-06 1.51027e-05
0.995117 7.29055e-06 1.05428e-05
0.99707 6.57577e-06 6.44921e-06
0.999023 6.21114e-06 2.59161e-06
