0.000976562 0 0
0.00292969 0 0
0.00488281 0 0
0.00683594 0 0
0.00878906 0 0
0.0107422 0 0
0.0126953 0 0
0.0146484 0 0
0.0166016 0 0
0.0185547 0 0
0.0205078 0 0
0.0224609 0 0
0.0244141 0 0
0.0263672 0 0
0.0283203 0 0
0.0302734 0 0
0.0322266 0 0
0.0341797 0 0
0.0361328 0 0
0.0380859 0 0
0.0400391 0 0
0.0419922 0 0
0.0439453 0 0
0.0458984 0 0
0.0478516 0 0
0.0498047 0 0
0.0517578 0 0
0.0537109 0 0
0.0556641 0 0
0.0576172 0 0
0.0595703 0 0
0.0615234 0 0
0.0634766 0 0
0.0654297 0 0
0.0673828 0 0
0.0693359 0 0
0.0712891 0 0
0.0732422 0 0
0.0751953 0 0
0.0771484 0 0
0.0791016 0 0
0.0810547 0 0
0.0830078 0 0
0.0849609 0 0
0.0869141 0 0
0.0888672 0 0
0.0908203 0 0
0.0927734 0 0
0.0947266 0 0
0.0966797 0 0
0.0986328 0 0
0.100586 0 0
0.102539 0 0
0.104492 0 0
0.106445 0 0
0.108398 0 0
0.110352 0 0
0.112305 0 0
0.114258 0 0
0.116211 0 0
0.118164 0 0
0.120117 0 0
0.12207 0 0
0.124023 0 0
0.125977 0 0
0.12793 0 0
0.129883 0 0
0.131836 0 0
0.133789 0 0
0.135742 0 0
0.137695 0 0
0.139648 0 0
0.141602 0 0
0.143555 0 0
0.145508 0 0
0.147461 0 0
0.149414 0 0
0.151367 0 0
0.15332 0 0
0.155273 0 0
0.157227 0 0
0.15918 0 0
0.161133 0 0
0.163086 0 0
0.165039 0 0
0.166992 0 0
0.168945 0 0
0.170898 0 0
0.172852 0 0
0.174805 0 0
0.176758 0 0
0.178711 0 0
0.180664 0 0
0.182617 0 0
0.18457 0 0
0.186523 0 0
0.188477 0 0
0.19043 0 0
0.192383 0 0
0.194336 0 0
0.196289 0 0
0.198242 0 0
0.200195 0 0
0.202148 0 0
0.204102 0 0
0.206055 0 0
0.208008 0 0
0.209961 0 0
0.211914 0 0
0.213867 0 0
0.21582 0 0
0.217773 0 0
0.219727 0 0
0.22168 0 0
0.223633 0 0
0.225586 0 0
0.227539 0 0
0.229492 0 0
0.231445 0 0
0.233398 0 0
0.235352 0 0
0.237305 0 0
0.239258 0 0
0.241211 0 0
0.243164 0 0
0.245117 0 0
0.24707 0 0
0.249023 0 0
0.250977 0 0
0.25293 0 0
0.254883 0 0
0.256836 0 0
0.258789 0 0
0.260742 0 0
0.262695 0 0
0.264648 0 0
0.266602 0 0
0.268555 0 0
0.270508 0 0
0.272461 0 0
0.274414 0 0
0.276367 0 0
0.27832 0 0
0.280273 0 0
0.282227 0 0
0.28418 0 0
0.286133 0 0
0.288086 0 0
0.290039 0 0
0.291992 0 0
0.293945 0 0
0.295898 0 0
0.297852 0 0
0.299805 7.08726e-10 0
0.301758 1.07032e-07 0
0.303711 1.02403e-06 0
0.305664 4.61069e-06 0
0.307617 1.40382e-05 0
0.30957 3.37788e-05 0
0.311523 6.95842e-05 0
0.313477 0.000128459 0
0.31543 0.000218628 0
0.317383 0.000349495 0
0.319336 0.000531601 0
0.321289 0.000776574 0
0.323242 0.00109707 0
0.325195 0.00150672 0
0.327148 0.00202005 0
0.329102 0.00265244 0
0.331055 0.00342001 0
0.333008 0.00433958 0
0.334961 0.00542855 0
0.336914 0.00670487 0
0.338867 0.00818687 0
0.34082 0.00989327 0
0.342773 0.011843 0
0.344727 0.0140551 0
0.34668 0.0165488 0
0.348633 0.0193431 0
0.350586 0.0224571 0
0.352539 0.0259093 0
0.354492 0.0297181 0
0.356445 0.0339016 0
0.358398 0.0384769 0
0.360352 0.043461 0
0.362305 0.0488698 0
0.364258 0.0547185 0
0.366211 0.0610214 0
0.368164 0.0677917 0
0.370117 0.0750416 0
0.37207 0.0827822 0
0.374023 0.0910232 0
0.375977 0.0997731 0
0.37793 0.109039 0
0.379883 0.118826 0
0.381836 0.129139 0
0.383789 0.13998 0
0.385742 0.151351 0
0.387695 0.163249 0
0.389648 0.175674 0
0.391602 0.18862 0
0.393555 0.202082 0
0.395508 0.216053 0
0.397461 0.230522 0
0.399414 0.245479 0
0.401367 0.26091 0
0.40332 0.276801 0
0.405273 0.293135 0
0.407227 0.309894 0
0.40918 0.327058 0
0.411133 0.344605 0
0.413086 0.362512 0
0.415039 0.380753 0
0.416992 0.399304 0
0.418945 0.418135 0
0.420898 0.437218 0
0.422852 0.456522 0
0.424805 0.476014 0
0.426758 0.495662 0
0.428711 0.515432 0
0.430664 0.535289 0
0.432617 0.555195 0
0.43457 0.575116 0
0.436523 0.595012 0
0.438477 0.614846 0
0.44043 0.63458 0
0.442383 0.654173 0
0.444336 0.673588 0
0.446289 0.692783 0
0.448242 0.711721 0
0.450195 0.730361 0
0.452148 0.748665 0
0.454102 0.766593 0
0.456055 0.784107 0
0.458008 0.80117 0
0.459961 0.817744 0
0.461914 0.833792 0
0.463867 0.84928 0
0.46582 0.864172 0
0.467773 0.878436 0
0.469727 0.892039 0
0.47168 0.904951 0
0.473633 0.917142 0
0.475586 0.928585 0
0.477539 0.939252 0
0.479492 0.94912 0
0.481445 0.958166 0
0.483398 0.966368 0
0.485352 0.973708 0
0.487305 0.980168 0
0.489258 0.985734 0
0.491211 0.990393 0
0.493164 0.994133 0
0.495117 0.996945 0
0.49707 0.998824 0
0.499023 0.999765 0
0.500977 0.999765 0
0.50293 0.998824 0
0.504883 0.996945 0
0.506836 0.994133 0
0.508789 0.990393 0
0.510742 0.985734 0
0.512695 0.980168 0
0.514648 0.973708 0
0.516602 0.966368 0
0.518555 0.958166 0
0.520508 0.94912 0
0.522461 0.939252 0
0.524414 0.928585 0
0.526367 0.917142 0
0.52832 0.904951 0
0.530273 0.892039 0
0.532227 0.878436 0
0.53418 0.864172 0
0.536133 0.84928 0
0.538086 0.833792 0
0.540039 0.817744 0
0.541992 0.80117 0
0.543945 0.784107 0
0.545898 0.766593 0
0.547852 0.748665 0
0.549805 0.730361 0
0.551758 0.711721 0
0.553711 0.692783 0
0.555664 0.673588 0
0.557617 0.654173 0
0.55957 0.63458 0
0.561523 0.614846 0
0.563477 0.595012 0
0.56543 0.575116 0
0.567383 0.555195 0
0.569336 0.535289 0
0.571289 0.515432 0
0.573242 0.495662 0
0.575195 0.476014 0
0.577148 0.456522 0
0.579102 0.437218 0
0.581055 0.418135 0
0.583008 0.399304 0
0.584961 0.380753 0
0.586914 0.362512 0
0.588867 0.344605 0
0.59082 0.327058 0
0.592773 0.309894 0
0.594727 0.293135 0
0.59668 0.276801 0
0.598633 0.26091 0
0.600586 0.245479 0
0.602539 0.230522 0
0.604492 0.216053 0
0.606445 0.202082 0
0.608398 0.18862 0
0.610352 0.175674 0
0.612305 0.163249 0
0.614258 0.151351 0
0.616211 0.13998 0
0.618164 0.129139 0
0.620117 0.118826 0
0.62207 0.109039 0
0.624023 0.0997731 0
0.625977 0.0910232 0
0.62793 0.0827822 0
0.629883 0.0750416 0
0.631836 0.0677917 0
0.633789 0.0610214 0
0.635742 0.0547185 0
0.637695 0.0488698 0
0.639648 0.043461 0
0.641602 0.0384769 0
0.643555 0.0339016 0
0.645508 0.0297181 0
0.647461 0.0259093 0
0.649414 0.0224571 0
0.651367 0.0193431 0
0.65332 0.0165488 0
0.655273 0.0140551 0
0.657227 0.011843 0
0.65918 0.00989327 0
0.661133 0.00818687 0
0.663086 0.00670487 0
0.665039 0.00542855 0
0.666992 0.00433958 0
0.668945 0.00342001 0
0.670898 0.00265244 0
0.672852 0.00202005 0
0.674805 0.00150672 0
0.676758 0.00109707 0
0.678711 0.000776574 0
0.680664 0.000531601 0
0.682617 0.000349495 0
0.68457 0.000218628 0
0.686523 0.000128459 0
0.688477 6.95842e-05 0
0.69043 3.37788e-05 0
0.692383 1.40382e-05 0
0.694336 4.61069e-06 0
0.696289 1.02403e-06 0
0.698242 1.07032e-07 0
0.700195 7.08726e-10 0
0.702148 0 0
0.704102 0 0
0.706055 0 0
0.708008 0 0
0.709961 0 0
0.711914 0 0
0.713867 0 0
0.71582 0 0
0.717773 0 0
0.719727 0 0
0.72168 0 0
0.723633 0 0
0.725586 0 0
0.727539 0 0
0.729492 0 0
0.731445 0 0
0.733398 0 0
0.735352 0 0
0.737305 0 0
0.739258 0 0
0.741211 0 0
0.743164 0 0
0.745117 0 0
0.74707 0 0
0.749023 0 0
0.750977 0 0
0.75293 0 0
0.754883 0 0
0.756836 0 0
0.758789 0 0
0.760742 0 0
0.762695 0 0
0.764648 0 0
0.766602 0 0
0.768555 0 0
0.770508 0 0
0.772461 0 0
0.774414 0 0
0.776367 0 0
0.77832 0 0
0.780273 0 0
0.782227 0 0
0.78418 0 0
0.786133 0 0
0.788086 0 0
0.790039 0 0
0.791992 0 0
0.793945 0 0
0.795898 0 0
0.797852 0 0
0.799805 0 0
0.801758 0 0
0.803711 0 0
0.805664 0 0
0.807617 0 0
0.80957 0 0
0.811523 0 0
0.813477 0 0
0.81543 0 0
0.817383 0 0
0.819336 0 0
0.821289 0 0
0.823242 0 0
0.825195 0 0
0.827148 0 0
0.829102 0 0
0.831055 0 0
0.833008 0 0
0.834961 0 0
0.836914 0 0
0.838867 0 0
0.84082 0 0
0.842773 0 0
0.844727 0 0
0.84668 0 0
0.848633 0 0
0.850586 0 0
0.852539 0 0
0.854492 0 0
0.856445 0 0
0.858398 0 0
0.860352 0 0
0.862305 0 0
0.864258 0 0
0.866211 0 0
0.868164 0 0
0.870117 0 0
0.87207 0 0
0.874023 0 0
0.875977 0 0
0.87793 0 0
0.879883 0 0
0.881836 0 0
0.883789 0 0
0.885742 0 0
0.887695 0 0
0.889648 0 0
0.891602 0 0
0.893555 0 0
0.895508 0 0
0.897461 0 0
0.899414 0 0
0.901367 0 0
0.90332 0 0
0.905273 0 0
0.907227 0 0
0.90918 0 0
0.911133 0 0
0.913086 0 0
0.915039 0 0
0.916992 0 0
0.918945 0 0
0.920898 0 0
0.922852 0 0
0.924805 0 0
0.926758 0 0
0.928711 0 0
0.930664 0 0
0.932617 0 0
0.93457 0 0
0.936523 0 0
0.938477 0 0
0.94043 0 0
0.942383 0 0
0.944336 0 0
0.946289 0 0
0.948242 0 0
0.950195 0 0
0.952148 0 0
0.954102 0 0
0.956055 0 0
0.958008 0 0
0.959961 0 0
0.961914 0 0
0.963867 0 0
0.96582 0 0
0.967773 0 0
0.969727 0 0
0.97168 0 0
0.973633 0 0
0.975586 0 0
0.977539 0 0
0.979492 0 0
0.981445 0 0
0.983398 0 0
0.985352 0 0
0.987305 0 0
0.989258 0 0
0.991211 0 0
0.993164 0 0
0.995117 0 0
0.99707 0 0
0.999023 0 0
