0.000976562 -4.8381e-09 6.5268e-09
0.00292969 -4.74065e-09 5.66645e-09
0.00488281 -4.64576e-09 4.06473e-09
0.00683594 -4.62214e-09 3.80135e-09
0.00878906 -4.57746e-09 4.17617e-09
0.0107422 -4.48824e-09 3.72346e-09
0.0126953 -4.40492e-09 6.09006e-09
0.0146484 -4.32197e-09 4.76763e-09
0.0166016 -4.17075e-09 4.47919e-09
0.0185547 -3.87751e-09 3.06057e-09
0.0205078 -3.493e-09 1.44023e-09
0.0224609 -2.98317e-09 1.46042e-09
0.0244141 -2.3079e-09 -9.7104e-12
0.0263672 -1.39163e-09 -1.88078e-09
0.0283203 -9.9043e-11 -4.52959e-09
0.0302734 1.60717e-09 -7.89663e-09
0.0322266 3.91301e-09 -1.43243e-08
0.0341797 7.09565e-09 -2.1753e-08
0.0361328 1.13724e-08 -3.31163e-08
0.0380859 1.71436e-08 -4.72458e-08
0.0400391 2.49394e-08 -6.68224e-08
0.0419922 3.54251e-08 -9.3993e-08
0.0439453 4.95089e-08 -1.30063e-07
0.0458984 6.83156e-08 -1.79544e-07
0.0478516 9.34385e-08 -2.44717e-07
0.0498047 1.26905e-07 -3.30969e-07
0.0517578 1.71341e-07 -4.46103e-07
0.0537109 2.30078e-07 -5.99176e-07
0.0556641 3.07471e-07 -8.00717e-07
0.0576172 4.09187e-07 -1.06517e-06
0.0595703 5.42338e-07 -1.4122e-06
0.0615234 7.16053e-07 -1.86434e-06
0.0634766 9.41914e-07 -2.45117e-06
0.0654297 1.23451e-06 -3.21076e-06
0.0673828 1.6122e-06 -4.19245e-06
0.0693359 2.098e-06 -5.45295e-06
0.0712891 2.72064e-06 -7.06938e-06
0.0732422 3.5158e-06 -9.13253e-06
0.0751953 4.52768e-06 -1.17555e-05
0.0771484 5.8107e-06 -1.50786e-05
0.0791016 7.43164e-06 -1.92759e-05
0.0810547 9.47216e-06 -2.4558e-05
0.0830078 1.20317e-05 -3.11787e-05
0.0849609 1.52307e-05 -3.9449e-05
0.0869141 1.92148e-05 -4.97446e-05
0.0888672 2.41587e-05 -6.25139e-05
0.0908203 3.0272e-05 -7.82948e-05
0.0927734 3.78044e-05 -9.77278e-05
0.0947266 4.70523e-05 -0.000121577
0.0966797 5.83666e-05 -0.00015074
0.0986328 7.21603e-05 -0.000186273
0.100586 8.89182e-05 -0.000229423
0.102539 0.000109207 -0.000281636
0.104492 0.000133684 -0.0003446
0.106445 0.000163116 -0.000420267
0.108398 0.000198382 -0.000510895
0.110352 0.000240499 -0.000619076
0.112305 0.000290627 -0.000747775
0.114258 0.000350096 -0.000900383
0.116211 0.000420412 -0.00108075
0.118164 0.000503288 -0.00129324
0.120117 0.000600652 -0.00154278
0.12207 0.000714678 -0.0018349
0.124023 0.000847802 -0.00217582
0.125977 0.00100275 -0.00257247
0.12793 0.00118254 -0.00303259
0.129883 0.00139056 -0.00356477
0.131836 0.00163053 -0.0041785
0.133789 0.00190657 -0.0048843
0.135742 0.0022232 -0.00569371
0.137695 0.0025854 -0.00661943
0.139648 0.00299861 -0.00767538
0.141602 0.00346879 -0.00887674
0.143555 0.0040024 -0.0102401
0.145508 0.00460648 -0.0117835
0.147461 0.00528867 -0.0135266
0.149414 0.00605722 -0.0154905
0.151367 0.00692103 -0.0176982
0.15332 0.00788972 -0.0201745
0.155273 0.00897359 -0.0229462
0.157227 0.0101837 -0.0260419
0.15918 0.0115319 -0.0294926
0.161133 0.0130309 -0.0333313
0.163086 0.014694 -0.0375933
0.165039 0.0165356 -0.0423165
0.166992 0.0185707 -0.0475409
0.168945 0.0208155 -0.0533093
0.170898 0.0232866 -0.0596668
0.172852 0.0260016 -0.0666609
0.174805 0.0289789 -0.0743417
0.176758 0.0322373 -0.0827614
0.178711 0.0357963 -0.0919744
0.180664 0.0396759 -0.102037
0.182617 0.0438961 -0.113006
0.18457 0.048477 -0.12494
0.186523 0.0534384 -0.137898
0.188477 0.0587993 -0.151938
0.19043 0.0645778 -0.167116
0.192383 0.0707905 -0.183486
0.194336 0.0774519 -0.201096
0.196289 0.0845741 -0.219993
0.198242 0.0921659 -0.240211
0.200195 0.100232 -0.26178
0.202148 0.108774 -0.284716
0.204102 0.117788 -0.309025
0.206055 0.127263 -0.334696
0.208008 0.137184 -0.361704
0.209961 0.14753 -0.390007
0.211914 0.158272 -0.419545
0.213867 0.169377 -0.450237
0.21582 0.180804 -0.481987
0.217773 0.192507 -0.514678
0.219727 0.204434 -0.548179
0.22168 0.216531 -0.582342
0.223633 0.22874 -0.617008
0.225586 0.240999 -0.652006
0.227539 0.253248 -0.687161
0.229492 0.265424 -0.722293
0.231445 0.277468 -0.757223
0.233398 0.289322 -0.791775
0.235352 0.30093 -0.825778
0.237305 0.312244 -0.859072
0.239258 0.323216 -0.891508
0.241211 0.333807 -0.92295
0.243164 0.34398 -0.953277
0.245117 0.353706 -0.982382
0.24707 0.362961 -1.01018
0.249023 0.371724 -1.03658
0.250977 0.379983 -1.06155
0.25293 0.387727 -1.08502
0.254883 0.394951 -1.10697
0.256836 0.401654 -1.12738
0.258789 0.407836 -1.14624
0.260742 0.413504 -1.16356
0.262695 0.418663 -1.17935
0.264648 0.423324 -1.19362
0.266602 0.427497 -1.2064
0.268555 0.431194 -1.21773
0.270508 0.434429 -1.22763
0.272461 0.437216 -1.23616
0.274414 0.43957 -1.24333
0.276367 0.441505 -1.24921
0.27832 0.443036 -1.25384
0.280273 0.44418 -1.25725
0.282227 0.444951 -1.25951
0.28418 0.445364 -1.26064
0.286133 0.445433 -1.26071
0.288086 0.445174 -1.25974
0.290039 0.4446 -1.2578
0.291992 0.443724 -1.25492
0.293945 0.442561 -1.25114
0.295898 0.441122 -1.2465
0.297852 0.43942 -1.24105
0.299805 0.437468 -1.23483
0.301758 0.435275 -1.22787
0.303711 0.432855 -1.2202
0.305664 0.430216 -1.21187
0.307617 0.42737 -1.20291
0.30957 0.424325 -1.19335
0.311523 0.421093 -1.18322
0.313477 0.417681 -1.17255
0.31543 0.414098 -1.16138
0.317383 0.410353 -1.14972
0.319336 0.406454 -1.13762
0.321289 0.402408 -1.12508
0.323242 0.398223 -1.11215
0.325195 0.393907 -1.09884
0.327148 0.389465 -1.08518
0.329102 0.384905 -1.07119
0.331055 0.380234 -1.05689
0.333008 0.375456 -1.0423
0.334961 0.370579 -1.02744
0.336914 0.365608 -1.01234
0.338867 0.360549 -0.997004
0.34082 0.355407 -0.98146
0.342773 0.350188 -0.965723
0.344727 0.344896 -0.94981
0.34668 0.339537 -0.933736
0.348633 0.334115 -0.917519
0.350586 0.328635 -0.901173
0.352539 0.323102 -0.884714
0.354492 0.31752 -0.868155
0.356445 0.311893 -0.851511
0.358398 0.306227 -0.834795
0.360352 0.300524 -0.818021
0.362305 0.294789 -0.801201
0.364258 0.289026 -0.784347
0.366211 0.283239 -0.767473
0.368164 0.277432 -0.750589
0.370117 0.271608 -0.733707
0.37207 0.265771 -0.716838
0.374023 0.259926 -0.699994
0.375977 0.254075 -0.683184
0.37793 0.248222 -0.666419
0.379883 0.242371 -0.64971
0.381836 0.236525 -0.633066
0.383789 0.230688 -0.616497
0.385742 0.224863 -0.600012
0.387695 0.219053 -0.583621
0.389648 0.213262 -0.567333
0.391602 0.207494 -0.551156
0.393555 0.201751 -0.535101
0.395508 0.196037 -0.519174
0.397461 0.190355 -0.503386
0.399414 0.184708 -0.487743
0.401367 0.1791 -0.472254
0.40332 0.173534 -0.456928
0.405273 0.168014 -0.441771
0.407227 0.162542 -0.426793
0.40918 0.157121 -0.412
0.411133 0.151755 -0.3974
0.413086 0.146447 -0.383
0.415039 0.141201 -0.368808
0.416992 0.136019 -0.35483
0.418945 0.130904 -0.341074
0.420898 0.12586 -0.327546
0.422852 0.12089 -0.314253
0.424805 0.115996 -0.301201
0.426758 0.111183 -0.288396
0.428711 0.106452 -0.275845
0.430664 0.101807 -0.263553
0.432617 0.0972509 -0.251525
0.43457 0.0927866 -0.239767
0.436523 0.088417 -0.228284
0.438477 0.084145 -0.21708
0.44043 0.0799734 -0.206159
0.442383 0.0759048 -0.195525
0.444336 0.0719421 -0.185181
0.446289 0.0680879 -0.17513
0.448242 0.0643449 -0.165374
0.450195 0.0607155 -0.155914
0.452148 0.0572024 -0.146752
0.454102 0.053808 -0.137887
0.456055 0.0505347 -0.12932
0.458008 0.0473848 -0.121047
0.459961 0.0443606 -0.113067
0.461914 0.0414643 -0.105377
0.463867 0.0386982 -0.0979717
0.46582 0.0360642 -0.0908466
0.467773 0.0335644 -0.083995
0.469727 0.0312006 -0.0774094
0.47168 0.0289749 -0.0710812
0.473633 0.0268889 -0.0650007
0.475586 0.0249444 -0.0591569
0.477539 0.0231428 -0.0535378
0.479492 0.0214859 -0.0481304
0.481445 0.0199749 -0.0429203
0.483398 0.0186111 -0.0378924
0.485352 0.0173958 -0.0330304
0.487305 0.0163299 -0.0283172
0.489258 0.0154146 -0.0237347
0.491211 0.0146505 -0.0192641
0.493164 0.0140384 -0.0148862
0.495117 0.0135788 -0.0105807
0.49707 0.0132721 -0.0063275
0.499023 0.0131188 -0.00210566
0.500977 0.0131188 0.00210567
0.50293 0.0132721 0.0063275
0.504883 0.0135788 0.0105808
0.506836 0.0140384 0.0148862
0.508789 0.0146505 0.0192641
0.510742 0.0154146 0.0237347
0.512695 0.0163299 0.0283172
0.514648 0.0173958 0.0330304
0.516602 0.0186111 0.0378924
0.518555 0.0199749 0.0429203
0.520508 0.0214859 0.0481304
0.522461 0.0231428 0.0535378
0.524414 0.0249444 0.0591569
0.526367 0.0268889 0.0650007
0.52832 0.0289749 0.0710813
0.530273 0.0312006 0.0774095
0.532227 0.0335644 0.083995
0.53418 0.0360642 0.0908466
0.536133 0.0386982 0.0979717
0.538086 0.0414643 0.105377
0.540039 0.0443606 0.113067
0.541992 0.0473848 0.121047
0.543945 0.0505347 0.12932
0.545898 0.053808 0.137887
0.547852 0.0572024 0.146752
0.549805 0.0607155 0.155914
0.551758 0.0643449 0.165374
0.553711 0.0680879 0.17513
0.555664 0.0719421 0.185181
0.557617 0.0759048 0.195525
0.55957 0.0799734 0.206159
0.561523 0.084145 0.21708
0.563477 0.088417 0.228284
0.56543 0.0927866 0.239767
0.567383 0.0972509 0.251525
0.569336 0.101807 0.263553
0.571289 0.106452 0.275845
0.573242 0.111183 0.288396
0.575195 0.115996 0.301201
0.577148 0.12089 0.314253
0.579102 0.12586 0.327546
0.581055 0.130904 0.341074
0.583008 0.136019 0.35483
0.584961 0.141201 0.368808
0.586914 0.146447 0.383
0.588867 0.151755 0.3974
0.59082 0.157121 0.412
0.592773 0.162542 0.426793
0.594727 0.168014 0.441771
0.59668 0.173534 0.456928
0.598633 0.1791 0.472254
0.600586 0.184708 0.487743
0.602539 0.190355 0.503386
0.604492 0.196037 0.519174
0.606445 0.201751 0.535101
0.608398 0.207494 0.551156
0.610352 0.213262 0.567333
0.612305 0.219053 0.583621
0.614258 0.224863 0.600012
0.616211 0.230688 0.616497
0.618164 0.236525 0.633066
0.620117 0.242371 0.64971
0.62207 0.248222 0.666419
0.624023 0.254075 0.683184
0.625977 0.259926 0.699994
0.62793 0.265771 0.716838
0.629883 0.271608 0.733707
0.631836 0.277432 0.750589
0.633789 0.283239 0.767473
0.635742 0.289026 0.784347
0.637695 0.294789 0.801201
0.639648 0.300524 0.818021
0.641602 0.306227 0.834795
0.643555 0.311893 0.851511
0.645508 0.31752 0.868155
0.647461 0.323102 0.884714
0.649414 0.328635 0.901173
0.651367 0.334115 0.917519
0.65332 0.339537 0.933736
0.655273 0.344896 0.94981
0.657227 0.350188 0.965723
0.65918 0.355407 0.98146
0.661133 0.360549 0.997004
0.663086 0.365608 1.01234
0.665039 0.370579 1.02744
0.666992 0.375456 1.0423
0.668945 0.380234 1.05689
0.670898 0.384905 1.07119
0.672852 0.389465 1.08518
0.674805 0.393907 1.09884
0.676758 0.398223 1.11215
0.678711 0.402408 1.12508
0.680664 0.406454 1.13762
0.682617 0.410353 1.14972
0.68457 0.414098 1.16138
0.686523 0.417681 1.17255
0.688477 0.421093 1.18322
0.69043 0.424325 1.19335
0.692383 0.42737 1.20291
0.694336 0.430216 1.21187
0.696289 0.432855 1.2202
0.698242 0.435275 1.22787
0.700195 0.437468 1.23483
0.702148 0.43942 1.24105
0.704102 0.441122 1.2465
0.706055 0.442561 1.25114
0.708008 0.443724 1.25492
0.709961 0.4446 1.2578
0.711914 0.445174 1.25974
0.713867 0.445433 1.26071
0.71582 0.445364 1.26064
0.717773 0.444951 1.25951
0.719727 0.44418 1.25725
0.72168 0.443036 1.25384
0.723633 0.441505 1.24921
0.725586 0.43957 1.24333
0.727539 0.437216 1.23616
0.729492 0.434429 1.22763
0.731445 0.431194 1.21773
0.733398 0.427497 1.2064
0.735352 0.423324 1.19362
0.737305 0.418663 1.17935
0.739258 0.413504 1.16356
0.741211 0.407836 1.14624
0.743164 0.401654 1.12738
0.745117 0.394951 1.10697
0.74707 0.387727 1.08502
0.749023 0.379983 1.06155
0.750977 0.371724 1.03658
0.75293 0.362961 1.01018
0.754883 0.353706 0.982382
0.756836 0.34398 0.953277
0.758789 0.333807 0.92295
0.760742 0.323216 0.891508
0.762695 0.312244 0.859072
0.764648 0.30093 0.825778
0.766602 0.289322 0.791775
0.768555 0.277468 0.757223
0.770508 0.265424 0.722293
0.772461 0.253248 0.687161
0.774414 0.240999 0.652006
0.776367 0.22874 0.617008
0.77832 0.216531 0.582342
0.780273 0.204434 0.548179
0.782227 0.192507 0.514678
0.78418 0.180804 0.481987
0.786133 0.169377 0.450237
0.788086 0.158272 0.419545
0.790039 0.14753 0.390007
0.791992 0.137184 0.361704
0.793945 0.127263 0.334696
0.795898 0.117788 0.309025
0.797852 0.108774 0.284716
0.799805 0.100232 0.26178
0.801758 0.0921659 0.240211
0.803711 0.0845741 0.219993
0.805664 0.0774519 0.201096
0.807617 0.0707905 0.183486
0.80957 0.0645778 0.167116
0.811523 0.0587993 0.151938
0.813477 0.0534384 0.137898
0.81543 0.048477 0.12494
0.817383 0.0438961 0.113006
0.819336 0.0396759 0.102037
0.821289 0.0357963 0.0919744
0.823242 0.0322373 0.0827614
0.825195 0.0289789 0.0743417
0.827148 0.0260016 0.0666609
0.829102 0.0232866 0.0596668
0.831055 0.0208155 0.0533093
0.833008 0.0185707 0.047541
0.834961 0.0165356 0.0423165
0.836914 0.014694 0.0375933
0.838867 0.0130309 0.0333313
0.84082 0.0115319 0.0294926
0.842773 0.0101837 0.026042
0.844727 0.00897359 0.0229462
0.84668 0.00788972 0.0201745
0.848633 0.00692103 0.0176982
0.850586 0.00605722 0.0154905
0.852539 0.00528867 0.0135266
0.854492 0.00460648 0.0117835
0.856445 0.0040024 0.0102401
0.858398 0.00346879 0.00887676
0.860352 0.00299861 0.00767538
0.862305 0.0025854 0.00661944
0.864258 0.0022232 0.00569372
0.866211 0.00190657 0.00488431
0.868164 0.00163053 0.00417851
0.870117 0.00139056 0.00356478
0.87207 0.00118254 0.0030326
0.874023 0.00100275 0.00257248
0.875977 0.000847802 0.00217583
0.87793 0.000714678 0.00183491
0.879883 0.000600652 0.00154279
0.881836 0.000503288 0.00129325
0.883789 0.000420413 0.00108076
0.885742 0.000350096 0.000900394
0.887695 0.000290628 0.000747784
0.889648 0.000240499 0.000619085
0.891602 0.000198382 0.000510905
0.893555 0.000163116 0.000420278
0.895508 0.000133685 0.00034461
0.897461 0.000109207 0.000281645
0.899414 8.89187e-05 0.000229432
0.901367 7.21607e-05 0.000186283
0.90332 5.83669e-05 0.000150748
0.905273 4.70525e-05 0.000121586
0.907227 3.78045e-05 9.77365e-05
0.90918 3.02722e-05 7.83038e-05
0.911133 2.4159e-05 6.25226e-05
0.913086 1.92151e-05 4.97529e-05
0.915039 1.52311e-05 3.94583e-05
0.916992 1.20321e-05 3.11865e-05
0.918945 9.47248e-06 2.45655e-05
0.920898 7.43182e-06 1.92863e-05
0.922852 5.81075e-06 1.50893e-05
0.924805 4.52765e-06 1.17647e-05
0.926758 3.51569e-06 9.14189e-06
0.928711 2.72042e-06 7.08087e-06
0.930664 2.09771e-06 5.4639e-06
0.932617 1.61185e-06 4.20347e-06
0.93457 1.23417e-06 3.22234e-06
0.936523 9.41604e-07 2.46203e-06
0.938477 7.1575e-07 1.87572e-06
0.94043 5.42016e-07 1.42419e-06
0.942383 4.08852e-07 1.07797e-06
0.944336 3.07168e-07 8.13453e-07
0.946289 2.29729e-07 6.11747e-07
0.948242 1.70971e-07 4.59319e-07
0.950195 1.26592e-07 3.43676e-07
0.952148 9.31151e-08 2.56542e-07
0.954102 6.79902e-08 1.90802e-07
0.956055 4.92704e-08 1.42321e-07
0.958008 3.53549e-08 1.05775e-07
0.959961 2.5001e-08 8.01975e-08
0.961914 1.73322e-08 5.93818e-08
0.963867 1.16867e-08 4.449e-08
0.96582 7.40271e-09 3.38864e-08
0.967773 4.12918e-09 2.53831e-08
0.969727 1.69984e-09 1.97702e-08
0.97168 -1.38789e-10 1.59452e-08
0.973633 -1.5109e-09 1.31848e-08
0.975586 -2.49846e-09 1.04439e-08
0.977539 -3.24003e-09 9.38411e-09
0.979492 -3.77629e-09 8.90588e-09
0.981445 -4.15635e-09 8.2858e-09
0.983398 -4.42388e-09 7.93626e-09
0.985352 -4.58409e-09 7.35e-09
0.987305 -4.65916e-09 7.10073e-09
0.989258 -4.73791e-09 6.33559e-09
0.991211 -4.8207e-09 7.22409e-09
0.993164 -4.83565e-09 6.69704e-09
0.995117 -4.86674e-09 5.86631e-09
0.99707 -4.88538e-09 6.86057e-09
0.999023 -4.87167e-09 5.77658e-09
