0.000976562 -2.98542e-09 -9.777e-10
0.00292969 -3.02949e-09 -8.67857e-10
0.00488281 -3.06588e-09 -1.04865e-09
0.00683594 -3.11256e-09 -1.6379e-09
0.00878906 -3.14546e-09 -1.98781e-09
0.0107422 -3.18582e-09 -1.75729e-09
0.0126953 -3.22336e-09 -1.36771e-09
0.0146484 -3.19581e-09 -8.43079e-10
0.0166016 -3.1376e-09 -6.46753e-10
0.0185547 -3.08707e-09 -7.48639e-11
0.0205078 -3.01255e-09 -1.77649e-10
0.0224609 -2.93822e-09 -5.9482e-10
0.0244141 -2.82173e-09 -2.82465e-11
0.0263672 -2.68232e-09 -4.93918e-10
0.0283203 -2.55506e-09 3.43645e-10
0.0302734 -2.40131e-09 1.42573e-10
0.0322266 -2.29898e-09 -3.18689e-10
0.0341797 -2.16646e-09 4.27127e-10
0.0361328 -1.99666e-09 2.88606e-10
0.0380859 -1.87827e-09 2.71744e-10
0.0400391 -1.80172e-09 7.50965e-10
0.0419922 -1.68515e-09 1.24214e-09
0.0439453 -1.5663e-09 1.38236e-09
0.0458984 -1.43933e-09 1.21448e-09
0.0478516 -1.25806e-09 1.97069e-09
0.0498047 -1.10785e-09 1.96156e-09
0.0517578 -1.00326e-09 2.06376e-09
0.0537109 -8.99051e-10 2.25536e-09
0.0556641 -8.31089e-10 2.58794e-09
0.0576172 -7.60815e-10 2.55687e-09
0.0595703 -6.3886e-10 3.40813e-09
0.0615234 -4.87462e-10 3.57743e-09
0.0634766 -3.68014e-10 3.6143e-09
0.0654297 -3.24229e-10 3.94241e-09
0.0673828 -2.96683e-10 4.31155e-09
0.0693359 -1.75804e-10 4.59929e-09
0.0712891 2.28266e-11 5.19378e-09
0.0732422 1.88465e-10 5.4324e-09
0.0751953 2.43154e-10 4.68463e-09
0.0771484 2.34162e-10 4.67581e-09
0.0791016 2.54818e-10 4.92224e-09
0.0810547 3.17103e-10 5.23871e-09
0.0830078 3.79726e-10 4.91376e-09
0.0849609 3.85933e-10 5.3837e-09
0.0869141 3.65648e-10 5.21932e-09
0.0888672 3.38906e-10 5.79934e-09
0.0908203 3.36089e-10 6.00729e-09
0.0927734 3.59795e-10 5.56982e-09
0.0947266 3.90203e-10 5.56001e-09
0.0966797 4.28916e-10 5.14274e-09
0.0986328 5.242e-10 5.1851e-09
0.100586 6.77203e-10 5.08205e-09
0.102539 7.93281e-10 4.33285e-09
0.104492 9.26701e-10 3.76528e-09
0.106445 1.10891e-09 3.45839e-09
0.108398 1.38507e-09 2.67653e-09
0.110352 1.83574e-09 8.3535e-10
0.112305 2.53505e-09 -3.80724e-10
0.114258 3.59781e-09 -3.82032e-09
0.116211 5.12906e-09 -8.06845e-09
0.118164 7.34696e-09 -1.39565e-08
0.120117 1.05905e-08 -2.22216e-08
0.12207 1.5308e-08 -3.47447e-08
0.124023 2.20973e-08 -5.26472e-08
0.125977 3.18102e-08 -7.82111e-08
0.12793 4.55908e-08 -1.14502e-07
0.129883 6.5047e-08 -1.65911e-07
0.131836 9.24949e-08 -2.37872e-07
0.133789 1.31022e-07 -3.38514e-07
0.135742 1.84764e-07 -4.80014e-07
0.137695 2.59339e-07 -6.75891e-07
0.139648 3.62286e-07 -9.45759e-07
0.141602 5.03701e-07 -1.31651e-06
0.143555 6.97018e-07 -1.82232e-06
0.145508 9.59905e-07 -2.5095e-06
0.147461 1.31555e-06 -3.43886e-06
0.149414 1.79422e-06 -4.6897e-06
0.151367 2.43517e-06 -6.36252e-06
0.15332 3.28896e-06 -8.58895e-06
0.155273 4.42037e-06 -1.1538e-05
0.157227 5.91186e-06 -1.54224e-05
0.15918 7.86786e-06 -2.05123e-05
0.161133 1.04197e-05 -2.7148e-05
0.163086 1.37313e-05 -3.57541e-05
0.165039 1.80065e-05 -4.68548e-05
0.166992 2.34971e-05 -6.11005e-05
0.168945 3.05115e-05 -7.92866e-05
0.170898 3.94262e-05 -0.000102383
0.172852 5.06972e-05 -0.000131561
0.174805 6.48735e-05 -0.000168234
0.176758 8.26122e-05 -0.00021409
0.178711 0.000104695 -0.000271133
0.180664 0.000132045 -0.000341732
0.182617 0.000165748 -0.000428668
0.18457 0.000207071 -0.000535184
0.186523 0.000257485 -0.000665045
0.188477 0.000318688 -0.000822588
0.19043 0.000392626 -0.00101279
0.192383 0.00048152 -0.00124131
0.194336 0.000587888 -0.00151459
0.196289 0.000714571 -0.00183986
0.198242 0.000864754 -0.00222524
0.200195 0.00104199 -0.0026798
0.202148 0.00125023 -0.00321358
0.204102 0.00149383 -0.0038377
0.206055 0.00177757 -0.00456433
0.208008 0.00210669 -0.00540685
0.209961 0.00248691 -0.00637978
0.211914 0.0029244 -0.0074989
0.213867 0.00342583 -0.00878126
0.21582 0.00399838 -0.0102452
0.217773 0.00464975 -0.0119104
0.219727 0.00538813 -0.0137979
0.22168 0.00622224 -0.01593
0.223633 0.00716131 -0.0183306
0.225586 0.00821509 -0.0210249
0.227539 0.00939385 -0.0240394
0.229492 0.0107083 -0.0274021
0.231445 0.0121698 -0.0311423
0.233398 0.0137899 -0.0352909
0.235352 0.0155809 -0.0398798
0.237305 0.0175552 -0.0449425
0.239258 0.0197259 -0.0505135
0.241211 0.0221062 -0.0566287
0.243164 0.0247096 -0.0633249
0.245117 0.02755 -0.0706399
0.24707 0.0306412 -0.0786123
0.249023 0.0339971 -0.0872813
0.250977 0.0376316 -0.0966866
0.25293 0.0415584 -0.106868
0.254883 0.0457909 -0.117864
0.256836 0.0503419 -0.129715
0.258789 0.0552236 -0.142459
0.260742 0.0604473 -0.156131
0.262695 0.0660234 -0.170766
0.264648 0.0719607 -0.186396
0.266602 0.0782666 -0.203049
0.268555 0.0849466 -0.22075
0.270508 0.0920043 -0.239518
0.272461 0.0994408 -0.259367
0.274414 0.107255 -0.280304
0.276367 0.115442 -0.302331
0.27832 0.123994 -0.325439
0.280273 0.132902 -0.349613
0.282227 0.142151 -0.374826
0.28418 0.151724 -0.401044
0.286133 0.161601 -0.428223
0.288086 0.171757 -0.456306
0.290039 0.182165 -0.485228
0.291992 0.192794 -0.514915
0.293945 0.203612 -0.54528
0.295898 0.214583 -0.576233
0.297852 0.225668 -0.60767
0.299805 0.23683 -0.639484
0.301758 0.248028 -0.671563
0.303711 0.259221 -0.703788
0.305664 0.270368 -0.736041
0.307617 0.281428 -0.768198
0.30957 0.292362 -0.800141
0.311523 0.303131 -0.831749
0.313477 0.313699 -0.862907
0.31543 0.324031 -0.893503
0.317383 0.334095 -0.923431
0.319336 0.343862 -0.952591
0.321289 0.353304 -0.980891
0.323242 0.362397 -1.00825
0.325195 0.37112 -1.03458
0.327148 0.379455 -1.05982
0.329102 0.387387 -1.08391
0.331055 0.394902 -1.1068
0.333008 0.40199 -1.12845
0.334961 0.408644 -1.14881
0.336914 0.414858 -1.16787
0.338867 0.420629 -1.1856
0.34082 0.425956 -1.20198
0.342773 0.430838 -1.21702
0.344727 0.435279 -1.23071
0.34668 0.439282 -1.24305
0.348633 0.44285 -1.25405
0.350586 0.445992 -1.26372
0.352539 0.448712 -1.27209
0.354492 0.451019 -1.27917
0.356445 0.45292 -1.28498
0.358398 0.454426 -1.28955
0.360352 0.455545 -1.2929
0.362305 0.456287 -1.29507
0.364258 0.456662 -1.29609
0.366211 0.456681 -1.29599
0.368164 0.456353 -1.2948
0.370117 0.455689 -1.29255
0.37207 0.4547 -1.28929
0.374023 0.453397 -1.28504
0.375977 0.45179 -1.27983
0.37793 0.449889 -1.27372
0.379883 0.447706 -1.26672
0.381836 0.44525 -1.25887
0.383789 0.442533 -1.25021
0.385742 0.439564 -1.24078
0.387695 0.436353 -1.2306
0.389648 0.432911 -1.2197
0.391602 0.429249 -1.20812
0.393555 0.425375 -1.1959
0.395508 0.421301 -1.18305
0.397461 0.417036 -1.16961
0.399414 0.41259 -1.1556
0.401367 0.407975 -1.14106
0.40332 0.403199 -1.12601
0.405273 0.398273 -1.11047
0.407227 0.393209 -1.09447
0.40918 0.388015 -1.07802
0.411133 0.382704 -1.06115
0.413086 0.377286 -1.04387
0.415039 0.371773 -1.02621
0.416992 0.366174 -1.00818
0.418945 0.360503 -0.98979
0.420898 0.354771 -0.971059
0.422852 0.348989 -0.951996
0.424805 0.343169 -0.932612
0.426758 0.337323 -0.912918
0.428711 0.331464 -0.892919
0.430664 0.325604 -0.872625
0.432617 0.319754 -0.852041
0.43457 0.313927 -0.831173
0.436523 0.308135 -0.810025
0.438477 0.30239 -0.788602
0.44043 0.296703 -0.766907
0.442383 0.291087 -0.744943
0.444336 0.285552 -0.722713
0.446289 0.280111 -0.70022
0.448242 0.274773 -0.677467
0.450195 0.269549 -0.654458
0.452148 0.264449 -0.631194
0.454102 0.259483 -0.60768
0.456055 0.25466 -0.583919
0.458008 0.24999 -0.559915
0.459961 0.245479 -0.535674
0.461914 0.241137 -0.5112
0.463867 0.236971 -0.486499
0.46582 0.232987 -0.461578
0.467773 0.229192 -0.436444
0.469727 0.225592 -0.411104
0.47168 0.222193 -0.385568
0.473633 0.218999 -0.359844
0.475586 0.216016 -0.333942
0.477539 0.213247 -0.307872
0.479492 0.210696 -0.281646
0.481445 0.208367 -0.255274
0.483398 0.206263 -0.22877
0.485352 0.204386 -0.202145
0.487305 0.202739 -0.175413
0.489258 0.201324 -0.148588
0.491211 0.200142 -0.121682
0.493164 0.199195 -0.0947103
0.495117 0.198483 -0.0676871
0.49707 0.198009 -0.0406271
0.499023 0.197771 -0.0135448
0.500977 0.197771 0.0135448
0.50293 0.198009 0.0406271
0.504883 0.198483 0.0676871
0.506836 0.199195 0.0947103
0.508789 0.200142 0.121682
0.510742 0.201324 0.148588
0.512695 0.202739 0.175413
0.514648 0.204386 0.202145
0.516602 0.206263 0.22877
0.518555 0.208367 0.255274
0.520508 0.210696 0.281646
0.522461 0.213247 0.307872
0.524414 0.216016 0.333942
0.526367 0.218999 0.359844
0.52832 0.222193 0.385568
0.530273 0.225592 0.411104
0.532227 0.229192 0.436444
0.53418 0.232987 0.461578
0.536133 0.236971 0.486499
0.538086 0.241137 0.5112
0.540039 0.245479 0.535674
0.541992 0.24999 0.559915
0.543945 0.25466 0.583919
0.545898 0.259483 0.60768
0.547852 0.264449 0.631194
0.549805 0.269549 0.654458
0.551758 0.274773 0.677467
0.553711 0.280111 0.70022
0.555664 0.285552 0.722713
0.557617 0.291087 0.744943
0.55957 0.296703 0.766907
0.561523 0.30239 0.788602
0.563477 0.308135 0.810025
0.56543 0.313927 0.831173
0.567383 0.319754 0.852041
0.569336 0.325604 0.872625
0.571289 0.331464 0.892919
0.573242 0.337323 0.912918
0.575195 0.343169 0.932612
0.577148 0.348989 0.951996
0.579102 0.354771 0.971059
0.581055 0.360503 0.98979
0.583008 0.366174 1.00818
0.584961 0.371773 1.02621
0.586914 0.377286 1.04387
0.588867 0.382704 1.06115
0.59082 0.388015 1.07802
0.592773 0.393209 1.09447
0.594727 0.398273 1.11047
0.59668 0.403199 1.12601
0.598633 0.407975 1.14106
0.600586 0.41259 1.1556
0.602539 0.417036 1.16961
0.604492 0.421301 1.18305
0.606445 0.425375 1.1959
0.608398 0.429249 1.20812
0.610352 0.432911 1.2197
0.612305 0.436353 1.2306
0.614258 0.439564 1.24078
0.616211 0.442533 1.25021
0.618164 0.44525 1.25887
0.620117 0.447706 1.26672
0.62207 0.449889 1.27372
0.624023 0.45179 1.27983
0.625977 0.453397 1.28504
0.62793 0.4547 1.28929
0.629883 0.455689 1.29255
0.631836 0.456353 1.2948
0.633789 0.456681 1.29599
0.635742 0.456662 1.29609
0.637695 0.456287 1.29507
0.639648 0.455545 1.2929
0.641602 0.454426 1.28955
0.643555 0.45292 1.28498
0.645508 0.451019 1.27917
0.647461 0.448712 1.27209
0.649414 0.445992 1.26372
0.651367 0.44285 1.25405
0.65332 0.439282 1.24305
0.655273 0.435279 1.23071
0.657227 0.430838 1.21702
0.65918 0.425956 1.20198
0.661133 0.420629 1.1856
0.663086 0.414858 1.16787
0.665039 0.408644 1.14881
0.666992 0.40199 1.12845
0.668945 0.394902 1.1068
0.670898 0.387387 1.08391
0.672852 0.379455 1.05982
0.674805 0.37112 1.03458
0.676758 0.362397 1.00825
0.678711 0.353304 0.980891
0.680664 0.343862 0.952591
0.682617 0.334095 0.923431
0.68457 0.324031 0.893503
0.686523 0.313699 0.862907
0.688477 0.303131 0.831749
0.69043 0.292362 0.800141
0.692383 0.281428 0.768198
0.694336 0.270368 0.736041
0.696289 0.259221 0.703788
0.698242 0.248028 0.671563
0.700195 0.23683 0.639484
0.702148 0.225668 0.60767
0.704102 0.214583 0.576233
0.706055 0.203612 0.54528
0.708008 0.192794 0.514915
0.709961 0.182165 0.485228
0.711914 0.171757 0.456306
0.713867 0.161601 0.428223
0.71582 0.151724 0.401044
0.717773 0.142151 0.374826
0.719727 0.132902 0.349613
0.72168 0.123994 0.325439
0.723633 0.115442 0.302331
0.725586 0.107255 0.280304
0.727539 0.0994408 0.259367
0.729492 0.0920043 0.239518
0.731445 0.0849466 0.22075
0.733398 0.0782666 0.203049
0.735352 0.0719607 0.186396
0.737305 0.0660234 0.170766
0.739258 0.0604473 0.156131
0.741211 0.0552236 0.142459
0.743164 0.0503419 0.129715
0.745117 0.0457909 0.117864
0.74707 0.0415584 0.106868
0.749023 0.0376316 0.0966866
0.750977 0.0339971 0.0872813
0.75293 0.0306412 0.0786123
0.754883 0.02755 0.0706399
0.756836 0.0247096 0.0633249
0.758789 0.0221062 0.0566287
0.760742 0.0197259 0.0505135
0.762695 0.0175552 0.0449425
0.764648 0.0155809 0.0398798
0.766602 0.0137899 0.0352909
0.768555 0.0121698 0.0311423
0.770508 0.0107083 0.0274021
0.772461 0.00939385 0.0240394
0.774414 0.00821509 0.0210249
0.776367 0.00716131 0.0183306
0.77832 0.00622224 0.01593
0.780273 0.00538813 0.0137979
0.782227 0.00464975 0.0119104
0.78418 0.00399838 0.0102452
0.786133 0.00342583 0.00878126
0.788086 0.0029244 0.0074989
0.790039 0.00248691 0.00637978
0.791992 0.00210669 0.00540685
0.793945 0.00177757 0.00456433
0.795898 0.00149383 0.00383769
0.797852 0.00125023 0.00321358
0.799805 0.00104199 0.0026798
0.801758 0.000864754 0.00222524
0.803711 0.000714571 0.00183985
0.805664 0.000587888 0.00151459
0.807617 0.00048152 0.00124131
0.80957 0.000392626 0.00101279
0.811523 0.000318688 0.000822586
0.813477 0.000257486 0.000665043
0.81543 0.000207071 0.000535182
0.817383 0.000165748 0.000428666
0.819336 0.000132045 0.00034173
0.821289 0.000104695 0.00027113
0.823242 8.26124e-05 0.000214087
0.825195 6.48737e-05 0.000168232
0.827148 5.06974e-05 0.000131559
0.829102 3.94263e-05 0.00010238
0.831055 3.05116e-05 7.92841e-05
0.833008 2.34971e-05 6.10978e-05
0.834961 1.80065e-05 4.68523e-05
0.836914 1.37312e-05 3.57512e-05
0.838867 1.04195e-05 2.71458e-05
0.84082 7.8678e-06 2.05101e-05
0.842773 5.91182e-06 1.54198e-05
0.844727 4.42034e-06 1.15357e-05
0.84668 3.28899e-06 8.58729e-06
0.848633 2.43524e-06 6.3594e-06
0.850586 1.79428e-06 4.68729e-06
0.852539 1.3156e-06 3.43698e-06
0.854492 9.59923e-07 2.50728e-06
0.856445 6.97005e-07 1.82028e-06
0.858398 5.03678e-07 1.31379e-06
0.860352 3.62255e-07 9.43403e-07
0.862305 2.59343e-07 6.73808e-07
0.864258 1.84798e-07 4.78355e-07
0.866211 1.31106e-07 3.37314e-07
0.868164 9.26484e-08 2.35819e-07
0.870117 6.51848e-08 1.62967e-07
0.87207 4.56402e-08 1.11769e-07
0.874023 3.18102e-08 7.59859e-08
0.875977 2.21116e-08 5.03302e-08
0.87793 1.53256e-08 3.21885e-08
0.879883 1.05973e-08 2.00343e-08
0.881836 7.34604e-09 1.19355e-08
0.883789 5.1129e-09 5.76148e-09
0.885742 3.59227e-09 1.47429e-09
0.887695 2.61698e-09 -1.73678e-09
0.889648 2.03089e-09 -3.08226e-09
0.891602 1.61682e-09 -4.88525e-09
0.893555 1.29513e-09 -6.02397e-09
0.895508 1.04296e-09 -7.12609e-09
0.897461 8.89623e-10 -6.87536e-09
0.899414 7.9948e-10 -7.29238e-09
0.901367 6.91425e-10 -7.03954e-09
0.90332 6.16008e-10 -7.28075e-09
0.905273 5.52464e-10 -8.06917e-09
0.907227 4.49573e-10 -7.38734e-09
0.90918 3.81361e-10 -7.16657e-09
0.911133 3.72319e-10 -7.43289e-09
0.913086 3.82758e-10 -8.04546e-09
0.915039 3.57867e-10 -8.46655e-09
0.916992 2.74578e-10 -7.87344e-09
0.918945 1.61833e-10 -7.82853e-09
0.920898 4.72591e-11 -7.79619e-09
0.922852 -2.54605e-11 -7.41353e-09
0.924805 -1.00186e-10 -7.49818e-09
0.926758 -1.94039e-10 -7.18392e-09
0.928711 -3.00289e-10 -6.9462e-09
0.930664 -4.20177e-10 -6.69208e-09
0.932617 -5.06384e-10 -6.46789e-09
0.93457 -5.56914e-10 -6.41758e-09
0.936523 -6.76194e-10 -6.30024e-09
0.938477 -8.38494e-10 -5.62885e-09
0.94043 -9.74415e-10 -5.3035e-09
0.942383 -1.12997e-09 -4.71476e-09
0.944336 -1.25223e-09 -4.51331e-09
0.946289 -1.32624e-09 -4.22275e-09
0.948242 -1.43986e-09 -3.54811e-09
0.950195 -1.5034e-09 -4.02743e-09
0.952148 -1.46498e-09 -3.85192e-09
0.954102 -1.46243e-09 -3.49257e-09
0.956055 -1.50423e-09 -3.81883e-09
0.958008 -1.51512e-09 -3.5786e-09
0.959961 -1.47746e-09 -3.55636e-09
0.961914 -1.42571e-09 -4.0354e-09
0.963867 -1.36944e-09 -4.35817e-09
0.96582 -1.37252e-09 -4.89374e-09
0.967773 -1.42851e-09 -4.18252e-09
0.969727 -1.53905e-09 -3.81746e-09
0.97168 -1.71812e-09 -3.7564e-09
0.973633 -1.90051e-09 -3.08971e-09
0.975586 -2.12271e-09 -2.7095e-09
0.977539 -2.40604e-09 -2.77386e-09
0.979492 -2.68007e-09 -1.7302e-09
0.981445 -2.87024e-09 -1.70606e-09
0.983398 -3.0672e-09 -1.12573e-09
0.985352 -3.2193e-09 -9.84774e-10
0.987305 -3.25583e-09 -5.67664e-10
0.989258 -3.24113e-09 -3.79345e-10
0.991211 -3.20051e-09 -7.23609e-12
0.993164 -3.19516e-09 -5.09311e-10
0.995117 -3.22637e-09 -3.48778e-10
0.99707 -3.17172e-09 9.93567e-11
0.999023 -3.04093e-09 -2.74081e-10
