0.000976562 -1.93487e-10 3.49706e-10
0.00292969 2.50271e-11 7.87266e-10
0.00488281 1.80393e-10 1.23522e-09
0.00683594 2.9555e-10 1.58882e-09
0.00878906 3.59947e-10 1.94243e-09
0.0107422 4.12655e-10 1.74419e-09
0.0126953 4.62825e-10 1.77865e-09
0.0146484 4.54405e-10 1.97118e-09
0.0166016 4.01525e-10 1.46563e-09
0.0185547 3.41099e-10 1.9494e-09
0.0205078 2.42308e-10 1.56451e-09
0.0224609 1.99493e-10 1.68986e-09
0.0244141 2.11434e-10 1.59374e-09
0.0263672 1.90237e-10 1.46842e-09
0.0283203 1.5599e-10 1.46473e-09
0.0302734 1.32435e-10 1.83643e-09
0.0322266 1.2294e-10 1.85629e-09
0.0341797 1.10099e-10 1.2126e-09
0.0361328 8.50222e-11 1.25459e-09
0.0380859 8.39178e-11 1.38139e-09
0.0400391 1.07126e-10 1.46397e-09
0.0419922 8.51141e-11 1.34895e-09
0.0439453 7.04001e-11 1.21344e-09
0.0458984 2.52083e-11 9.98124e-10
0.0478516 -2.51479e-11 1.62002e-09
0.0498047 -1.53992e-11 1.35937e-09
0.0517578 -6.668e-12 1.50495e-09
0.0537109 -1.02194e-11 1.33594e-09
0.0556641 -9.93161e-12 1.26247e-09
0.0576172 -2.20659e-11 1.24784e-09
0.0595703 -5.8213e-11 1.27199e-09
0.0615234 -4.1231e-11 1.50968e-09
0.0634766 -2.20313e-11 1.3228e-09
0.0654297 -5.08651e-11 1.10737e-09
0.0673828 -7.90048e-11 1.31629e-09
0.0693359 -7.24674e-11 1.25711e-09
0.0712891 -4.13816e-11 1.04959e-09
0.0732422 9.02656e-12 1.25667e-09
0.0751953 5.79909e-11 1.18661e-09
0.0771484 5.63771e-11 1.13112e-09
0.0791016 1.59472e-11 1.29299e-09
0.0810547 -6.0477e-11 1.02312e-09
0.0830078 -1.20274e-10 1.35503e-09
0.0849609 -1.16107e-10 1.66727e-09
0.0869141 -1.1984e-10 1.24799e-09
0.0888672 -1.24967e-10 1.35727e-09
0.0908203 -1.33975e-10 1.18553e-09
0.0927734 -1.20742e-10 1.54704e-09
0.0947266 -8.59153e-11 1.32678e-09
0.0966797 -4.50413e-11 1.52109e-09
0.0986328 -1.55964e-11 1.39088e-09
0.100586 -9.39515e-12 1.3236e-09
0.102539 -5.42544e-12 1.04794e-09
0.104492 -5.83178e-12 1.12359e-09
0.106445 3.18612e-11 1.13936e-09
0.108398 4.80593e-11 9.92397e-10
0.110352 3.71774e-11 1.06192e-09
0.112305 2.99467e-11 8.41749e-10
0.114258 1.72475e-11 9.56041e-10
0.116211 3.02336e-12 7.71761e-10
0.118164 3.46478e-12 6.50542e-10
0.120117 -7.19069e-12 6.47622e-10
0.12207 1.43885e-12 8.41067e-10
0.124023 5.2891e-11 9.70983e-10
0.125977 6.60214e-11 9.44453e-10
0.12793 6.75398e-11 9.0667e-10
0.129883 7.41442e-11 1.02047e-09
0.131836 5.56595e-11 1.23974e-09
0.133789 2.61462e-11 8.61719e-10
0.135742 2.20979e-12 1.01583e-09
0.137695 -8.14371e-12 8.68718e-10
0.139648 -1.24967e-11 1.048e-09
0.141602 1.21769e-12 1.12821e-09
0.143555 2.46407e-11 8.72291e-10
0.145508 2.693e-11 9.53827e-10
0.147461 1.38169e-11 9.56576e-10
0.149414 -6.76792e-13 5.87586e-10
0.151367 -3.64579e-11 7.5661e-10
0.15332 -6.48228e-11 6.79008e-10
0.155273 -5.78639e-11 8.82228e-10
0.157227 -6.36216e-11 8.75409e-10
0.15918 -6.97225e-11 9.39156e-10
0.161133 -6.65521e-11 7.28285e-10
0.163086 -5.93365e-11 8.887e-10
0.165039 -3.58424e-11 9.70936e-10
0.166992 -2.76734e-11 1.0721e-09
0.168945 -4.12079e-11 9.53714e-10
0.170898 -6.82627e-11 7.53508e-10
0.172852 -7.80327e-11 5.54562e-10
0.174805 -8.82414e-11 5.16377e-10
0.176758 -9.7474e-11 6.51115e-10
0.178711 -6.62022e-11 8.28858e-10
0.180664 -3.36891e-11 8.28122e-10
0.182617 -2.14229e-11 8.68906e-10
0.18457 -3.50875e-11 7.66333e-10
0.186523 -5.26654e-11 7.88945e-10
0.188477 -5.13705e-11 7.36724e-10
0.19043 -4.47091e-11 6.93454e-10
0.192383 -4.49369e-11 8.99696e-10
0.194336 -3.66178e-11 7.39964e-10
0.196289 -2.03175e-11 7.47246e-10
0.198242 -1.3872e-11 7.36318e-10
0.200195 -3.45777e-11 7.88379e-10
0.202148 -2.71294e-11 5.76231e-10
0.204102 4.92459e-11 4.27726e-10
0.206055 1.39995e-10 2.29992e-10
0.208008 2.54065e-10 -4.53948e-11
0.209961 4.77173e-10 -4.49975e-10
0.211914 8.67545e-10 -1.57733e-09
0.213867 1.53563e-09 -3.31582e-09
0.21582 2.65862e-09 -6.73845e-09
0.217773 4.5859e-09 -1.14467e-08
0.219727 7.8369e-09 -2.02647e-08
0.22168 1.32098e-08 -3.4912e-08
0.223633 2.21023e-08 -5.87737e-08
0.225586 3.66477e-08 -9.77643e-08
0.227539 6.02227e-08 -1.61361e-07
0.229492 9.81314e-08 -2.62563e-07
0.231445 1.58467e-07 -4.23905e-07
0.233398 2.53536e-07 -6.77807e-07
0.235352 4.018e-07 -1.07315e-06
0.237305 6.30633e-07 -1.68314e-06
0.239258 9.80251e-07 -2.61316e-06
0.241211 1.50883e-06 -4.0172e-06
0.243164 2.29939e-06 -6.11348e-06
0.245117 3.46899e-06 -9.21091e-06
0.24707 5.18049e-06 -1.37362e-05
0.249023 7.6574e-06 -2.02746e-05
0.250977 1.12021e-05 -2.96173e-05
0.25293 1.62182e-05 -4.28171e-05
0.254883 2.32365e-05 -6.12558e-05
0.256836 3.29455e-05 -8.67229e-05
0.258789 4.62253e-05 -0.0001215
0.260742 6.41845e-05 -0.000168455
0.262695 8.82e-05 -0.000231144
0.264648 0.000119957 -0.000313911
0.266602 0.000161491 -0.000421988
0.268555 0.000215222 -0.00056159
0.270508 0.000283994 -0.000740003
0.272461 0.000371101 -0.000965655
0.274414 0.000480315 -0.00124818
0.276367 0.000615899 -0.00159844
0.27832 0.000782619 -0.00202858
0.280273 0.000985745 -0.00255203
0.282227 0.00123105 -0.00318344
0.28418 0.0015248 -0.00393875
0.286133 0.00187373 -0.00483508
0.288086 0.00228503 -0.00589072
0.290039 0.00276635 -0.00712509
0.291992 0.0033257 -0.00855865
0.293945 0.00397153 -0.0102129
0.295898 0.00471258 -0.0121101
0.297852 0.00555793 -0.0142736
0.299805 0.00651696 -0.0167274
0.301758 0.00759925 -0.0194963
0.303711 0.00881463 -0.0226057
0.305664 0.010173 -0.0260814
0.307617 0.0116846 -0.0299497
0.30957 0.0133594 -0.0342376
0.311523 0.0152077 -0.0389718
0.313477 0.0172395 -0.0441795
0.31543 0.019465 -0.0498879
0.317383 0.021894 -0.056124
0.319336 0.0245363 -0.0629146
0.321289 0.0274013 -0.0702862
0.323242 0.0304981 -0.0782646
0.325195 0.0338354 -0.086875
0.327148 0.0374217 -0.0961417
0.329102 0.0412646 -0.106088
0.331055 0.0453714 -0.116735
0.333008 0.0497489 -0.128104
0.334961 0.0544031 -0.140212
0.336914 0.0593394 -0.153075
0.338867 0.0645625 -0.166708
0.34082 0.0700763 -0.18112
0.342773 0.0758842 -0.196319
0.344727 0.0819886 -0.212309
0.34668 0.0883912 -0.229091
0.348633 0.0950929 -0.246659
0.350586 0.102094 -0.265006
0.352539 0.109393 -0.284119
0.354492 0.116989 -0.303981
0.356445 0.124879 -0.324567
0.358398 0.13306 -0.345851
0.360352 0.141528 -0.3678
0.362305 0.150277 -0.390375
0.364258 0.159301 -0.413532
0.366211 0.168595 -0.437223
0.368164 0.178149 -0.461394
0.370117 0.187956 -0.485986
0.37207 0.198006 -0.510936
0.374023 0.208289 -0.536174
0.375977 0.218794 -0.56163
0.37793 0.229511 -0.587227
0.379883 0.240427 -0.612885
0.381836 0.251529 -0.638521
0.383789 0.262805 -0.664049
0.385742 0.274242 -0.689383
0.387695 0.285824 -0.714432
0.389648 0.297539 -0.739107
0.391602 0.309372 -0.763315
0.393555 0.321309 -0.786965
0.395508 0.333334 -0.809967
0.397461 0.345434 -0.832229
0.399414 0.357593 -0.853663
0.401367 0.369796 -0.874182
0.40332 0.382029 -0.893701
0.405273 0.394278 -0.912137
0.407227 0.406526 -0.929412
0.40918 0.418761 -0.94545
0.411133 0.430968 -0.96018
0.413086 0.443132 -0.973533
0.415039 0.455239 -0.985447
0.416992 0.467277 -0.995863
0.418945 0.479231 -1.00473
0.420898 0.491088 -1.01199
0.422852 0.502835 -1.01761
0.424805 0.51446 -1.02154
0.426758 0.525949 -1.02376
0.428711 0.537291 -1.02423
0.430664 0.548473 -1.02294
0.432617 0.559483 -1.01986
0.43457 0.570311 -1.01499
0.436523 0.580944 -1.00831
0.438477 0.591373 -0.999818
0.44043 0.601586 -0.989527
0.442383 0.611573 -0.977441
0.444336 0.621324 -0.963571
0.446289 0.63083 -0.947936
0.448242 0.64008 -0.930557
0.450195 0.649066 -0.911459
0.452148 0.65778 -0.890674
0.454102 0.666211 -0.868236
0.456055 0.674353 -0.844183
0.458008 0.682198 -0.818556
0.459961 0.689738 -0.791403
0.461914 0.696965 -0.76277
0.463867 0.703873 -0.732712
0.46582 0.710456 -0.701282
0.467773 0.716708 -0.668539
0.469727 0.722622 -0.634543
0.47168 0.728193 -0.599359
0.473633 0.733415 -0.563051
0.475586 0.738285 -0.525688
0.477539 0.742798 -0.487339
0.479492 0.746948 -0.448077
0.481445 0.750734 -0.407976
0.483398 0.754151 -0.367109
0.485352 0.757196 -0.325555
0.487305 0.759866 -0.283392
0.489258 0.76216 -0.240697
0.491211 0.764074 -0.197551
0.493164 0.765607 -0.154036
0.495117 0.766759 -0.110232
0.49707 0.767527 -0.066222
0.499023 0.767911 -0.0220878
0.500977 0.767911 0.0220878
0.50293 0.767527 0.066222
0.504883 0.766759 0.110232
0.506836 0.765607 0.154036
0.508789 0.764074 0.197551
0.510742 0.76216 0.240697
0.512695 0.759866 0.283392
0.514648 0.757196 0.325555
0.516602 0.754151 0.367109
0.518555 0.750734 0.407976
0.520508 0.746948 0.448077
0.522461 0.742798 0.487339
0.524414 0.738285 0.525688
0.526367 0.733415 0.563051
0.52832 0.728193 0.599359
0.530273 0.722622 0.634543
0.532227 0.716708 0.668539
0.53418 0.710456 0.701282
0.536133 0.703873 0.732712
0.538086 0.696965 0.76277
0.540039 0.689738 0.791403
0.541992 0.682198 0.818556
0.543945 0.674353 0.844183
0.545898 0.666211 0.868236
0.547852 0.65778 0.890674
0.549805 0.649066 0.911459
0.551758 0.64008 0.930557
0.553711 0.63083 0.947936
0.555664 0.621324 0.963571
0.557617 0.611573 0.977441
0.55957 0.601586 0.989527
0.561523 0.591373 0.999818
0.563477 0.580944 1.00831
0.56543 0.570311 1.01499
0.567383 0.559483 1.01986
0.569336 0.548473 1.02294
0.571289 0.537291 1.02423
0.573242 0.525949 1.02376
0.575195 0.51446 1.02154
0.577148 0.502835 1.01761
0.579102 0.491088 1.01199
0.581055 0.479231 1.00473
0.583008 0.467277 0.995863
0.584961 0.455239 0.985447
0.586914 0.443132 0.973533
0.588867 0.430968 0.96018
0.59082 0.418761 0.94545
0.592773 0.406526 0.929412
0.594727 0.394278 0.912137
0.59668 0.382029 0.893701
0.598633 0.369796 0.874182
0.600586 0.357593 0.853663
0.602539 0.345434 0.832229
0.604492 0.333334 0.809967
0.606445 0.321309 0.786965
0.608398 0.309372 0.763315
0.610352 0.297539 0.739107
0.612305 0.285824 0.714432
0.614258 0.274242 0.689383
0.616211 0.262805 0.664049
0.618164 0.251529 0.638521
0.620117 0.240427 0.612885
0.62207 0.229511 0.587227
0.624023 0.218794 0.56163
0.625977 0.208289 0.536174
0.62793 0.198006 0.510936
0.629883 0.187956 0.485986
0.631836 0.178149 0.461394
0.633789 0.168595 0.437223
0.635742 0.159301 0.413532
0.637695 0.150277 0.390375
0.639648 0.141528 0.3678
0.641602 0.13306 0.345851
0.643555 0.124879 0.324567
0.645508 0.116989 0.303981
0.647461 0.109393 0.284119
0.649414 0.102094 0.265006
0.651367 0.0950929 0.246659
0.65332 0.0883912 0.229091
0.655273 0.0819886 0.212309
0.657227 0.0758842 0.196319
0.65918 0.0700763 0.18112
0.661133 0.0645625 0.166708
0.663086 0.0593394 0.153075
0.665039 0.0544031 0.140212
0.666992 0.0497489 0.128104
0.668945 0.0453714 0.116735
0.670898 0.0412646 0.106088
0.672852 0.0374217 0.0961417
0.674805 0.0338354 0.086875
0.676758 0.0304981 0.0782646
0.678711 0.0274013 0.0702862
0.680664 0.0245363 0.0629146
0.682617 0.021894 0.056124
0.68457 0.019465 0.0498879
0.686523 0.0172395 0.0441795
0.688477 0.0152077 0.0389718
0.69043 0.0133594 0.0342376
0.692383 0.0116846 0.0299497
0.694336 0.010173 0.0260814
0.696289 0.00881463 0.0226057
0.698242 0.00759925 0.0194963
0.700195 0.00651696 0.0167274
0.702148 0.00555793 0.0142736
0.704102 0.00471258 0.0121101
0.706055 0.00397153 0.0102129
0.708008 0.0033257 0.00855865
0.709961 0.00276635 0.00712509
0.711914 0.00228503 0.00589072
0.713867 0.00187373 0.00483508
0.71582 0.0015248 0.00393875
0.717773 0.00123105 0.00318344
0.719727 0.000985745 0.00255203
0.72168 0.000782619 0.00202858
0.723633 0.0006159 0.00159844
0.725586 0.000480315 0.00124818
0.727539 0.000371101 0.000965655
0.729492 0.000283994 0.000740003
0.731445 0.000215222 0.00056159
0.733398 0.000161491 0.000421988
0.735352 0.000119957 0.000313911
0.737305 8.82001e-05 0.000231144
0.739258 6.41845e-05 0.000168455
0.741211 4.62253e-05 0.000121499
0.743164 3.29455e-05 8.67227e-05
0.745117 2.32364e-05 6.12555e-05
0.74707 1.6218e-05 4.28166e-05
0.749023 1.12019e-05 2.96173e-05
0.750977 7.65721e-06 2.02746e-05
0.75293 5.18033e-06 1.37359e-05
0.754883 3.46884e-06 9.21087e-06
0.756836 2.29928e-06 6.11376e-06
0.758789 1.50878e-06 4.01732e-06
0.760742 9.80229e-07 2.61321e-06
0.762695 6.30607e-07 1.68296e-06
0.764648 4.01772e-07 1.07353e-06
0.766602 2.53537e-07 6.77882e-07
0.768555 1.58508e-07 4.23928e-07
0.770508 9.81856e-08 2.62427e-07
0.772461 6.02524e-08 1.60679e-07
0.774414 3.66512e-08 9.74558e-08
0.776367 2.21041e-08 5.83841e-08
0.77832 1.32099e-08 3.45224e-08
0.780273 7.83749e-09 2.01042e-08
0.782227 4.63447e-09 1.16451e-08
0.78418 2.70687e-09 6.23708e-09
0.786133 1.55e-09 3.1814e-09
0.788086 8.77618e-10 1.30926e-09
0.790039 4.912e-10 2.68407e-10
0.791992 2.81279e-10 1.60305e-11
0.793945 1.37105e-10 -4.55607e-10
0.795898 3.64073e-11 -6.80754e-10
0.797852 -7.84395e-12 -8.61832e-10
0.799805 -4.07385e-11 -8.68476e-10
0.801758 -5.18798e-11 -7.5174e-10
0.803711 -5.74456e-11 -9.95289e-10
0.805664 -7.18687e-11 -9.76656e-10
0.807617 -4.92086e-11 -7.71254e-10
0.80957 -1.78364e-11 -1.09399e-09
0.811523 -6.29674e-12 -1.2554e-09
0.813477 -7.56906e-12 -9.23204e-10
0.81543 -2.44995e-11 -1.09703e-09
0.817383 -5.51212e-11 -1.21673e-09
0.819336 -5.84581e-11 -8.26499e-10
0.821289 -4.40279e-11 -1.09083e-09
0.823242 -4.43632e-11 -1.03369e-09
0.825195 -2.96669e-11 -9.07649e-10
0.827148 -1.28413e-11 -1.03888e-09
0.829102 1.07656e-11 -8.82212e-10
0.831055 3.87956e-11 -9.67401e-10
0.833008 5.69482e-11 -1.03393e-09
0.834961 5.23785e-11 -1.15165e-09
0.836914 5.54001e-11 -8.12376e-10
0.838867 6.76872e-11 -8.31265e-10
0.84082 4.66693e-11 -1.00108e-09
0.842773 1.32654e-11 -9.82894e-10
0.844727 -1.2923e-12 -1.03956e-09
0.84668 7.43583e-12 -1.15763e-09
0.848633 1.52456e-12 -1.1944e-09
0.850586 -2.24651e-11 -1.36645e-09
0.852539 -4.39178e-11 -9.25058e-10
0.854492 -4.80949e-11 -1.14404e-09
0.856445 -3.55529e-11 -1.26254e-09
0.858398 -2.07514e-11 -1.26914e-09
0.860352 -1.66347e-11 -1.24594e-09
0.862305 2.07816e-11 -1.10391e-09
0.864258 3.99845e-11 -1.66088e-09
0.866211 -4.77707e-12 -1.57766e-09
0.868164 -2.58233e-11 -1.61831e-09
0.870117 -6.40021e-12 -1.83737e-09
0.87207 3.44755e-11 -1.70976e-09
0.874023 6.48539e-11 -1.60164e-09
0.875977 5.53273e-11 -1.71987e-09
0.87793 3.57749e-11 -1.7056e-09
0.879883 6.09846e-11 -1.31312e-09
0.881836 5.92291e-11 -1.27352e-09
0.883789 -5.70299e-12 -1.44471e-09
0.885742 4.08651e-12 -1.2774e-09
0.887695 4.43214e-11 -1.32475e-09
0.889648 7.41975e-11 -1.48813e-09
0.891602 1.13507e-10 -1.30372e-09
0.893555 1.28966e-10 -1.4599e-09
0.895508 1.39106e-10 -1.48933e-09
0.897461 1.20435e-10 -1.73753e-09
0.899414 8.54716e-11 -1.45707e-09
0.901367 4.5866e-11 -1.70312e-09
0.90332 -2.98961e-12 -1.5149e-09
0.905273 -4.53504e-11 -1.45987e-09
0.907227 -6.86389e-11 -1.54608e-09
0.90918 -9.62181e-11 -1.40695e-09
0.911133 -1.37775e-10 -1.6496e-09
0.913086 -1.27326e-10 -1.75853e-09
0.915039 -9.26472e-11 -1.61543e-09
0.916992 -3.66231e-11 -1.50286e-09
0.918945 -9.36407e-12 -1.6051e-09
0.920898 -2.83764e-11 -1.40898e-09
0.922852 2.30624e-11 -1.18229e-09
0.924805 7.94338e-11 -1.23191e-09
0.926758 8.58122e-11 -1.47671e-09
0.928711 6.96283e-11 -1.37417e-09
0.930664 7.20717e-11 -1.28144e-09
0.932617 1.04281e-10 -1.1741e-09
0.93457 1.04778e-10 -1.29339e-09
0.936523 7.91367e-11 -1.35791e-09
0.938477 7.63309e-11 -1.56256e-09
0.94043 6.00289e-11 -1.46137e-09
0.942383 5.17257e-11 -1.12307e-09
0.944336 -2.6211e-11 -1.38752e-09
0.946289 -1.32785e-10 -1.11947e-09
0.948242 -1.89776e-10 -1.06031e-09
0.950195 -2.05984e-10 -8.89003e-10
0.952148 -1.88237e-10 -1.23673e-09
0.954102 -2.18966e-10 -1.14713e-09
0.956055 -2.30266e-10 -1.40815e-09
0.958008 -1.60868e-10 -1.45379e-09
0.959961 -8.5592e-11 -1.73343e-09
0.961914 -7.60316e-11 -1.94573e-09
0.963867 -3.47757e-11 -1.74008e-09
0.96582 6.46017e-11 -1.93303e-09
0.967773 1.19408e-10 -1.83303e-09
0.969727 1.55034e-10 -2.13204e-09
0.97168 1.43185e-10 -2.07288e-09
0.973633 1.10273e-10 -2.07815e-09
0.975586 1.3855e-10 -2.40316e-09
0.977539 1.70297e-10 -2.09969e-09
0.979492 2.01909e-10 -2.20999e-09
0.981445 2.12449e-10 -2.52853e-09
0.983398 2.36346e-10 -1.70137e-09
0.985352 2.45596e-10 -2.07305e-09
0.987305 2.4221e-10 -1.84164e-09
0.989258 2.37405e-10 -1.70329e-09
0.991211 1.52093e-10 -2.03161e-09
0.993164 1.35369e-10 -1.45111e-09
0.995117 1.58685e-10 -1.06322e-09
0.99707 5.92872e-11 -7.60791e-10
0.999023 -1.71394e-10 -5.46869e-10
