0.000976562 -3.60662e-09 -5.51446e-10
0.00292969 -3.5409e-09 3.41064e-10
0.00488281 -3.46119e-09 1.09924e-09
0.00683594 -3.38007e-09 -7.68281e-12
0.00878906 -3.2974e-09 4.28134e-10
0.0107422 -3.19957e-09 1.01259e-09
0.0126953 -3.09326e-09 8.68079e-10
0.0146484 -3.01589e-09 5.2809e-10
0.0166016 -3.00607e-09 -9.3624e-11
0.0185547 -3.00105e-09 -4.92893e-10
0.0205078 -2.94991e-09 -8.46708e-11
0.0224609 -2.85932e-09 3.25211e-11
0.0244141 -2.83741e-09 -6.56418e-10
0.0263672 -2.81092e-09 -6.40246e-10
0.0283203 -2.74782e-09 2.81248e-11
0.0302734 -2.73696e-09 -1.82065e-10
0.0322266 -2.73607e-09 3.60436e-10
0.0341797 -2.68855e-09 -1.71687e-10
0.0361328 -2.5929e-09 4.19813e-10
0.0380859 -2.50127e-09 4.59091e-10
0.0400391 -2.42912e-09 5.40586e-10
0.0419922 -2.38963e-09 6.87587e-10
0.0439453 -2.38227e-09 6.98648e-10
0.0458984 -2.31622e-09 1.75484e-09
0.0478516 -2.20351e-09 2.05758e-09
0.0498047 -2.10071e-09 1.23973e-09
0.0517578 -2.04404e-09 1.47879e-09
0.0537109 -1.9724e-09 2.40543e-09
0.0556641 -1.82021e-09 2.36544e-09
0.0576172 -1.6582e-09 2.44598e-09
0.0595703 -1.53662e-09 2.49236e-09
0.0615234 -1.44624e-09 1.96701e-09
0.0634766 -1.34378e-09 2.81158e-09
0.0654297 -1.25887e-09 2.68675e-09
0.0673828 -1.19062e-09 2.92504e-09
0.0693359 -1.08015e-09 3.46522e-09
0.0712891 -9.52188e-10 3.48955e-09
0.0732422 -7.80539e-10 3.69847e-09
0.0751953 -4.94024e-10 3.5842e-09
0.0771484 -1.73702e-10 3.23725e-09
0.0791016 1.67625e-10 3.32633e-09
0.0810547 6.07248e-10 2.53681e-09
0.0830078 1.24553e-09 1.68604e-09
0.0849609 2.04837e-09 -2.67598e-10
0.0869141 3.11383e-09 -2.76202e-09
0.0888672 4.64967e-09 -6.46981e-09
0.0908203 6.83928e-09 -1.11081e-08
0.0927734 9.88068e-09 -1.93799e-08
0.0947266 1.40927e-08 -2.98779e-08
0.0966797 2.00079e-08 -4.55357e-08
0.0986328 2.82629e-08 -6.75471e-08
0.100586 3.98136e-08 -9.73121e-08
0.102539 5.58991e-08 -1.39345e-07
0.104492 7.81126e-08 -1.9679e-07
0.106445 1.08681e-07 -2.76721e-07
0.108398 1.50666e-07 -3.87442e-07
0.110352 2.08015e-07 -5.37214e-07
0.112305 2.86038e-07 -7.41562e-07
0.114258 3.91753e-07 -1.01747e-06
0.116211 5.34344e-07 -1.39037e-06
0.118164 7.25794e-07 -1.89065e-06
0.120117 9.81695e-07 -2.55823e-06
0.12207 1.32226e-06 -3.44563e-06
0.124023 1.77341e-06 -4.62226e-06
0.125977 2.36829e-06 -6.17127e-06
0.12793 3.14915e-06 -8.20473e-06
0.129883 4.16959e-06 -1.08584e-05
0.131836 5.49693e-06 -1.43089e-05
0.133789 7.21558e-06 -1.87733e-05
0.135742 9.4307e-06 -2.4524e-05
0.137695 1.22727e-05 -3.18971e-05
0.139648 1.59023e-05 -4.1308e-05
0.141602 2.05165e-05 -5.32635e-05
0.143555 2.6356e-05 -6.83832e-05
0.145508 3.37121e-05 -8.7418e-05
0.147461 4.29369e-05 -0.000111273
0.149414 5.44526e-05 -0.000141032
0.151367 6.87632e-05 -0.000177991
0.15332 8.64673e-05 -0.000223684
0.155273 0.000108272 -0.000279924
0.157227 0.000135007 -0.00034884
0.15918 0.000167644 -0.000432915
0.161133 0.000207311 -0.000535037
0.163086 0.000255312 -0.000658542
0.165039 0.00031315 -0.000807269
0.166992 0.000382545 -0.000985609
0.168945 0.000465454 -0.00119856
0.170898 0.0005641 -0.0014518
0.172852 0.000680989 -0.0017517
0.174805 0.000818936 -0.00210546
0.176758 0.000981086 -0.00252108
0.178711 0.00117094 -0.00300749
0.180664 0.00139238 -0.00357459
0.182617 0.00164969 -0.00423327
0.18457 0.00194758 -0.00499555
0.186523 0.00229118 -0.00587453
0.188477 0.00268613 -0.00688456
0.19043 0.00313851 -0.00804121
0.192383 0.00365493 -0.00936134
0.194336 0.00424251 -0.0108632
0.196289 0.00490891 -0.0125663
0.198242 0.00566233 -0.0144919
0.200195 0.00651153 -0.0166624
0.202148 0.00746586 -0.0191019
0.204102 0.00853522 -0.021836
0.206055 0.00973011 -0.0248919
0.208008 0.0110616 -0.0282985
0.209961 0.0125413 -0.0320863
0.211914 0.0141816 -0.0362874
0.213867 0.0159951 -0.0409355
0.21582 0.0179952 -0.046066
0.217773 0.0201957 -0.051716
0.219727 0.022611 -0.057924
0.22168 0.0252558 -0.06473
0.223633 0.0281451 -0.0721754
0.225586 0.0312944 -0.0803028
0.227539 0.0347191 -0.0891558
0.229492 0.0384349 -0.0987788
0.231445 0.0424574 -0.109217
0.233398 0.0468017 -0.120514
0.235352 0.0514829 -0.132716
0.237305 0.056515 -0.145866
0.239258 0.0619113 -0.160007
0.241211 0.067684 -0.175178
0.243164 0.0738438 -0.191416
0.245117 0.0803994 -0.208755
0.24707 0.0873575 -0.227224
0.249023 0.0947223 -0.246844
0.250977 0.102495 -0.267631
0.25293 0.110674 -0.289593
0.254883 0.119254 -0.31273
0.256836 0.128226 -0.33703
0.258789 0.137576 -0.362471
0.260742 0.147287 -0.389019
0.262695 0.157339 -0.416629
0.264648 0.167704 -0.445242
0.266602 0.178354 -0.474789
0.268555 0.189254 -0.505186
0.270508 0.200367 -0.536338
0.272461 0.211654 -0.56814
0.274414 0.223071 -0.600477
0.276367 0.234573 -0.633226
0.27832 0.246113 -0.666256
0.280273 0.257646 -0.699432
0.282227 0.269124 -0.732618
0.28418 0.2805 -0.765674
0.286133 0.29173 -0.798464
0.288086 0.302771 -0.830853
0.290039 0.313581 -0.862711
0.291992 0.324123 -0.893915
0.293945 0.334361 -0.92435
0.295898 0.344264 -0.953909
0.297852 0.353804 -0.982493
0.299805 0.362956 -1.01002
0.301758 0.3717 -1.0364
0.303711 0.380018 -1.06158
0.305664 0.387897 -1.0855
0.307617 0.395324 -1.10811
0.30957 0.402293 -1.12937
0.311523 0.408798 -1.14927
0.313477 0.414838 -1.16777
0.31543 0.420411 -1.18487
0.317383 0.42552 -1.20057
0.319336 0.430169 -1.21487
0.321289 0.434363 -1.22777
0.323242 0.438108 -1.23929
0.325195 0.441412 -1.24945
0.327148 0.444285 -1.25827
0.329102 0.446735 -1.26578
0.331055 0.448773 -1.27201
0.333008 0.45041 -1.27698
0.334961 0.451657 -1.28073
0.336914 0.452525 -1.28329
0.338867 0.453025 -1.28471
0.34082 0.453171 -1.285
0.342773 0.452972 -1.28422
0.344727 0.452442 -1.2824
0.34668 0.451591 -1.27958
0.348633 0.45043 -1.27579
0.350586 0.448973 -1.27107
0.352539 0.447229 -1.26545
0.354492 0.445209 -1.25899
0.356445 0.442925 -1.2517
0.358398 0.440386 -1.24363
0.360352 0.437604 -1.23481
0.362305 0.434588 -1.22528
0.364258 0.431348 -1.21507
0.366211 0.427894 -1.20421
0.368164 0.424235 -1.19273
0.370117 0.42038 -1.18067
0.37207 0.416338 -1.16805
0.374023 0.412117 -1.15491
0.375977 0.407727 -1.14127
0.37793 0.403175 -1.12717
0.379883 0.398469 -1.11263
0.381836 0.393617 -1.09767
0.383789 0.388627 -1.08233
0.385742 0.383506 -1.06663
0.387695 0.378261 -1.05059
0.389648 0.372899 -1.03423
0.391602 0.367428 -1.01759
0.393555 0.361854 -1.00068
0.395508 0.356184 -0.983519
0.397461 0.350424 -0.966137
0.399414 0.34458 -0.94855
0.401367 0.33866 -0.930779
0.40332 0.33267 -0.912842
0.405273 0.326615 -0.894757
0.407227 0.320502 -0.876542
0.40918 0.314338 -0.858214
0.411133 0.308128 -0.839789
0.413086 0.30188 -0.821281
0.415039 0.295599 -0.802706
0.416992 0.289292 -0.784076
0.418945 0.282965 -0.765403
0.420898 0.276626 -0.746701
0.422852 0.270282 -0.727979
0.424805 0.263939 -0.709247
0.426758 0.257604 -0.690514
0.428711 0.251287 -0.671787
0.430664 0.244993 -0.653074
0.432617 0.238731 -0.634379
0.43457 0.232509 -0.615709
0.436523 0.226335 -0.597066
0.438477 0.220219 -0.578454
0.44043 0.214168 -0.559875
0.442383 0.208192 -0.541329
0.444336 0.2023 -0.522817
0.446289 0.1965 -0.504339
0.448242 0.190803 -0.485893
0.450195 0.185217 -0.467478
0.452148 0.179752 -0.449091
0.454102 0.174418 -0.43073
0.456055 0.169223 -0.412392
0.458008 0.164178 -0.394073
0.459961 0.15929 -0.375771
0.461914 0.15457 -0.357481
0.463867 0.150026 -0.3392
0.46582 0.145666 -0.320925
0.467773 0.1415 -0.302653
0.469727 0.137534 -0.284379
0.47168 0.133777 -0.266102
0.473633 0.130236 -0.247819
0.475586 0.126918 -0.229529
0.477539 0.123829 -0.211228
0.479492 0.120976 -0.192916
0.481445 0.118364 -0.174593
0.483398 0.115998 -0.156257
0.485352 0.113883 -0.137909
0.487305 0.112024 -0.119549
0.489258 0.110423 -0.101178
0.491211 0.109084 -0.082797
0.493164 0.108009 -0.0644072
0.495117 0.107202 -0.0460103
0.49707 0.106663 -0.0276083
0.499023 0.106393 -0.00920312
0.500977 0.106393 0.00920312
0.50293 0.106663 0.0276083
0.504883 0.107202 0.0460103
0.506836 0.108009 0.0644072
0.508789 0.109084 0.082797
0.510742 0.110423 0.101178
0.512695 0.112024 0.119549
0.514648 0.113883 0.137909
0.516602 0.115998 0.156257
0.518555 0.118364 0.174593
0.520508 0.120976 0.192916
0.522461 0.123829 0.211228
0.524414 0.126918 0.229529
0.526367 0.130236 0.247819
0.52832 0.133777 0.266102
0.530273 0.137534 0.284379
0.532227 0.1415 0.302653
0.53418 0.145666 0.320925
0.536133 0.150026 0.3392
0.538086 0.15457 0.357481
0.540039 0.15929 0.375771
0.541992 0.164178 0.394073
0.543945 0.169223 0.412392
0.545898 0.174418 0.43073
0.547852 0.179752 0.449091
0.549805 0.185217 0.467478
0.551758 0.190803 0.485893
0.553711 0.1965 0.504339
0.555664 0.2023 0.522817
0.557617 0.208192 0.541329
0.55957 0.214168 0.559875
0.561523 0.220219 0.578454
0.563477 0.226335 0.597066
0.56543 0.232509 0.615709
0.567383 0.238731 0.634379
0.569336 0.244993 0.653074
0.571289 0.251287 0.671787
0.573242 0.257604 0.690514
0.575195 0.263939 0.709247
0.577148 0.270282 0.727979
0.579102 0.276626 0.746701
0.581055 0.282965 0.765403
0.583008 0.289292 0.784076
0.584961 0.295599 0.802706
0.586914 0.30188 0.821281
0.588867 0.308128 0.839789
0.59082 0.314338 0.858214
0.592773 0.320502 0.876542
0.594727 0.326615 0.894757
0.59668 0.33267 0.912842
0.598633 0.33866 0.930779
0.600586 0.34458 0.94855
0.602539 0.350424 0.966137
0.604492 0.356184 0.983519
0.606445 0.361854 1.00068
0.608398 0.367428 1.01759
0.610352 0.372899 1.03423
0.612305 0.378261 1.05059
0.614258 0.383506 1.06663
0.616211 0.388627 1.08233
0.618164 0.393617 1.09767
0.620117 0.398469 1.11263
0.62207 0.403175 1.12717
0.624023 0.407727 1.14127
0.625977 0.412117 1.15491
0.62793 0.416338 1.16805
0.629883 0.42038 1.18067
0.631836 0.424235 1.19273
0.633789 0.427894 1.20421
0.635742 0.431348 1.21507
0.637695 0.434588 1.22528
0.639648 0.437604 1.23481
0.641602 0.440386 1.24363
0.643555 0.442925 1.2517
0.645508 0.445209 1.25899
0.647461 0.447229 1.26545
0.649414 0.448973 1.27107
0.651367 0.45043 1.27579
0.65332 0.451591 1.27958
0.655273 0.452442 1.2824
0.657227 0.452972 1.28422
0.65918 0.453171 1.285
0.661133 0.453025 1.28471
0.663086 0.452525 1.28329
0.665039 0.451657 1.28073
0.666992 0.45041 1.27698
0.668945 0.448773 1.27201
0.670898 0.446735 1.26578
0.672852 0.444285 1.25827
0.674805 0.441412 1.24945
0.676758 0.438108 1.23929
0.678711 0.434363 1.22777
0.680664 0.430169 1.21487
0.682617 0.42552 1.20057
0.68457 0.420411 1.18487
0.686523 0.414838 1.16777
0.688477 0.408798 1.14927
0.69043 0.402293 1.12937
0.692383 0.395324 1.10811
0.694336 0.387897 1.0855
0.696289 0.380018 1.06158
0.698242 0.3717 1.0364
0.700195 0.362956 1.01002
0.702148 0.353804 0.982493
0.704102 0.344264 0.953909
0.706055 0.334361 0.92435
0.708008 0.324123 0.893915
0.709961 0.313581 0.862711
0.711914 0.302771 0.830853
0.713867 0.29173 0.798464
0.71582 0.2805 0.765674
0.717773 0.269124 0.732618
0.719727 0.257646 0.699432
0.72168 0.246113 0.666256
0.723633 0.234573 0.633226
0.725586 0.223071 0.600477
0.727539 0.211654 0.56814
0.729492 0.200367 0.536338
0.731445 0.189254 0.505186
0.733398 0.178354 0.474789
0.735352 0.167704 0.445242
0.737305 0.157339 0.416629
0.739258 0.147287 0.389019
0.741211 0.137576 0.362471
0.743164 0.128226 0.33703
0.745117 0.119254 0.31273
0.74707 0.110674 0.289593
0.749023 0.102495 0.267631
0.750977 0.0947223 0.246844
0.75293 0.0873575 0.227224
0.754883 0.0803994 0.208755
0.756836 0.0738438 0.191416
0.758789 0.067684 0.175178
0.760742 0.0619113 0.160007
0.762695 0.056515 0.145866
0.764648 0.0514829 0.132716
0.766602 0.0468017 0.120514
0.768555 0.0424574 0.109217
0.770508 0.0384349 0.0987788
0.772461 0.0347191 0.0891558
0.774414 0.0312944 0.0803028
0.776367 0.0281451 0.0721754
0.77832 0.0252558 0.06473
0.780273 0.022611 0.057924
0.782227 0.0201957 0.051716
0.78418 0.0179952 0.046066
0.786133 0.0159951 0.0409355
0.788086 0.0141816 0.0362874
0.790039 0.0125413 0.0320863
0.791992 0.0110616 0.0282985
0.793945 0.00973011 0.0248919
0.795898 0.00853522 0.021836
0.797852 0.00746586 0.0191019
0.799805 0.00651153 0.0166624
0.801758 0.00566233 0.0144919
0.803711 0.00490891 0.0125663
0.805664 0.00424251 0.0108632
0.807617 0.00365493 0.00936134
0.80957 0.00313851 0.00804121
0.811523 0.00268613 0.00688456
0.813477 0.00229118 0.00587453
0.81543 0.00194758 0.00499554
0.817383 0.00164969 0.00423327
0.819336 0.00139238 0.00357459
0.821289 0.00117094 0.00300749
0.823242 0.000981086 0.00252108
0.825195 0.000818936 0.00210546
0.827148 0.000680989 0.0017517
0.829102 0.0005641 0.0014518
0.831055 0.000465454 0.00119856
0.833008 0.000382545 0.000985608
0.834961 0.00031315 0.000807268
0.836914 0.000255312 0.000658541
0.838867 0.000207311 0.000535035
0.84082 0.000167644 0.000432913
0.842773 0.000135007 0.000348838
0.844727 0.000108272 0.000279923
0.84668 8.64672e-05 0.000223682
0.848633 6.87631e-05 0.000177989
0.850586 5.44524e-05 0.000141031
0.852539 4.29368e-05 0.000111272
0.854492 3.37121e-05 8.74166e-05
0.856445 2.6356e-05 6.83823e-05
0.858398 2.05166e-05 5.32624e-05
0.860352 1.59023e-05 4.1306e-05
0.862305 1.22727e-05 3.18955e-05
0.864258 9.43074e-06 2.45234e-05
0.866211 7.21562e-06 1.87724e-05
0.868164 5.49699e-06 1.43073e-05
0.870117 4.16967e-06 1.08577e-05
0.87207 3.14924e-06 8.2024e-06
0.874023 2.36833e-06 6.17052e-06
0.875977 1.77345e-06 4.6209e-06
0.87793 1.32232e-06 3.44466e-06
0.879883 9.81773e-07 2.55666e-06
0.881836 7.25872e-07 1.8885e-06
0.883789 5.34431e-07 1.38901e-06
0.885742 3.91791e-07 1.01566e-06
0.887695 2.86032e-07 7.39827e-07
0.889648 2.08016e-07 5.35552e-07
0.891602 1.50639e-07 3.85959e-07
0.893555 1.08605e-07 2.75904e-07
0.895508 7.79851e-08 1.96247e-07
0.897461 5.58072e-08 1.38108e-07
0.899414 3.98308e-08 9.61931e-08
0.901367 2.83518e-08 6.56117e-08
0.90332 2.01007e-08 4.45082e-08
0.905273 1.41826e-08 2.8888e-08
0.907227 9.91516e-09 1.86515e-08
0.90918 6.80482e-09 1.11961e-08
0.911133 4.55668e-09 6.06286e-09
0.913086 2.99318e-09 2.71845e-09
0.915039 1.89963e-09 -4.11883e-10
0.916992 1.08724e-09 -1.47067e-09
0.918945 4.82898e-10 -3.3333e-09
0.920898 7.12896e-11 -3.49867e-09
0.922852 -2.39231e-10 -3.9412e-09
0.924805 -5.09469e-10 -4.16565e-09
0.926758 -7.66161e-10 -4.32958e-09
0.928711 -9.82115e-10 -4.32203e-09
0.930664 -1.1747e-09 -4.86592e-09
0.932617 -1.39958e-09 -4.92428e-09
0.93457 -1.5332e-09 -4.44135e-09
0.936523 -1.56902e-09 -3.4463e-09
0.938477 -1.61536e-09 -4.57937e-09
0.94043 -1.67001e-09 -3.23561e-09
0.942383 -1.73814e-09 -4.48985e-09
0.944336 -1.77189e-09 -4.31527e-09
0.946289 -1.71222e-09 -3.74232e-09
0.948242 -1.69129e-09 -4.07994e-09
0.950195 -1.65976e-09 -3.33062e-09
0.952148 -1.62512e-09 -4.23674e-09
0.954102 -1.747e-09 -3.927e-09
0.956055 -1.9215e-09 -3.89467e-09
0.958008 -2.05559e-09 -3.11066e-09
0.959961 -2.17626e-09 -2.92072e-09
0.961914 -2.32704e-09 -2.38645e-09
0.963867 -2.55031e-09 -1.99159e-09
0.96582 -2.75907e-09 -2.05619e-09
0.967773 -2.91141e-09 -1.67952e-09
0.969727 -3.016e-09 -9.27903e-10
0.97168 -3.13231e-09 -7.40144e-10
0.973633 -3.27646e-09 -3.62929e-10
0.975586 -3.37207e-09 -5.24859e-12
0.977539 -3.40396e-09 5.32626e-10
0.979492 -3.41403e-09 4.34127e-10
0.981445 -3.40889e-09 -4.6706e-11
0.983398 -3.346e-09 6.27545e-10
0.985352 -3.30033e-09 -2.21844e-10
0.987305 -3.26822e-09 2.4804e-10
0.989258 -3.21539e-09 5.60966e-10
0.991211 -3.22257e-09 -3.83246e-10
0.993164 -3.29633e-09 -6.54723e-10
0.995117 -3.40212e-09 -5.6256e-10
0.99707 -3.48519e-09 -4.71004e-10
0.999023 -3.57437e-09 -4.00541e-10
