0.000976562 -4.92085e-09 -3.54709e-09
0.00292969 -4.79196e-09 -3.48159e-09
0.00488281 -4.66303e-09 -3.10643e-09
0.00683594 -4.48927e-09 -1.9394e-09
0.00878906 -4.29202e-09 -1.53571e-09
0.0107422 -4.08643e-09 -1.95564e-09
0.0126953 -3.88457e-09 -1.96818e-10
0.0146484 -3.7122e-09 1.8202e-10
0.0166016 -3.54057e-09 -8.12009e-10
0.0185547 -3.35331e-09 -3.85055e-10
0.0205078 -3.22012e-09 2.51268e-10
0.0224609 -3.15292e-09 -1.64295e-10
0.0244141 -3.06648e-09 9.97319e-10
0.0263672 -2.98506e-09 1.42773e-09
0.0283203 -2.91696e-09 1.21037e-09
0.0302734 -2.85079e-09 1.54362e-09
0.0322266 -2.78199e-09 1.30881e-09
0.0341797 -2.72965e-09 7.44094e-10
0.0361328 -2.6987e-09 9.90699e-10
0.0380859 -2.62961e-09 8.43577e-10
0.0400391 -2.57691e-09 1.13826e-09
0.0419922 -2.56738e-09 6.7e-10
0.0439453 -2.54233e-09 8.84213e-10
0.0458984 -2.46608e-09 5.56775e-10
0.0478516 -2.34381e-09 3.71843e-10
0.0498047 -2.14895e-09 -4.47079e-11
0.0517578 -1.88928e-09 -8.6398e-10
0.0537109 -1.58897e-09 -1.08374e-09
0.0556641 -1.09373e-09 -1.38784e-09
0.0576172 -3.50663e-10 -3.71495e-09
0.0595703 6.40162e-10 -5.70925e-09
0.0615234 2.00701e-09 -9.15117e-09
0.0634766 3.84454e-09 -1.32062e-08
0.0654297 6.41947e-09 -1.96636e-08
0.0673828 1.00233e-08 -2.83598e-08
0.0693359 1.4885e-08 -4.09309e-08
0.0712891 2.1574e-08 -5.8571e-08
0.0732422 3.08561e-08 -8.16845e-08
0.0751953 4.35573e-08 -1.15045e-07
0.0771484 6.08066e-08 -1.59666e-07
0.0791016 8.42351e-08 -2.20598e-07
0.0810547 1.16038e-07 -3.0341e-07
0.0830078 1.58959e-07 -4.15346e-07
0.0849609 2.16674e-07 -5.65622e-07
0.0869141 2.93979e-07 -7.66961e-07
0.0888672 3.97108e-07 -1.03517e-06
0.0908203 5.34225e-07 -1.39223e-06
0.0927734 7.15733e-07 -1.86529e-06
0.0947266 9.55039e-07 -2.48843e-06
0.0966797 1.26939e-06 -3.30608e-06
0.0986328 1.68061e-06 -4.37526e-06
0.100586 2.21635e-06 -5.76815e-06
0.102539 2.9115e-06 -7.57339e-06
0.104492 3.80982e-06 -9.90698e-06
0.106445 4.96595e-06 -1.29076e-05
0.108398 6.44789e-06 -1.67513e-05
0.110352 8.3398e-06 -2.16558e-05
0.112305 1.07453e-05 -2.78896e-05
0.114258 1.37912e-05 -3.57764e-05
0.116211 1.76323e-05 -4.57174e-05
0.118164 2.24565e-05 -5.81965e-05
0.120117 2.84911e-05 -7.37965e-05
0.12207 3.60091e-05 -9.32211e-05
0.124023 4.53375e-05 -0.000117309
0.125977 5.68657e-05 -0.000147059
0.12793 7.10555e-05 -0.000183657
0.129883 8.84517e-05 -0.0002285
0.131836 0.000109694 -0.000283228
0.133789 0.000135532 -0.000349755
0.135742 0.000166836 -0.000430313
0.137695 0.000204614 -0.000527481
0.139648 0.000250032 -0.000644235
0.141602 0.000304425 -0.000783988
0.143555 0.000369322 -0.000950642
0.145508 0.000446461 -0.00114864
0.147461 0.000537815 -0.001383
0.149414 0.000645607 -0.0016594
0.151367 0.00077234 -0.00198423
0.15332 0.000920813 -0.00236462
0.155273 0.00109415 -0.00280853
0.157227 0.00129582 -0.0033248
0.15918 0.00152967 -0.00392322
0.161133 0.00179993 -0.0046146
0.163086 0.00211125 -0.00541081
0.165039 0.00246875 -0.00632486
0.166992 0.00287798 -0.00737097
0.168945 0.00334502 -0.00856463
0.170898 0.00387643 -0.00992267
0.172852 0.00447934 -0.0114633
0.174805 0.00516143 -0.0132063
0.176758 0.00593095 -0.0151728
0.178711 0.00679679 -0.0173856
0.180664 0.00776843 -0.0198694
0.182617 0.00885599 -0.0226502
0.18457 0.0100703 -0.0257562
0.186523 0.0114227 -0.0292171
0.188477 0.0129255 -0.0330647
0.19043 0.0145914 -0.0373327
0.192383 0.0164339 -0.0420568
0.194336 0.0184672 -0.0472746
0.196289 0.0207061 -0.0530256
0.198242 0.023166 -0.0593515
0.200195 0.0258629 -0.0662957
0.202148 0.0288134 -0.0739035
0.204102 0.0320343 -0.0822217
0.206055 0.035543 -0.0912988
0.208008 0.039357 -0.101184
0.209961 0.0434936 -0.111928
0.211914 0.0479703 -0.123582
0.213867 0.0528039 -0.136195
0.21582 0.0580108 -0.149818
0.217773 0.0636063 -0.1645
0.219727 0.0696042 -0.180285
0.22168 0.0760169 -0.197217
0.223633 0.0828545 -0.215332
0.225586 0.0901244 -0.234663
0.227539 0.0978313 -0.255235
0.229492 0.105976 -0.277064
0.231445 0.114556 -0.300156
0.233398 0.123564 -0.324507
0.235352 0.132987 -0.350099
0.237305 0.14281 -0.376901
0.239258 0.15301 -0.404869
0.241211 0.16356 -0.433943
0.243164 0.174429 -0.464046
0.245117 0.185578 -0.495091
0.24707 0.196968 -0.526971
0.249023 0.208553 -0.559569
0.250977 0.220285 -0.592756
0.25293 0.232112 -0.626393
0.254883 0.243983 -0.660331
0.256836 0.255844 -0.694418
0.258789 0.267641 -0.728498
0.260742 0.279322 -0.762415
0.262695 0.290837 -0.796014
0.264648 0.302137 -0.829145
0.266602 0.313178 -0.861665
0.268555 0.323917 -0.893439
0.270508 0.334318 -0.924342
0.272461 0.344347 -0.954261
0.274414 0.353974 -0.983094
0.276367 0.363176 -1.01075
0.27832 0.371931 -1.03716
0.280273 0.380225 -1.06225
0.282227 0.388044 -1.08597
0.28418 0.39538 -1.10829
0.286133 0.402228 -1.12917
0.288086 0.408586 -1.14859
0.290039 0.414455 -1.16655
0.291992 0.419837 -1.18305
0.293945 0.424739 -1.19809
0.295898 0.429166 -1.21168
0.297852 0.433127 -1.22384
0.299805 0.436633 -1.23461
0.301758 0.439693 -1.24399
0.303711 0.44232 -1.25204
0.305664 0.444526 -1.25877
0.307617 0.446322 -1.26423
0.30957 0.447723 -1.26846
0.311523 0.44874 -1.27148
0.313477 0.449388 -1.27336
0.31543 0.449679 -1.27411
0.317383 0.449626 -1.27379
0.319336 0.449243 -1.27243
0.321289 0.448542 -1.27009
0.323242 0.447535 -1.26678
0.325195 0.446234 -1.26256
0.327148 0.444652 -1.25747
0.329102 0.442801 -1.25154
0.331055 0.44069 -1.24481
0.333008 0.438332 -1.23731
0.334961 0.435737 -1.22909
0.336914 0.432916 -1.22017
0.338867 0.429877 -1.2106
0.34082 0.426632 -1.20039
0.342773 0.423189 -1.1896
0.344727 0.419557 -1.17824
0.34668 0.415746 -1.16634
0.348633 0.411764 -1.15394
0.350586 0.407618 -1.14107
0.352539 0.403318 -1.12774
0.354492 0.39887 -1.11399
0.356445 0.394283 -1.09985
0.358398 0.389563 -1.08533
0.360352 0.384718 -1.07046
0.362305 0.379754 -1.05527
0.364258 0.374677 -1.03977
0.366211 0.369496 -1.024
0.368164 0.364215 -1.00796
0.370117 0.35884 -0.991687
0.37207 0.353379 -0.975193
0.374023 0.347835 -0.958499
0.375977 0.342216 -0.941624
0.37793 0.336526 -0.924585
0.379883 0.330772 -0.9074
0.381836 0.324957 -0.890087
0.383789 0.319087 -0.872662
0.385742 0.313168 -0.855141
0.387695 0.307204 -0.83754
0.389648 0.3012 -0.819874
0.391602 0.295161 -0.802157
0.393555 0.28909 -0.784405
0.395508 0.282994 -0.766632
0.397461 0.276877 -0.74885
0.399414 0.270742 -0.731073
0.401367 0.264594 -0.713315
0.40332 0.258438 -0.695588
0.405273 0.252278 -0.677903
0.407227 0.246118 -0.660274
0.40918 0.239962 -0.642711
0.411133 0.233815 -0.625227
0.413086 0.227681 -0.607831
0.415039 0.221564 -0.590535
0.416992 0.215469 -0.573348
0.418945 0.209398 -0.556281
0.420898 0.203358 -0.539344
0.422852 0.197352 -0.522545
0.424805 0.191385 -0.505893
0.426758 0.185461 -0.489396
0.428711 0.179584 -0.473063
0.430664 0.17376 -0.4569
0.432617 0.167993 -0.440915
0.43457 0.162289 -0.425112
0.436523 0.156651 -0.409499
0.438477 0.151086 -0.39408
0.44043 0.145599 -0.378859
0.442383 0.140195 -0.363841
0.444336 0.13488 -0.349026
0.446289 0.12966 -0.334419
0.448242 0.124542 -0.32002
0.450195 0.11953 -0.305829
0.452148 0.114633 -0.291847
0.454102 0.109856 -0.278073
0.456055 0.105206 -0.264503
0.458008 0.10069 -0.251137
0.459961 0.096315 -0.237969
0.461914 0.0920881 -0.224997
0.463867 0.0880164 -0.212214
0.46582 0.0841068 -0.199616
0.467773 0.0803666 -0.187195
0.469727 0.0768028 -0.174945
0.47168 0.0734222 -0.162858
0.473633 0.0702317 -0.150926
0.475586 0.0672378 -0.13914
0.477539 0.064447 -0.12749
0.479492 0.0618653 -0.115968
0.481445 0.0594984 -0.104563
0.483398 0.0573518 -0.093265
0.485352 0.0554305 -0.0820632
0.487305 0.0537389 -0.0709469
0.489258 0.0522812 -0.0599051
0.491211 0.0510609 -0.0489266
0.493164 0.0500809 -0.038
0.495117 0.0493438 -0.0271138
0.49707 0.0488514 -0.0162567
0.499023 0.0486049 -0.00541697
0.500977 0.0486049 0.00541696
0.50293 0.0488514 0.0162567
0.504883 0.0493438 0.0271138
0.506836 0.0500809 0.038
0.508789 0.0510609 0.0489266
0.510742 0.0522812 0.0599051
0.512695 0.0537389 0.0709469
0.514648 0.0554305 0.0820632
0.516602 0.0573518 0.093265
0.518555 0.0594984 0.104563
0.520508 0.0618653 0.115968
0.522461 0.064447 0.12749
0.524414 0.0672378 0.13914
0.526367 0.0702317 0.150926
0.52832 0.0734222 0.162858
0.530273 0.0768028 0.174945
0.532227 0.0803666 0.187195
0.53418 0.0841068 0.199616
0.536133 0.0880164 0.212214
0.538086 0.0920881 0.224997
0.540039 0.096315 0.237969
0.541992 0.10069 0.251137
0.543945 0.105206 0.264503
0.545898 0.109856 0.278073
0.547852 0.114633 0.291847
0.549805 0.11953 0.305829
0.551758 0.124542 0.32002
0.553711 0.12966 0.334419
0.555664 0.13488 0.349026
0.557617 0.140195 0.363841
0.55957 0.145599 0.378859
0.561523 0.151086 0.39408
0.563477 0.156651 0.409499
0.56543 0.162289 0.425112
0.567383 0.167993 0.440915
0.569336 0.17376 0.4569
0.571289 0.179584 0.473063
0.573242 0.185461 0.489396
0.575195 0.191385 0.505893
0.577148 0.197352 0.522545
0.579102 0.203358 0.539344
0.581055 0.209398 0.556281
0.583008 0.215469 0.573348
0.584961 0.221564 0.590535
0.586914 0.227681 0.607831
0.588867 0.233815 0.625227
0.59082 0.239962 0.642711
0.592773 0.246118 0.660274
0.594727 0.252278 0.677903
0.59668 0.258438 0.695588
0.598633 0.264594 0.713315
0.600586 0.270742 0.731073
0.602539 0.276877 0.74885
0.604492 0.282994 0.766632
0.606445 0.28909 0.784405
0.608398 0.295161 0.802157
0.610352 0.3012 0.819874
0.612305 0.307204 0.83754
0.614258 0.313168 0.855141
0.616211 0.319087 0.872662
0.618164 0.324957 0.890087
0.620117 0.330772 0.9074
0.62207 0.336526 0.924585
0.624023 0.342216 0.941624
0.625977 0.347835 0.958499
0.62793 0.353379 0.975193
0.629883 0.35884 0.991687
0.631836 0.364215 1.00796
0.633789 0.369496 1.024
0.635742 0.374677 1.03977
0.637695 0.379754 1.05527
0.639648 0.384718 1.07046
0.641602 0.389563 1.08533
0.643555 0.394283 1.09985
0.645508 0.39887 1.11399
0.647461 0.403318 1.12774
0.649414 0.407618 1.14107
0.651367 0.411764 1.15394
0.65332 0.415746 1.16634
0.655273 0.419557 1.17824
0.657227 0.423189 1.1896
0.65918 0.426632 1.20039
0.661133 0.429877 1.2106
0.663086 0.432916 1.22017
0.665039 0.435737 1.22909
0.666992 0.438332 1.23731
0.668945 0.44069 1.24481
0.670898 0.442801 1.25154
0.672852 0.444652 1.25747
0.674805 0.446234 1.26256
0.676758 0.447535 1.26678
0.678711 0.448542 1.27009
0.680664 0.449243 1.27243
0.682617 0.449626 1.27379
0.68457 0.449679 1.27411
0.686523 0.449388 1.27336
0.688477 0.44874 1.27148
0.69043 0.447723 1.26846
0.692383 0.446322 1.26423
0.694336 0.444526 1.25877
0.696289 0.44232 1.25204
0.698242 0.439693 1.24399
0.700195 0.436633 1.23461
0.702148 0.433127 1.22384
0.704102 0.429166 1.21168
0.706055 0.424739 1.19809
0.708008 0.419837 1.18305
0.709961 0.414455 1.16655
0.711914 0.408586 1.14859
0.713867 0.402228 1.12917
0.71582 0.39538 1.10829
0.717773 0.388044 1.08597
0.719727 0.380225 1.06225
0.72168 0.371931 1.03716
0.723633 0.363176 1.01075
0.725586 0.353974 0.983094
0.727539 0.344347 0.954261
0.729492 0.334318 0.924342
0.731445 0.323917 0.893439
0.733398 0.313178 0.861665
0.735352 0.302137 0.829145
0.737305 0.290837 0.796014
0.739258 0.279322 0.762415
0.741211 0.267641 0.728498
0.743164 0.255844 0.694418
0.745117 0.243983 0.660331
0.74707 0.232112 0.626393
0.749023 0.220285 0.592756
0.750977 0.208553 0.559569
0.75293 0.196968 0.526971
0.754883 0.185578 0.495091
0.756836 0.174429 0.464046
0.758789 0.16356 0.433943
0.760742 0.15301 0.404869
0.762695 0.14281 0.376901
0.764648 0.132987 0.350099
0.766602 0.123564 0.324507
0.768555 0.114556 0.300156
0.770508 0.105976 0.277064
0.772461 0.0978313 0.255235
0.774414 0.0901244 0.234663
0.776367 0.0828545 0.215332
0.77832 0.0760169 0.197217
0.780273 0.0696042 0.180285
0.782227 0.0636063 0.1645
0.78418 0.0580108 0.149818
0.786133 0.0528039 0.136195
0.788086 0.0479703 0.123582
0.790039 0.0434936 0.111928
0.791992 0.039357 0.101184
0.793945 0.035543 0.0912988
0.795898 0.0320343 0.0822217
0.797852 0.0288134 0.0739035
0.799805 0.0258629 0.0662957
0.801758 0.023166 0.0593515
0.803711 0.0207061 0.0530256
0.805664 0.0184672 0.0472746
0.807617 0.0164339 0.0420568
0.80957 0.0145914 0.0373327
0.811523 0.0129255 0.0330647
0.813477 0.0114227 0.0292171
0.81543 0.0100703 0.0257562
0.817383 0.00885599 0.0226502
0.819336 0.00776843 0.0198694
0.821289 0.00679679 0.0173856
0.823242 0.00593095 0.0151728
0.825195 0.00516143 0.0132063
0.827148 0.00447934 0.0114633
0.829102 0.00387643 0.00992267
0.831055 0.00334502 0.00856463
0.833008 0.00287798 0.00737096
0.834961 0.00246875 0.00632485
0.836914 0.00211125 0.0054108
0.838867 0.00179993 0.00461459
0.84082 0.00152967 0.00392322
0.842773 0.00129582 0.00332479
0.844727 0.00109415 0.00280852
0.84668 0.000920813 0.00236461
0.848633 0.00077234 0.00198423
0.850586 0.000645607 0.0016594
0.852539 0.000537815 0.00138299
0.854492 0.000446461 0.00114863
0.856445 0.000369322 0.000950637
0.858398 0.000304425 0.000783983
0.860352 0.000250032 0.00064423
0.862305 0.000204614 0.000527477
0.864258 0.000166836 0.000430309
0.866211 0.000135532 0.000349751
0.868164 0.000109694 0.000283223
0.870117 8.84518e-05 0.000228496
0.87207 7.10556e-05 0.000183652
0.874023 5.68658e-05 0.000147054
0.875977 4.53376e-05 0.000117304
0.87793 3.60091e-05 9.32158e-05
0.879883 2.8491e-05 7.37919e-05
0.881836 2.24563e-05 5.81914e-05
0.883789 1.7632e-05 4.57125e-05
0.885742 1.37909e-05 3.57721e-05
0.887695 1.07451e-05 2.78844e-05
0.889648 8.33976e-06 2.16516e-05
0.891602 6.4479e-06 1.67469e-05
0.893555 4.96591e-06 1.29021e-05
0.895508 3.80969e-06 9.90216e-06
0.897461 2.91135e-06 7.56877e-06
0.899414 2.21622e-06 5.76308e-06
0.901367 1.6805e-06 4.37014e-06
0.90332 1.2693e-06 3.30145e-06
0.905273 9.54935e-07 2.48367e-06
0.907227 7.156e-07 1.86013e-06
0.90918 5.34149e-07 1.38795e-06
0.911133 3.97138e-07 1.03053e-06
0.913086 2.94077e-07 7.61838e-07
0.915039 2.16796e-07 5.60168e-07
0.916992 1.59046e-07 4.09645e-07
0.918945 1.16077e-07 2.98215e-07
0.920898 8.42418e-08 2.15932e-07
0.922852 6.07576e-08 1.54316e-07
0.924805 4.35662e-08 1.09778e-07
0.926758 3.10694e-08 7.65106e-08
0.928711 2.19663e-08 5.24188e-08
0.930664 1.53732e-08 3.53058e-08
0.932617 1.05097e-08 2.25484e-08
0.93457 6.93665e-09 1.33271e-08
0.936523 4.40833e-09 7.05176e-09
0.938477 2.57089e-09 2.31759e-09
0.94043 1.19209e-09 -1.81976e-10
0.942383 1.3089e-10 -3.30622e-09
0.944336 -7.4272e-10 -4.47666e-09
0.946289 -1.40381e-09 -4.83221e-09
0.948242 -1.85504e-09 -5.72897e-09
0.950195 -2.2383e-09 -5.68739e-09
0.952148 -2.56448e-09 -6.38164e-09
0.954102 -2.86934e-09 -6.21066e-09
0.956055 -3.15194e-09 -6.06714e-09
0.958008 -3.32003e-09 -6.04515e-09
0.959961 -3.3541e-09 -5.61023e-09
0.961914 -3.36009e-09 -5.18101e-09
0.963867 -3.40912e-09 -6.33853e-09
0.96582 -3.44378e-09 -5.6222e-09
0.967773 -3.42264e-09 -5.80905e-09
0.969727 -3.38602e-09 -6.33955e-09
0.97168 -3.3526e-09 -5.83523e-09
0.973633 -3.29903e-09 -5.34663e-09
0.975586 -3.22048e-09 -5.42242e-09
0.977539 -3.17863e-09 -6.15272e-09
0.979492 -3.22669e-09 -5.33756e-09
0.981445 -3.36794e-09 -5.89188e-09
0.983398 -3.53161e-09 -5.35347e-09
0.985352 -3.69414e-09 -4.35377e-09
0.987305 -3.92027e-09 -5.31459e-09
0.989258 -4.17231e-09 -4.23723e-09
0.991211 -4.38258e-09 -4.46358e-09
0.993164 -4.57397e-09 -3.39587e-09
0.995117 -4.80326e-09 -4.57613e-09
0.99707 -4.97804e-09 -2.64024e-09
0.999023 -5.02095e-09 -2.70595e-09
