8 0.182846125868 2.88368635844 0.00120091438293
16 0.203351387258 2.72012287074 0.00157785415649
32 0.163471702331 2.07208410226 0.00458717346191
64 0.146476091214 1.82051779195 0.0174353122711
128 0.117173503078 1.44826263478 0.15978717804
256 0.0919216698205 1.14795024543 1.31381797791
