8 0.17894251453 2.69000477728 0.00475883483887
16 0.164025563506 2.16531863104 0.0106718540192
32 0.11869281616 1.51997183084 0.0310277938843
64 0.0949074820644 1.22641259102 0.129949808121
128 0.0731113786637 0.944302696374 1.29466032982
256 0.0550288540598 0.712557586306 12.5847587585
